{
  "__data_type": "GIT ",
  "AreaProperties": {
    "__struct_id": 100,
    "type": "struct",
    "value": {
      "__struct_id": 100,
      "AmbientSndDay": {
        "type": "int",
        "value": 0
      },
      "AmbientSndDayVol": {
        "type": "int",
        "value": 127
      },
      "AmbientSndNight": {
        "type": "int",
        "value": 0
      },
      "AmbientSndNitVol": {
        "type": "int",
        "value": 127
      },
      "EnvAudio": {
        "type": "int",
        "value": 0
      },
      "MusicBattle": {
        "type": "int",
        "value": 0
      },
      "MusicDay": {
        "type": "int",
        "value": 0
      },
      "MusicDelay": {
        "type": "int",
        "value": 0
      },
      "MusicNight": {
        "type": "int",
        "value": 0
      }
    }
  },
  "Creature List": {
    "type": "list",
    "value": []
  },
  "Door List": {
    "type": "list",
    "value": [
      {
        "__struct_id": 8,
        "AnimationState": {
          "type": "byte",
          "value": 0
        },
        "Appearance": {
          "type": "dword",
          "value": 5025
        },
        "AutoRemoveKey": {
          "type": "byte",
          "value": 0
        },
        "Bearing": {
          "type": "float",
          "value": -1.5708
        },
        "CloseLockDC": {
          "type": "byte",
          "value": 0
        },
        "Conversation": {
          "type": "resref",
          "value": ""
        },
        "CurrentHP": {
          "type": "short",
          "value": 80
        },
        "Description": {
          "type": "cexolocstring",
          "value": {}
        },
        "DisarmDC": {
          "type": "byte",
          "value": 15
        },
        "Faction": {
          "type": "dword",
          "value": 1
        },
        "Fort": {
          "type": "byte",
          "value": 16
        },
        "GenericType_New": {
          "type": "dword",
          "value": 0
        },
        "Hardness": {
          "type": "byte",
          "value": 5
        },
        "HP": {
          "type": "short",
          "value": 80
        },
        "Interruptable": {
          "type": "byte",
          "value": 1
        },
        "KeyName": {
          "type": "cexostring",
          "value": ""
        },
        "KeyRequired": {
          "type": "byte",
          "value": 1
        },
        "LinkedTo": {
          "type": "cexostring",
          "value": ""
        },
        "LinkedToFlags": {
          "type": "byte",
          "value": 0
        },
        "LoadScreenID": {
          "type": "word",
          "value": 0
        },
        "Lockable": {
          "type": "byte",
          "value": 0
        },
        "Locked": {
          "type": "byte",
          "value": 1
        },
        "LocName": {
          "id": 5349,
          "type": "cexolocstring",
          "value": {}
        },
        "OnClick": {
          "type": "resref",
          "value": ""
        },
        "OnClosed": {
          "type": "resref",
          "value": ""
        },
        "OnDamaged": {
          "type": "resref",
          "value": ""
        },
        "OnDeath": {
          "type": "resref",
          "value": "x2_door_death"
        },
        "OnDisarm": {
          "type": "resref",
          "value": ""
        },
        "OnFailToOpen": {
          "type": "resref",
          "value": ""
        },
        "OnHeartbeat": {
          "type": "resref",
          "value": ""
        },
        "OnLock": {
          "type": "resref",
          "value": ""
        },
        "OnMeleeAttacked": {
          "type": "resref",
          "value": ""
        },
        "OnOpen": {
          "type": "resref",
          "value": ""
        },
        "OnSpellCastAt": {
          "type": "resref",
          "value": ""
        },
        "OnTrapTriggered": {
          "type": "resref",
          "value": ""
        },
        "OnUnlock": {
          "type": "resref",
          "value": ""
        },
        "OnUserDefined": {
          "type": "resref",
          "value": ""
        },
        "OpenLockDC": {
          "type": "byte",
          "value": 18
        },
        "Plot": {
          "type": "byte",
          "value": 1
        },
        "PortraitId": {
          "type": "word",
          "value": 0
        },
        "Ref": {
          "type": "byte",
          "value": 0
        },
        "Tag": {
          "type": "cexostring",
          "value": "HouseDoor"
        },
        "TemplateResRef": {
          "type": "resref",
          "value": "nw_door_ttr_19"
        },
        "TrapDetectable": {
          "type": "byte",
          "value": 1
        },
        "TrapDetectDC": {
          "type": "byte",
          "value": 0
        },
        "TrapDisarmable": {
          "type": "byte",
          "value": 1
        },
        "TrapFlag": {
          "type": "byte",
          "value": 0
        },
        "TrapOneShot": {
          "type": "byte",
          "value": 1
        },
        "TrapType": {
          "type": "byte",
          "value": 0
        },
        "Will": {
          "type": "byte",
          "value": 0
        },
        "X": {
          "type": "float",
          "value": 35.5
        },
        "Y": {
          "type": "float",
          "value": 23.5
        },
        "Z": {
          "type": "float",
          "value": 5.0
        }
      },
      {
        "__struct_id": 8,
        "AnimationState": {
          "type": "byte",
          "value": 0
        },
        "Appearance": {
          "type": "dword",
          "value": 5024
        },
        "AutoRemoveKey": {
          "type": "byte",
          "value": 0
        },
        "Bearing": {
          "type": "float",
          "value": -1.5708
        },
        "CloseLockDC": {
          "type": "byte",
          "value": 0
        },
        "Conversation": {
          "type": "resref",
          "value": ""
        },
        "CurrentHP": {
          "type": "short",
          "value": 80
        },
        "Description": {
          "type": "cexolocstring",
          "value": {}
        },
        "DisarmDC": {
          "type": "byte",
          "value": 15
        },
        "Faction": {
          "type": "dword",
          "value": 1
        },
        "Fort": {
          "type": "byte",
          "value": 16
        },
        "GenericType_New": {
          "type": "dword",
          "value": 0
        },
        "Hardness": {
          "type": "byte",
          "value": 5
        },
        "HP": {
          "type": "short",
          "value": 80
        },
        "Interruptable": {
          "type": "byte",
          "value": 1
        },
        "KeyName": {
          "type": "cexostring",
          "value": ""
        },
        "KeyRequired": {
          "type": "byte",
          "value": 0
        },
        "LinkedTo": {
          "type": "cexostring",
          "value": ""
        },
        "LinkedToFlags": {
          "type": "byte",
          "value": 0
        },
        "LoadScreenID": {
          "type": "word",
          "value": 0
        },
        "Lockable": {
          "type": "byte",
          "value": 0
        },
        "Locked": {
          "type": "byte",
          "value": 0
        },
        "LocName": {
          "id": 5349,
          "type": "cexolocstring",
          "value": {}
        },
        "OnClick": {
          "type": "resref",
          "value": "obj_tavernenter"
        },
        "OnClosed": {
          "type": "resref",
          "value": ""
        },
        "OnDamaged": {
          "type": "resref",
          "value": ""
        },
        "OnDeath": {
          "type": "resref",
          "value": ""
        },
        "OnDisarm": {
          "type": "resref",
          "value": ""
        },
        "OnFailToOpen": {
          "type": "resref",
          "value": ""
        },
        "OnHeartbeat": {
          "type": "resref",
          "value": ""
        },
        "OnLock": {
          "type": "resref",
          "value": ""
        },
        "OnMeleeAttacked": {
          "type": "resref",
          "value": ""
        },
        "OnOpen": {
          "type": "resref",
          "value": ""
        },
        "OnSpellCastAt": {
          "type": "resref",
          "value": ""
        },
        "OnTrapTriggered": {
          "type": "resref",
          "value": ""
        },
        "OnUnlock": {
          "type": "resref",
          "value": ""
        },
        "OnUserDefined": {
          "type": "resref",
          "value": ""
        },
        "OpenLockDC": {
          "type": "byte",
          "value": 18
        },
        "Plot": {
          "type": "byte",
          "value": 1
        },
        "PortraitId": {
          "type": "word",
          "value": 0
        },
        "Ref": {
          "type": "byte",
          "value": 0
        },
        "Tag": {
          "type": "cexostring",
          "value": "HouseDoor"
        },
        "TemplateResRef": {
          "type": "resref",
          "value": "nw_door_ttr_19"
        },
        "TrapDetectable": {
          "type": "byte",
          "value": 1
        },
        "TrapDetectDC": {
          "type": "byte",
          "value": 0
        },
        "TrapDisarmable": {
          "type": "byte",
          "value": 1
        },
        "TrapFlag": {
          "type": "byte",
          "value": 0
        },
        "TrapOneShot": {
          "type": "byte",
          "value": 1
        },
        "TrapType": {
          "type": "byte",
          "value": 0
        },
        "Will": {
          "type": "byte",
          "value": 0
        },
        "X": {
          "type": "float",
          "value": 32.3
        },
        "Y": {
          "type": "float",
          "value": 18.7
        },
        "Z": {
          "type": "float",
          "value": 5.0
        }
      },
      {
        "__struct_id": 8,
        "AnimationState": {
          "type": "byte",
          "value": 0
        },
        "Appearance": {
          "type": "dword",
          "value": 5025
        },
        "AutoRemoveKey": {
          "type": "byte",
          "value": 0
        },
        "Bearing": {
          "type": "float",
          "value": 0.0
        },
        "CloseLockDC": {
          "type": "byte",
          "value": 0
        },
        "Conversation": {
          "type": "resref",
          "value": ""
        },
        "CurrentHP": {
          "type": "short",
          "value": 80
        },
        "Description": {
          "type": "cexolocstring",
          "value": {}
        },
        "DisarmDC": {
          "type": "byte",
          "value": 15
        },
        "Faction": {
          "type": "dword",
          "value": 1
        },
        "Fort": {
          "type": "byte",
          "value": 16
        },
        "GenericType_New": {
          "type": "dword",
          "value": 0
        },
        "Hardness": {
          "type": "byte",
          "value": 5
        },
        "HP": {
          "type": "short",
          "value": 80
        },
        "Interruptable": {
          "type": "byte",
          "value": 1
        },
        "KeyName": {
          "type": "cexostring",
          "value": ""
        },
        "KeyRequired": {
          "type": "byte",
          "value": 1
        },
        "LinkedTo": {
          "type": "cexostring",
          "value": ""
        },
        "LinkedToFlags": {
          "type": "byte",
          "value": 0
        },
        "LoadScreenID": {
          "type": "word",
          "value": 0
        },
        "Lockable": {
          "type": "byte",
          "value": 0
        },
        "Locked": {
          "type": "byte",
          "value": 1
        },
        "LocName": {
          "id": 5349,
          "type": "cexolocstring",
          "value": {}
        },
        "OnClick": {
          "type": "resref",
          "value": ""
        },
        "OnClosed": {
          "type": "resref",
          "value": ""
        },
        "OnDamaged": {
          "type": "resref",
          "value": ""
        },
        "OnDeath": {
          "type": "resref",
          "value": "x2_door_death"
        },
        "OnDisarm": {
          "type": "resref",
          "value": ""
        },
        "OnFailToOpen": {
          "type": "resref",
          "value": ""
        },
        "OnHeartbeat": {
          "type": "resref",
          "value": ""
        },
        "OnLock": {
          "type": "resref",
          "value": ""
        },
        "OnMeleeAttacked": {
          "type": "resref",
          "value": ""
        },
        "OnOpen": {
          "type": "resref",
          "value": ""
        },
        "OnSpellCastAt": {
          "type": "resref",
          "value": ""
        },
        "OnTrapTriggered": {
          "type": "resref",
          "value": ""
        },
        "OnUnlock": {
          "type": "resref",
          "value": ""
        },
        "OnUserDefined": {
          "type": "resref",
          "value": ""
        },
        "OpenLockDC": {
          "type": "byte",
          "value": 18
        },
        "Plot": {
          "type": "byte",
          "value": 1
        },
        "PortraitId": {
          "type": "word",
          "value": 0
        },
        "Ref": {
          "type": "byte",
          "value": 0
        },
        "Tag": {
          "type": "cexostring",
          "value": "HouseDoor"
        },
        "TemplateResRef": {
          "type": "resref",
          "value": "nw_door_ttr_19"
        },
        "TrapDetectable": {
          "type": "byte",
          "value": 1
        },
        "TrapDetectDC": {
          "type": "byte",
          "value": 0
        },
        "TrapDisarmable": {
          "type": "byte",
          "value": 1
        },
        "TrapFlag": {
          "type": "byte",
          "value": 0
        },
        "TrapOneShot": {
          "type": "byte",
          "value": 1
        },
        "TrapType": {
          "type": "byte",
          "value": 0
        },
        "Will": {
          "type": "byte",
          "value": 0
        },
        "X": {
          "type": "float",
          "value": 34.0
        },
        "Y": {
          "type": "float",
          "value": 65.47
        },
        "Z": {
          "type": "float",
          "value": 5.0
        }
      },
      {
        "__struct_id": 8,
        "AnimationState": {
          "type": "byte",
          "value": 0
        },
        "Appearance": {
          "type": "dword",
          "value": 5024
        },
        "AutoRemoveKey": {
          "type": "byte",
          "value": 0
        },
        "Bearing": {
          "type": "float",
          "value": -0.0
        },
        "CloseLockDC": {
          "type": "byte",
          "value": 0
        },
        "Conversation": {
          "type": "resref",
          "value": ""
        },
        "CurrentHP": {
          "type": "short",
          "value": 80
        },
        "Description": {
          "type": "cexolocstring",
          "value": {}
        },
        "DisarmDC": {
          "type": "byte",
          "value": 15
        },
        "Faction": {
          "type": "dword",
          "value": 1
        },
        "Fort": {
          "type": "byte",
          "value": 16
        },
        "GenericType_New": {
          "type": "dword",
          "value": 0
        },
        "Hardness": {
          "type": "byte",
          "value": 5
        },
        "HP": {
          "type": "short",
          "value": 80
        },
        "Interruptable": {
          "type": "byte",
          "value": 1
        },
        "KeyName": {
          "type": "cexostring",
          "value": ""
        },
        "KeyRequired": {
          "type": "byte",
          "value": 0
        },
        "LinkedTo": {
          "type": "cexostring",
          "value": ""
        },
        "LinkedToFlags": {
          "type": "byte",
          "value": 0
        },
        "LoadScreenID": {
          "type": "word",
          "value": 0
        },
        "Lockable": {
          "type": "byte",
          "value": 0
        },
        "Locked": {
          "type": "byte",
          "value": 0
        },
        "LocName": {
          "id": 5349,
          "type": "cexolocstring",
          "value": {}
        },
        "OnClick": {
          "type": "resref",
          "value": "obj_storeenter"
        },
        "OnClosed": {
          "type": "resref",
          "value": ""
        },
        "OnDamaged": {
          "type": "resref",
          "value": ""
        },
        "OnDeath": {
          "type": "resref",
          "value": ""
        },
        "OnDisarm": {
          "type": "resref",
          "value": ""
        },
        "OnFailToOpen": {
          "type": "resref",
          "value": ""
        },
        "OnHeartbeat": {
          "type": "resref",
          "value": ""
        },
        "OnLock": {
          "type": "resref",
          "value": ""
        },
        "OnMeleeAttacked": {
          "type": "resref",
          "value": ""
        },
        "OnOpen": {
          "type": "resref",
          "value": ""
        },
        "OnSpellCastAt": {
          "type": "resref",
          "value": ""
        },
        "OnTrapTriggered": {
          "type": "resref",
          "value": ""
        },
        "OnUnlock": {
          "type": "resref",
          "value": ""
        },
        "OnUserDefined": {
          "type": "resref",
          "value": ""
        },
        "OpenLockDC": {
          "type": "byte",
          "value": 18
        },
        "Plot": {
          "type": "byte",
          "value": 1
        },
        "PortraitId": {
          "type": "word",
          "value": 0
        },
        "Ref": {
          "type": "byte",
          "value": 0
        },
        "Tag": {
          "type": "cexostring",
          "value": "HouseDoor"
        },
        "TemplateResRef": {
          "type": "resref",
          "value": "nw_door_ttr_19"
        },
        "TrapDetectable": {
          "type": "byte",
          "value": 1
        },
        "TrapDetectDC": {
          "type": "byte",
          "value": 0
        },
        "TrapDisarmable": {
          "type": "byte",
          "value": 1
        },
        "TrapFlag": {
          "type": "byte",
          "value": 0
        },
        "TrapOneShot": {
          "type": "byte",
          "value": 1
        },
        "TrapType": {
          "type": "byte",
          "value": 0
        },
        "Will": {
          "type": "byte",
          "value": 0
        },
        "X": {
          "type": "float",
          "value": 27.7
        },
        "Y": {
          "type": "float",
          "value": 62.23
        },
        "Z": {
          "type": "float",
          "value": 5.0
        }
      },
      {
        "__struct_id": 8,
        "AnimationState": {
          "type": "byte",
          "value": 0
        },
        "Appearance": {
          "type": "dword",
          "value": 5025
        },
        "AutoRemoveKey": {
          "type": "byte",
          "value": 0
        },
        "Bearing": {
          "type": "float",
          "value": 1.5708
        },
        "CloseLockDC": {
          "type": "byte",
          "value": 0
        },
        "Conversation": {
          "type": "resref",
          "value": ""
        },
        "CurrentHP": {
          "type": "short",
          "value": 80
        },
        "Description": {
          "type": "cexolocstring",
          "value": {}
        },
        "DisarmDC": {
          "type": "byte",
          "value": 15
        },
        "Faction": {
          "type": "dword",
          "value": 1
        },
        "Fort": {
          "type": "byte",
          "value": 16
        },
        "GenericType_New": {
          "type": "dword",
          "value": 0
        },
        "Hardness": {
          "type": "byte",
          "value": 5
        },
        "HP": {
          "type": "short",
          "value": 80
        },
        "Interruptable": {
          "type": "byte",
          "value": 1
        },
        "KeyName": {
          "type": "cexostring",
          "value": ""
        },
        "KeyRequired": {
          "type": "byte",
          "value": 1
        },
        "LinkedTo": {
          "type": "cexostring",
          "value": ""
        },
        "LinkedToFlags": {
          "type": "byte",
          "value": 0
        },
        "LoadScreenID": {
          "type": "word",
          "value": 0
        },
        "Lockable": {
          "type": "byte",
          "value": 0
        },
        "Locked": {
          "type": "byte",
          "value": 1
        },
        "LocName": {
          "id": 5349,
          "type": "cexolocstring",
          "value": {}
        },
        "OnClick": {
          "type": "resref",
          "value": ""
        },
        "OnClosed": {
          "type": "resref",
          "value": ""
        },
        "OnDamaged": {
          "type": "resref",
          "value": ""
        },
        "OnDeath": {
          "type": "resref",
          "value": "x2_door_death"
        },
        "OnDisarm": {
          "type": "resref",
          "value": ""
        },
        "OnFailToOpen": {
          "type": "resref",
          "value": ""
        },
        "OnHeartbeat": {
          "type": "resref",
          "value": ""
        },
        "OnLock": {
          "type": "resref",
          "value": ""
        },
        "OnMeleeAttacked": {
          "type": "resref",
          "value": ""
        },
        "OnOpen": {
          "type": "resref",
          "value": ""
        },
        "OnSpellCastAt": {
          "type": "resref",
          "value": ""
        },
        "OnTrapTriggered": {
          "type": "resref",
          "value": ""
        },
        "OnUnlock": {
          "type": "resref",
          "value": ""
        },
        "OnUserDefined": {
          "type": "resref",
          "value": ""
        },
        "OpenLockDC": {
          "type": "byte",
          "value": 18
        },
        "Plot": {
          "type": "byte",
          "value": 1
        },
        "PortraitId": {
          "type": "word",
          "value": 0
        },
        "Ref": {
          "type": "byte",
          "value": 0
        },
        "Tag": {
          "type": "cexostring",
          "value": "HouseDoor"
        },
        "TemplateResRef": {
          "type": "resref",
          "value": "nw_door_ttr_19"
        },
        "TrapDetectable": {
          "type": "byte",
          "value": 1
        },
        "TrapDetectDC": {
          "type": "byte",
          "value": 0
        },
        "TrapDisarmable": {
          "type": "byte",
          "value": 1
        },
        "TrapFlag": {
          "type": "byte",
          "value": 0
        },
        "TrapOneShot": {
          "type": "byte",
          "value": 1
        },
        "TrapType": {
          "type": "byte",
          "value": 0
        },
        "Will": {
          "type": "byte",
          "value": 0
        },
        "X": {
          "type": "float",
          "value": 74.53
        },
        "Y": {
          "type": "float",
          "value": 76.5
        },
        "Z": {
          "type": "float",
          "value": 5.0
        }
      },
      {
        "__struct_id": 8,
        "AnimationState": {
          "type": "byte",
          "value": 0
        },
        "Appearance": {
          "type": "dword",
          "value": 5024
        },
        "AutoRemoveKey": {
          "type": "byte",
          "value": 0
        },
        "Bearing": {
          "type": "float",
          "value": 0.0
        },
        "CloseLockDC": {
          "type": "byte",
          "value": 0
        },
        "Conversation": {
          "type": "resref",
          "value": ""
        },
        "CurrentHP": {
          "type": "short",
          "value": 80
        },
        "Description": {
          "type": "cexolocstring",
          "value": {}
        },
        "DisarmDC": {
          "type": "byte",
          "value": 15
        },
        "Faction": {
          "type": "dword",
          "value": 1
        },
        "Fort": {
          "type": "byte",
          "value": 16
        },
        "GenericType_New": {
          "type": "dword",
          "value": 0
        },
        "Hardness": {
          "type": "byte",
          "value": 5
        },
        "HP": {
          "type": "short",
          "value": 80
        },
        "Interruptable": {
          "type": "byte",
          "value": 1
        },
        "KeyName": {
          "type": "cexostring",
          "value": ""
        },
        "KeyRequired": {
          "type": "byte",
          "value": 1
        },
        "LinkedTo": {
          "type": "cexostring",
          "value": ""
        },
        "LinkedToFlags": {
          "type": "byte",
          "value": 0
        },
        "LoadScreenID": {
          "type": "word",
          "value": 0
        },
        "Lockable": {
          "type": "byte",
          "value": 0
        },
        "Locked": {
          "type": "byte",
          "value": 1
        },
        "LocName": {
          "id": 5349,
          "type": "cexolocstring",
          "value": {}
        },
        "OnClick": {
          "type": "resref",
          "value": ""
        },
        "OnClosed": {
          "type": "resref",
          "value": ""
        },
        "OnDamaged": {
          "type": "resref",
          "value": ""
        },
        "OnDeath": {
          "type": "resref",
          "value": "x2_door_death"
        },
        "OnDisarm": {
          "type": "resref",
          "value": ""
        },
        "OnFailToOpen": {
          "type": "resref",
          "value": ""
        },
        "OnHeartbeat": {
          "type": "resref",
          "value": ""
        },
        "OnLock": {
          "type": "resref",
          "value": ""
        },
        "OnMeleeAttacked": {
          "type": "resref",
          "value": ""
        },
        "OnOpen": {
          "type": "resref",
          "value": ""
        },
        "OnSpellCastAt": {
          "type": "resref",
          "value": ""
        },
        "OnTrapTriggered": {
          "type": "resref",
          "value": ""
        },
        "OnUnlock": {
          "type": "resref",
          "value": ""
        },
        "OnUserDefined": {
          "type": "resref",
          "value": ""
        },
        "OpenLockDC": {
          "type": "byte",
          "value": 18
        },
        "Plot": {
          "type": "byte",
          "value": 1
        },
        "PortraitId": {
          "type": "word",
          "value": 0
        },
        "Ref": {
          "type": "byte",
          "value": 0
        },
        "Tag": {
          "type": "cexostring",
          "value": "HouseDoor"
        },
        "TemplateResRef": {
          "type": "resref",
          "value": "nw_door_ttr_19"
        },
        "TrapDetectable": {
          "type": "byte",
          "value": 1
        },
        "TrapDetectDC": {
          "type": "byte",
          "value": 0
        },
        "TrapDisarmable": {
          "type": "byte",
          "value": 1
        },
        "TrapFlag": {
          "type": "byte",
          "value": 0
        },
        "TrapOneShot": {
          "type": "byte",
          "value": 1
        },
        "TrapType": {
          "type": "byte",
          "value": 0
        },
        "Will": {
          "type": "byte",
          "value": 0
        },
        "X": {
          "type": "float",
          "value": 69.25
        },
        "Y": {
          "type": "float",
          "value": 72.8
        },
        "Z": {
          "type": "float",
          "value": 8.220000000000001
        }
      },
      {
        "__struct_id": 8,
        "AnimationState": {
          "type": "byte",
          "value": 0
        },
        "Appearance": {
          "type": "dword",
          "value": 5024
        },
        "AutoRemoveKey": {
          "type": "byte",
          "value": 0
        },
        "Bearing": {
          "type": "float",
          "value": 1.5708
        },
        "CloseLockDC": {
          "type": "byte",
          "value": 0
        },
        "Conversation": {
          "type": "resref",
          "value": ""
        },
        "CurrentHP": {
          "type": "short",
          "value": 80
        },
        "Description": {
          "type": "cexolocstring",
          "value": {}
        },
        "DisarmDC": {
          "type": "byte",
          "value": 15
        },
        "Faction": {
          "type": "dword",
          "value": 1
        },
        "Fort": {
          "type": "byte",
          "value": 16
        },
        "GenericType_New": {
          "type": "dword",
          "value": 0
        },
        "Hardness": {
          "type": "byte",
          "value": 5
        },
        "HP": {
          "type": "short",
          "value": 80
        },
        "Interruptable": {
          "type": "byte",
          "value": 1
        },
        "KeyName": {
          "type": "cexostring",
          "value": ""
        },
        "KeyRequired": {
          "type": "byte",
          "value": 1
        },
        "LinkedTo": {
          "type": "cexostring",
          "value": ""
        },
        "LinkedToFlags": {
          "type": "byte",
          "value": 0
        },
        "LoadScreenID": {
          "type": "word",
          "value": 0
        },
        "Lockable": {
          "type": "byte",
          "value": 0
        },
        "Locked": {
          "type": "byte",
          "value": 1
        },
        "LocName": {
          "id": 5349,
          "type": "cexolocstring",
          "value": {}
        },
        "OnClick": {
          "type": "resref",
          "value": ""
        },
        "OnClosed": {
          "type": "resref",
          "value": ""
        },
        "OnDamaged": {
          "type": "resref",
          "value": ""
        },
        "OnDeath": {
          "type": "resref",
          "value": "x2_door_death"
        },
        "OnDisarm": {
          "type": "resref",
          "value": ""
        },
        "OnFailToOpen": {
          "type": "resref",
          "value": ""
        },
        "OnHeartbeat": {
          "type": "resref",
          "value": ""
        },
        "OnLock": {
          "type": "resref",
          "value": ""
        },
        "OnMeleeAttacked": {
          "type": "resref",
          "value": ""
        },
        "OnOpen": {
          "type": "resref",
          "value": ""
        },
        "OnSpellCastAt": {
          "type": "resref",
          "value": ""
        },
        "OnTrapTriggered": {
          "type": "resref",
          "value": ""
        },
        "OnUnlock": {
          "type": "resref",
          "value": ""
        },
        "OnUserDefined": {
          "type": "resref",
          "value": ""
        },
        "OpenLockDC": {
          "type": "byte",
          "value": 18
        },
        "Plot": {
          "type": "byte",
          "value": 1
        },
        "PortraitId": {
          "type": "word",
          "value": 0
        },
        "Ref": {
          "type": "byte",
          "value": 0
        },
        "Tag": {
          "type": "cexostring",
          "value": "HouseDoor"
        },
        "TemplateResRef": {
          "type": "resref",
          "value": "nw_door_ttr_19"
        },
        "TrapDetectable": {
          "type": "byte",
          "value": 1
        },
        "TrapDetectDC": {
          "type": "byte",
          "value": 0
        },
        "TrapDisarmable": {
          "type": "byte",
          "value": 1
        },
        "TrapFlag": {
          "type": "byte",
          "value": 0
        },
        "TrapOneShot": {
          "type": "byte",
          "value": 1
        },
        "TrapType": {
          "type": "byte",
          "value": 0
        },
        "Will": {
          "type": "byte",
          "value": 0
        },
        "X": {
          "type": "float",
          "value": 74.90000000000001
        },
        "Y": {
          "type": "float",
          "value": 70.5
        },
        "Z": {
          "type": "float",
          "value": 5.01
        }
      },
      {
        "__struct_id": 8,
        "AnimationState": {
          "type": "byte",
          "value": 0
        },
        "Appearance": {
          "type": "dword",
          "value": 5024
        },
        "AutoRemoveKey": {
          "type": "byte",
          "value": 0
        },
        "Bearing": {
          "type": "float",
          "value": 2.7751
        },
        "CloseLockDC": {
          "type": "byte",
          "value": 0
        },
        "Conversation": {
          "type": "resref",
          "value": ""
        },
        "CurrentHP": {
          "type": "short",
          "value": 80
        },
        "Description": {
          "type": "cexolocstring",
          "value": {}
        },
        "DisarmDC": {
          "type": "byte",
          "value": 15
        },
        "Faction": {
          "type": "dword",
          "value": 1
        },
        "Fort": {
          "type": "byte",
          "value": 16
        },
        "GenericType_New": {
          "type": "dword",
          "value": 0
        },
        "Hardness": {
          "type": "byte",
          "value": 5
        },
        "HP": {
          "type": "short",
          "value": 80
        },
        "Interruptable": {
          "type": "byte",
          "value": 1
        },
        "KeyName": {
          "type": "cexostring",
          "value": ""
        },
        "KeyRequired": {
          "type": "byte",
          "value": 1
        },
        "LinkedTo": {
          "type": "cexostring",
          "value": ""
        },
        "LinkedToFlags": {
          "type": "byte",
          "value": 0
        },
        "LoadScreenID": {
          "type": "word",
          "value": 0
        },
        "Lockable": {
          "type": "byte",
          "value": 0
        },
        "Locked": {
          "type": "byte",
          "value": 1
        },
        "LocName": {
          "id": 5349,
          "type": "cexolocstring",
          "value": {}
        },
        "OnClick": {
          "type": "resref",
          "value": ""
        },
        "OnClosed": {
          "type": "resref",
          "value": ""
        },
        "OnDamaged": {
          "type": "resref",
          "value": ""
        },
        "OnDeath": {
          "type": "resref",
          "value": "x2_door_death"
        },
        "OnDisarm": {
          "type": "resref",
          "value": ""
        },
        "OnFailToOpen": {
          "type": "resref",
          "value": ""
        },
        "OnHeartbeat": {
          "type": "resref",
          "value": ""
        },
        "OnLock": {
          "type": "resref",
          "value": ""
        },
        "OnMeleeAttacked": {
          "type": "resref",
          "value": ""
        },
        "OnOpen": {
          "type": "resref",
          "value": ""
        },
        "OnSpellCastAt": {
          "type": "resref",
          "value": ""
        },
        "OnTrapTriggered": {
          "type": "resref",
          "value": ""
        },
        "OnUnlock": {
          "type": "resref",
          "value": ""
        },
        "OnUserDefined": {
          "type": "resref",
          "value": ""
        },
        "OpenLockDC": {
          "type": "byte",
          "value": 18
        },
        "Plot": {
          "type": "byte",
          "value": 1
        },
        "PortraitId": {
          "type": "word",
          "value": 0
        },
        "Ref": {
          "type": "byte",
          "value": 0
        },
        "Tag": {
          "type": "cexostring",
          "value": "HouseDoor"
        },
        "TemplateResRef": {
          "type": "resref",
          "value": "nw_door_ttr_19"
        },
        "TrapDetectable": {
          "type": "byte",
          "value": 1
        },
        "TrapDetectDC": {
          "type": "byte",
          "value": 0
        },
        "TrapDisarmable": {
          "type": "byte",
          "value": 1
        },
        "TrapFlag": {
          "type": "byte",
          "value": 0
        },
        "TrapOneShot": {
          "type": "byte",
          "value": 1
        },
        "TrapType": {
          "type": "byte",
          "value": 0
        },
        "Will": {
          "type": "byte",
          "value": 0
        },
        "X": {
          "type": "float",
          "value": 63.65
        },
        "Y": {
          "type": "float",
          "value": 64.76000000000001
        },
        "Z": {
          "type": "float",
          "value": 5.0
        }
      },
      {
        "__struct_id": 8,
        "AnimationState": {
          "type": "byte",
          "value": 0
        },
        "Appearance": {
          "type": "dword",
          "value": 5026
        },
        "AutoRemoveKey": {
          "type": "byte",
          "value": 0
        },
        "Bearing": {
          "type": "float",
          "value": -1.5708
        },
        "CloseLockDC": {
          "type": "byte",
          "value": 0
        },
        "Conversation": {
          "type": "resref",
          "value": ""
        },
        "CurrentHP": {
          "type": "short",
          "value": 80
        },
        "Description": {
          "type": "cexolocstring",
          "value": {}
        },
        "DisarmDC": {
          "type": "byte",
          "value": 15
        },
        "Faction": {
          "type": "dword",
          "value": 1
        },
        "Fort": {
          "type": "byte",
          "value": 16
        },
        "GenericType_New": {
          "type": "dword",
          "value": 0
        },
        "Hardness": {
          "type": "byte",
          "value": 5
        },
        "HP": {
          "type": "short",
          "value": 80
        },
        "Interruptable": {
          "type": "byte",
          "value": 1
        },
        "KeyName": {
          "type": "cexostring",
          "value": ""
        },
        "KeyRequired": {
          "type": "byte",
          "value": 1
        },
        "LinkedTo": {
          "type": "cexostring",
          "value": ""
        },
        "LinkedToFlags": {
          "type": "byte",
          "value": 0
        },
        "LoadScreenID": {
          "type": "word",
          "value": 0
        },
        "Lockable": {
          "type": "byte",
          "value": 0
        },
        "Locked": {
          "type": "byte",
          "value": 1
        },
        "LocName": {
          "id": 5349,
          "type": "cexolocstring",
          "value": {}
        },
        "OnClick": {
          "type": "resref",
          "value": ""
        },
        "OnClosed": {
          "type": "resref",
          "value": ""
        },
        "OnDamaged": {
          "type": "resref",
          "value": ""
        },
        "OnDeath": {
          "type": "resref",
          "value": "x2_door_death"
        },
        "OnDisarm": {
          "type": "resref",
          "value": ""
        },
        "OnFailToOpen": {
          "type": "resref",
          "value": ""
        },
        "OnHeartbeat": {
          "type": "resref",
          "value": ""
        },
        "OnLock": {
          "type": "resref",
          "value": ""
        },
        "OnMeleeAttacked": {
          "type": "resref",
          "value": ""
        },
        "OnOpen": {
          "type": "resref",
          "value": ""
        },
        "OnSpellCastAt": {
          "type": "resref",
          "value": ""
        },
        "OnTrapTriggered": {
          "type": "resref",
          "value": ""
        },
        "OnUnlock": {
          "type": "resref",
          "value": ""
        },
        "OnUserDefined": {
          "type": "resref",
          "value": ""
        },
        "OpenLockDC": {
          "type": "byte",
          "value": 18
        },
        "Plot": {
          "type": "byte",
          "value": 1
        },
        "PortraitId": {
          "type": "word",
          "value": 0
        },
        "Ref": {
          "type": "byte",
          "value": 0
        },
        "Tag": {
          "type": "cexostring",
          "value": "Barn2Door"
        },
        "TemplateResRef": {
          "type": "resref",
          "value": "nw_door_ttr_05"
        },
        "TrapDetectable": {
          "type": "byte",
          "value": 1
        },
        "TrapDetectDC": {
          "type": "byte",
          "value": 0
        },
        "TrapDisarmable": {
          "type": "byte",
          "value": 1
        },
        "TrapFlag": {
          "type": "byte",
          "value": 0
        },
        "TrapOneShot": {
          "type": "byte",
          "value": 1
        },
        "TrapType": {
          "type": "byte",
          "value": 0
        },
        "Will": {
          "type": "byte",
          "value": 0
        },
        "X": {
          "type": "float",
          "value": 5.5
        },
        "Y": {
          "type": "float",
          "value": 65.0
        },
        "Z": {
          "type": "float",
          "value": 5.0
        }
      },
      {
        "__struct_id": 8,
        "AnimationState": {
          "type": "byte",
          "value": 0
        },
        "Appearance": {
          "type": "dword",
          "value": 5026
        },
        "AutoRemoveKey": {
          "type": "byte",
          "value": 0
        },
        "Bearing": {
          "type": "float",
          "value": 1.5708
        },
        "CloseLockDC": {
          "type": "byte",
          "value": 0
        },
        "Conversation": {
          "type": "resref",
          "value": ""
        },
        "CurrentHP": {
          "type": "short",
          "value": 80
        },
        "Description": {
          "type": "cexolocstring",
          "value": {}
        },
        "DisarmDC": {
          "type": "byte",
          "value": 15
        },
        "Faction": {
          "type": "dword",
          "value": 1
        },
        "Fort": {
          "type": "byte",
          "value": 16
        },
        "GenericType_New": {
          "type": "dword",
          "value": 0
        },
        "Hardness": {
          "type": "byte",
          "value": 5
        },
        "HP": {
          "type": "short",
          "value": 80
        },
        "Interruptable": {
          "type": "byte",
          "value": 1
        },
        "KeyName": {
          "type": "cexostring",
          "value": ""
        },
        "KeyRequired": {
          "type": "byte",
          "value": 1
        },
        "LinkedTo": {
          "type": "cexostring",
          "value": ""
        },
        "LinkedToFlags": {
          "type": "byte",
          "value": 0
        },
        "LoadScreenID": {
          "type": "word",
          "value": 0
        },
        "Lockable": {
          "type": "byte",
          "value": 0
        },
        "Locked": {
          "type": "byte",
          "value": 1
        },
        "LocName": {
          "id": 5349,
          "type": "cexolocstring",
          "value": {}
        },
        "OnClick": {
          "type": "resref",
          "value": ""
        },
        "OnClosed": {
          "type": "resref",
          "value": ""
        },
        "OnDamaged": {
          "type": "resref",
          "value": ""
        },
        "OnDeath": {
          "type": "resref",
          "value": "x2_door_death"
        },
        "OnDisarm": {
          "type": "resref",
          "value": ""
        },
        "OnFailToOpen": {
          "type": "resref",
          "value": ""
        },
        "OnHeartbeat": {
          "type": "resref",
          "value": ""
        },
        "OnLock": {
          "type": "resref",
          "value": ""
        },
        "OnMeleeAttacked": {
          "type": "resref",
          "value": ""
        },
        "OnOpen": {
          "type": "resref",
          "value": ""
        },
        "OnSpellCastAt": {
          "type": "resref",
          "value": ""
        },
        "OnTrapTriggered": {
          "type": "resref",
          "value": ""
        },
        "OnUnlock": {
          "type": "resref",
          "value": ""
        },
        "OnUserDefined": {
          "type": "resref",
          "value": ""
        },
        "OpenLockDC": {
          "type": "byte",
          "value": 18
        },
        "Plot": {
          "type": "byte",
          "value": 1
        },
        "PortraitId": {
          "type": "word",
          "value": 0
        },
        "Ref": {
          "type": "byte",
          "value": 0
        },
        "Tag": {
          "type": "cexostring",
          "value": "Barn2Door"
        },
        "TemplateResRef": {
          "type": "resref",
          "value": "nw_door_ttr_05"
        },
        "TrapDetectable": {
          "type": "byte",
          "value": 1
        },
        "TrapDetectDC": {
          "type": "byte",
          "value": 0
        },
        "TrapDisarmable": {
          "type": "byte",
          "value": 1
        },
        "TrapFlag": {
          "type": "byte",
          "value": 0
        },
        "TrapOneShot": {
          "type": "byte",
          "value": 1
        },
        "TrapType": {
          "type": "byte",
          "value": 0
        },
        "Will": {
          "type": "byte",
          "value": 0
        },
        "X": {
          "type": "float",
          "value": 17.0
        },
        "Y": {
          "type": "float",
          "value": 65.0
        },
        "Z": {
          "type": "float",
          "value": 5.0
        }
      },
      {
        "__struct_id": 8,
        "AnimationState": {
          "type": "byte",
          "value": 0
        },
        "Appearance": {
          "type": "dword",
          "value": 5024
        },
        "AutoRemoveKey": {
          "type": "byte",
          "value": 0
        },
        "Bearing": {
          "type": "float",
          "value": -1.5708
        },
        "CloseLockDC": {
          "type": "byte",
          "value": 0
        },
        "Conversation": {
          "type": "resref",
          "value": ""
        },
        "CurrentHP": {
          "type": "short",
          "value": 80
        },
        "Description": {
          "type": "cexolocstring",
          "value": {}
        },
        "DisarmDC": {
          "type": "byte",
          "value": 15
        },
        "Faction": {
          "type": "dword",
          "value": 1
        },
        "Fort": {
          "type": "byte",
          "value": 16
        },
        "GenericType_New": {
          "type": "dword",
          "value": 0
        },
        "Hardness": {
          "type": "byte",
          "value": 5
        },
        "HP": {
          "type": "short",
          "value": 80
        },
        "Interruptable": {
          "type": "byte",
          "value": 1
        },
        "KeyName": {
          "type": "cexostring",
          "value": ""
        },
        "KeyRequired": {
          "type": "byte",
          "value": 1
        },
        "LinkedTo": {
          "type": "cexostring",
          "value": ""
        },
        "LinkedToFlags": {
          "type": "byte",
          "value": 0
        },
        "LoadScreenID": {
          "type": "word",
          "value": 0
        },
        "Lockable": {
          "type": "byte",
          "value": 0
        },
        "Locked": {
          "type": "byte",
          "value": 1
        },
        "LocName": {
          "id": 5349,
          "type": "cexolocstring",
          "value": {}
        },
        "OnClick": {
          "type": "resref",
          "value": ""
        },
        "OnClosed": {
          "type": "resref",
          "value": ""
        },
        "OnDamaged": {
          "type": "resref",
          "value": ""
        },
        "OnDeath": {
          "type": "resref",
          "value": "x2_door_death"
        },
        "OnDisarm": {
          "type": "resref",
          "value": ""
        },
        "OnFailToOpen": {
          "type": "resref",
          "value": ""
        },
        "OnHeartbeat": {
          "type": "resref",
          "value": ""
        },
        "OnLock": {
          "type": "resref",
          "value": ""
        },
        "OnMeleeAttacked": {
          "type": "resref",
          "value": ""
        },
        "OnOpen": {
          "type": "resref",
          "value": ""
        },
        "OnSpellCastAt": {
          "type": "resref",
          "value": ""
        },
        "OnTrapTriggered": {
          "type": "resref",
          "value": ""
        },
        "OnUnlock": {
          "type": "resref",
          "value": ""
        },
        "OnUserDefined": {
          "type": "resref",
          "value": ""
        },
        "OpenLockDC": {
          "type": "byte",
          "value": 18
        },
        "Plot": {
          "type": "byte",
          "value": 1
        },
        "PortraitId": {
          "type": "word",
          "value": 0
        },
        "Ref": {
          "type": "byte",
          "value": 0
        },
        "Tag": {
          "type": "cexostring",
          "value": "HouseDoor"
        },
        "TemplateResRef": {
          "type": "resref",
          "value": "nw_door_ttr_19"
        },
        "TrapDetectable": {
          "type": "byte",
          "value": 1
        },
        "TrapDetectDC": {
          "type": "byte",
          "value": 0
        },
        "TrapDisarmable": {
          "type": "byte",
          "value": 1
        },
        "TrapFlag": {
          "type": "byte",
          "value": 0
        },
        "TrapOneShot": {
          "type": "byte",
          "value": 1
        },
        "TrapType": {
          "type": "byte",
          "value": 0
        },
        "Will": {
          "type": "byte",
          "value": 0
        },
        "X": {
          "type": "float",
          "value": 11.5
        },
        "Y": {
          "type": "float",
          "value": 37.75
        },
        "Z": {
          "type": "float",
          "value": 5.0
        }
      },
      {
        "__struct_id": 8,
        "AnimationState": {
          "type": "byte",
          "value": 0
        },
        "Appearance": {
          "type": "dword",
          "value": 5025
        },
        "AutoRemoveKey": {
          "type": "byte",
          "value": 0
        },
        "Bearing": {
          "type": "float",
          "value": 1.5708
        },
        "CloseLockDC": {
          "type": "byte",
          "value": 0
        },
        "Conversation": {
          "type": "resref",
          "value": ""
        },
        "CurrentHP": {
          "type": "short",
          "value": 80
        },
        "Description": {
          "type": "cexolocstring",
          "value": {}
        },
        "DisarmDC": {
          "type": "byte",
          "value": 15
        },
        "Faction": {
          "type": "dword",
          "value": 1
        },
        "Fort": {
          "type": "byte",
          "value": 16
        },
        "GenericType_New": {
          "type": "dword",
          "value": 0
        },
        "Hardness": {
          "type": "byte",
          "value": 5
        },
        "HP": {
          "type": "short",
          "value": 80
        },
        "Interruptable": {
          "type": "byte",
          "value": 1
        },
        "KeyName": {
          "type": "cexostring",
          "value": ""
        },
        "KeyRequired": {
          "type": "byte",
          "value": 1
        },
        "LinkedTo": {
          "type": "cexostring",
          "value": ""
        },
        "LinkedToFlags": {
          "type": "byte",
          "value": 0
        },
        "LoadScreenID": {
          "type": "word",
          "value": 0
        },
        "Lockable": {
          "type": "byte",
          "value": 0
        },
        "Locked": {
          "type": "byte",
          "value": 1
        },
        "LocName": {
          "id": 5349,
          "type": "cexolocstring",
          "value": {}
        },
        "OnClick": {
          "type": "resref",
          "value": ""
        },
        "OnClosed": {
          "type": "resref",
          "value": ""
        },
        "OnDamaged": {
          "type": "resref",
          "value": ""
        },
        "OnDeath": {
          "type": "resref",
          "value": "x2_door_death"
        },
        "OnDisarm": {
          "type": "resref",
          "value": ""
        },
        "OnFailToOpen": {
          "type": "resref",
          "value": ""
        },
        "OnHeartbeat": {
          "type": "resref",
          "value": ""
        },
        "OnLock": {
          "type": "resref",
          "value": ""
        },
        "OnMeleeAttacked": {
          "type": "resref",
          "value": ""
        },
        "OnOpen": {
          "type": "resref",
          "value": ""
        },
        "OnSpellCastAt": {
          "type": "resref",
          "value": ""
        },
        "OnTrapTriggered": {
          "type": "resref",
          "value": ""
        },
        "OnUnlock": {
          "type": "resref",
          "value": ""
        },
        "OnUserDefined": {
          "type": "resref",
          "value": ""
        },
        "OpenLockDC": {
          "type": "byte",
          "value": 18
        },
        "Plot": {
          "type": "byte",
          "value": 1
        },
        "PortraitId": {
          "type": "word",
          "value": 0
        },
        "Ref": {
          "type": "byte",
          "value": 0
        },
        "Tag": {
          "type": "cexostring",
          "value": "HouseDoor"
        },
        "TemplateResRef": {
          "type": "resref",
          "value": "nw_door_ttr_19"
        },
        "TrapDetectable": {
          "type": "byte",
          "value": 1
        },
        "TrapDetectDC": {
          "type": "byte",
          "value": 0
        },
        "TrapDisarmable": {
          "type": "byte",
          "value": 1
        },
        "TrapFlag": {
          "type": "byte",
          "value": 0
        },
        "TrapOneShot": {
          "type": "byte",
          "value": 1
        },
        "TrapType": {
          "type": "byte",
          "value": 0
        },
        "Will": {
          "type": "byte",
          "value": 0
        },
        "X": {
          "type": "float",
          "value": 17.7
        },
        "Y": {
          "type": "float",
          "value": 33.6
        },
        "Z": {
          "type": "float",
          "value": 5.75
        }
      }
    ]
  },
  "Encounter List": {
    "type": "list",
    "value": []
  },
  "List": {
    "type": "list",
    "value": []
  },
  "Placeable List": {
    "type": "list",
    "value": []
  },
  "SoundList": {
    "type": "list",
    "value": [
      {
        "__struct_id": 6,
        "Active": {
          "type": "byte",
          "value": 1
        },
        "Continuous": {
          "type": "byte",
          "value": 0
        },
        "Elevation": {
          "type": "float",
          "value": 1.5
        },
        "GeneratedType": {
          "type": "dword",
          "value": 0
        },
        "Hours": {
          "type": "dword",
          "value": 0
        },
        "Interval": {
          "type": "dword",
          "value": 0
        },
        "IntervalVrtn": {
          "type": "dword",
          "value": 0
        },
        "LocName": {
          "id": 67806,
          "type": "cexolocstring",
          "value": {}
        },
        "Looping": {
          "type": "byte",
          "value": 1
        },
        "MaxDistance": {
          "type": "float",
          "value": 10.0
        },
        "MinDistance": {
          "type": "float",
          "value": 1.0
        },
        "PitchVariation": {
          "type": "float",
          "value": 0.0
        },
        "Positional": {
          "type": "byte",
          "value": 1
        },
        "Priority": {
          "type": "byte",
          "value": 3
        },
        "Random": {
          "type": "byte",
          "value": 0
        },
        "RandomPosition": {
          "type": "byte",
          "value": 0
        },
        "RandomRangeX": {
          "type": "float",
          "value": 0.0
        },
        "RandomRangeY": {
          "type": "float",
          "value": 0.0
        },
        "Sounds": {
          "type": "list",
          "value": [
            {
              "__struct_id": 0,
              "Sound": {
                "type": "resref",
                "value": "al_cv_firecamp1"
              }
            }
          ]
        },
        "Tag": {
          "type": "cexostring",
          "value": "Campfire"
        },
        "TemplateResRef": {
          "type": "resref",
          "value": "campfire"
        },
        "Times": {
          "type": "byte",
          "value": 3
        },
        "Volume": {
          "type": "byte",
          "value": 127
        },
        "VolumeVrtn": {
          "type": "byte",
          "value": 0
        },
        "XPosition": {
          "type": "float",
          "value": 34.338
        },
        "YPosition": {
          "type": "float",
          "value": 47.9043
        },
        "ZPosition": {
          "type": "float",
          "value": 6.6267
        }
      }
    ]
  },
  "StoreList": {
    "type": "list",
    "value": []
  },
  "TriggerList": {
    "type": "list",
    "value": [
      {
        "__struct_id": 1,
        "AutoRemoveKey": {
          "type": "byte",
          "value": 0
        },
        "Cursor": {
          "type": "byte",
          "value": 1
        },
        "DisarmDC": {
          "type": "byte",
          "value": 10
        },
        "Faction": {
          "type": "dword",
          "value": 1
        },
        "Geometry": {
          "type": "list",
          "value": [
            {
              "__struct_id": 3,
              "PointX": {
                "type": "float",
                "value": 0.0
              },
              "PointY": {
                "type": "float",
                "value": 0.0
              },
              "PointZ": {
                "type": "float",
                "value": 5.025
              }
            },
            {
              "__struct_id": 3,
              "PointX": {
                "type": "float",
                "value": 1.0191
              },
              "PointY": {
                "type": "float",
                "value": 0.0655
              },
              "PointZ": {
                "type": "float",
                "value": 5.0144
              }
            },
            {
              "__struct_id": 3,
              "PointX": {
                "type": "float",
                "value": 1.0007
              },
              "PointY": {
                "type": "float",
                "value": 4.2316
              },
              "PointZ": {
                "type": "float",
                "value": 5.025
              }
            },
            {
              "__struct_id": 3,
              "PointX": {
                "type": "float",
                "value": 0.0163
              },
              "PointY": {
                "type": "float",
                "value": 4.2576
              },
              "PointZ": {
                "type": "float",
                "value": 5.025
              }
            }
          ]
        },
        "HighlightHeight": {
          "type": "float",
          "value": 3.0
        },
        "KeyName": {
          "type": "cexostring",
          "value": ""
        },
        "LinkedTo": {
          "type": "cexostring",
          "value": ""
        },
        "LinkedToFlags": {
          "type": "byte",
          "value": 0
        },
        "LoadScreenID": {
          "type": "word",
          "value": 0
        },
        "LocalizedName": {
          "type": "cexolocstring",
          "value": {
            "0": "Area Transition - West"
          }
        },
        "OnClick": {
          "type": "resref",
          "value": "tri_tilechange"
        },
        "OnDisarm": {
          "type": "resref",
          "value": ""
        },
        "OnTrapTriggered": {
          "type": "resref",
          "value": ""
        },
        "PortraitId": {
          "type": "word",
          "value": 0
        },
        "ScriptHeartbeat": {
          "type": "resref",
          "value": ""
        },
        "ScriptOnEnter": {
          "type": "resref",
          "value": "tri_tilechange"
        },
        "ScriptOnExit": {
          "type": "resref",
          "value": ""
        },
        "ScriptUserDefine": {
          "type": "resref",
          "value": ""
        },
        "Tag": {
          "type": "cexostring",
          "value": "tri_go_west"
        },
        "TemplateResRef": {
          "type": "resref",
          "value": "tri_go_west"
        },
        "TrapDetectable": {
          "type": "byte",
          "value": 1
        },
        "TrapDetectDC": {
          "type": "byte",
          "value": 10
        },
        "TrapDisarmable": {
          "type": "byte",
          "value": 1
        },
        "TrapFlag": {
          "type": "byte",
          "value": 0
        },
        "TrapOneShot": {
          "type": "byte",
          "value": 1
        },
        "TrapType": {
          "type": "byte",
          "value": 0
        },
        "Type": {
          "type": "int",
          "value": 1
        },
        "VarTable": {
          "type": "list",
          "value": [
            {
              "__struct_id": 0,
              "Name": {
                "type": "cexostring",
                "value": "TRANSITION_DIRECTION"
              },
              "Type": {
                "type": "dword",
                "value": 1
              },
              "Value": {
                "type": "int",
                "value": 8
              }
            }
          ]
        },
        "XOrientation": {
          "type": "float",
          "value": 0.0
        },
        "XPosition": {
          "type": "float",
          "value": 0.0507
        },
        "YOrientation": {
          "type": "float",
          "value": 0.0
        },
        "YPosition": {
          "type": "float",
          "value": 52.8347
        },
        "ZOrientation": {
          "type": "float",
          "value": 0.0
        },
        "ZPosition": {
          "type": "float",
          "value": 0.0
        }
      }
    ]
  },
  "WaypointList": {
    "type": "list",
    "value": [
      {
        "__struct_id": 5,
        "Appearance": {
          "type": "byte",
          "value": 1
        },
        "Description": {
          "type": "cexolocstring",
          "value": {}
        },
        "HasMapNote": {
          "type": "byte",
          "value": 1
        },
        "LinkedTo": {
          "type": "cexostring",
          "value": ""
        },
        "LocalizedName": {
          "type": "cexolocstring",
          "value": {
            "0": "Tavern Waypoint"
          }
        },
        "MapNote": {
          "type": "cexolocstring",
          "value": {
            "0": "Tavern",
            "10": "Tawerna"
          }
        },
        "MapNoteEnabled": {
          "type": "byte",
          "value": 1
        },
        "Tag": {
          "type": "cexostring",
          "value": "wp_tavern"
        },
        "TemplateResRef": {
          "type": "resref",
          "value": "wp_tavern"
        },
        "XOrientation": {
          "type": "float",
          "value": -0.9997
        },
        "XPosition": {
          "type": "float",
          "value": 30.3387
        },
        "YOrientation": {
          "type": "float",
          "value": 0.0245
        },
        "YPosition": {
          "type": "float",
          "value": 18.7141
        },
        "ZPosition": {
          "type": "float",
          "value": 5.0
        }
      },
      {
        "__struct_id": 5,
        "Appearance": {
          "type": "byte",
          "value": 1
        },
        "Description": {
          "type": "cexolocstring",
          "value": {
            "0": ""
          }
        },
        "HasMapNote": {
          "type": "byte",
          "value": 1
        },
        "LinkedTo": {
          "type": "cexostring",
          "value": ""
        },
        "LocalizedName": {
          "type": "cexolocstring",
          "value": {
            "0": "Store Waypoint"
          }
        },
        "MapNote": {
          "type": "cexolocstring",
          "value": {
            "0": "General store",
            "10": "Sklep ogólny"
          }
        },
        "MapNoteEnabled": {
          "type": "byte",
          "value": 1
        },
        "Tag": {
          "type": "cexostring",
          "value": "wp_store"
        },
        "TemplateResRef": {
          "type": "resref",
          "value": "wp_store"
        },
        "XOrientation": {
          "type": "float",
          "value": -0.0245
        },
        "XPosition": {
          "type": "float",
          "value": 27.7118
        },
        "YOrientation": {
          "type": "float",
          "value": -0.9997
        },
        "YPosition": {
          "type": "float",
          "value": 60.2339
        },
        "ZPosition": {
          "type": "float",
          "value": 5.0
        }
      },
      {
        "__struct_id": 5,
        "Appearance": {
          "type": "byte",
          "value": 1
        },
        "Description": {
          "type": "cexolocstring",
          "value": {}
        },
        "HasMapNote": {
          "type": "byte",
          "value": 1
        },
        "LinkedTo": {
          "type": "cexostring",
          "value": ""
        },
        "LocalizedName": {
          "type": "cexolocstring",
          "value": {
            "0": "Stable Master Spawn Point"
          }
        },
        "MapNote": {
          "type": "cexolocstring",
          "value": {
            "0": "Stable master",
            "10": "Stajenny"
          }
        },
        "MapNoteEnabled": {
          "type": "byte",
          "value": 1
        },
        "Tag": {
          "type": "cexostring",
          "value": "wp_stablemaster"
        },
        "TemplateResRef": {
          "type": "resref",
          "value": "wp_stablemaster"
        },
        "XOrientation": {
          "type": "float",
          "value": 0.0245
        },
        "XPosition": {
          "type": "float",
          "value": 9.0671
        },
        "YOrientation": {
          "type": "float",
          "value": -0.9997
        },
        "YPosition": {
          "type": "float",
          "value": 59.9249
        },
        "ZPosition": {
          "type": "float",
          "value": 5.0008
        }
      },
      {
        "__struct_id": 5,
        "Appearance": {
          "type": "byte",
          "value": 1
        },
        "Description": {
          "type": "cexolocstring",
          "value": {}
        },
        "HasMapNote": {
          "type": "byte",
          "value": 0
        },
        "LinkedTo": {
          "type": "cexostring",
          "value": ""
        },
        "LocalizedName": {
          "type": "cexolocstring",
          "value": {
            "0": "Hitching Post Spawn Point"
          }
        },
        "MapNote": {
          "type": "cexolocstring",
          "value": {
            "0": "Hitching post",
            "10": "Stajenny"
          }
        },
        "MapNoteEnabled": {
          "type": "byte",
          "value": 0
        },
        "Tag": {
          "type": "cexostring",
          "value": "wp_hitchpost"
        },
        "TemplateResRef": {
          "type": "resref",
          "value": "wp_hitchpost"
        },
        "XOrientation": {
          "type": "float",
          "value": 0.0
        },
        "XPosition": {
          "type": "float",
          "value": 14.2098
        },
        "YOrientation": {
          "type": "float",
          "value": -1.0
        },
        "YPosition": {
          "type": "float",
          "value": 59.5602
        },
        "ZPosition": {
          "type": "float",
          "value": 5.0
        }
      },
      {
        "__struct_id": 5,
        "Appearance": {
          "type": "byte",
          "value": 1
        },
        "Description": {
          "type": "cexolocstring",
          "value": {}
        },
        "HasMapNote": {
          "type": "byte",
          "value": 1
        },
        "LinkedTo": {
          "type": "cexostring",
          "value": ""
        },
        "LocalizedName": {
          "type": "cexolocstring",
          "value": {
            "0": "Facility Signpost Waypoint"
          }
        },
        "MapNote": {
          "type": "cexolocstring",
          "value": {
            "0": "Outskirts signpost",
            "10": "Drogowskaz na obrze¿a"
          }
        },
        "MapNoteEnabled": {
          "type": "byte",
          "value": 1
        },
        "Tag": {
          "type": "cexostring",
          "value": "wp_facsignpost"
        },
        "TemplateResRef": {
          "type": "resref",
          "value": "wp_facsignpost"
        },
        "XOrientation": {
          "type": "float",
          "value": -0.6152
        },
        "XPosition": {
          "type": "float",
          "value": 49.2551
        },
        "YOrientation": {
          "type": "float",
          "value": 0.7883
        },
        "YPosition": {
          "type": "float",
          "value": 50.2208
        },
        "ZPosition": {
          "type": "float",
          "value": 5.0
        }
      },
      {
        "__struct_id": 5,
        "Appearance": {
          "type": "byte",
          "value": 3
        },
        "Description": {
          "type": "cexolocstring",
          "value": {}
        },
        "HasMapNote": {
          "type": "byte",
          "value": 0
        },
        "LinkedTo": {
          "type": "cexostring",
          "value": ""
        },
        "LocalizedName": {
          "type": "cexolocstring",
          "value": {
            "0": "Bounty Hunter Spawn Point"
          }
        },
        "MapNote": {
          "type": "cexolocstring",
          "value": {}
        },
        "MapNoteEnabled": {
          "type": "byte",
          "value": 0
        },
        "Tag": {
          "type": "cexostring",
          "value": "wp_bountyhunter"
        },
        "TemplateResRef": {
          "type": "resref",
          "value": "wp_bountyhunter"
        },
        "XOrientation": {
          "type": "float",
          "value": -0.7242
        },
        "XPosition": {
          "type": "float",
          "value": 36.2576
        },
        "YOrientation": {
          "type": "float",
          "value": 0.6895
        },
        "YPosition": {
          "type": "float",
          "value": 46.1243
        },
        "ZPosition": {
          "type": "float",
          "value": 5.0
        }
      },
      {
        "__struct_id": 5,
        "Appearance": {
          "type": "byte",
          "value": 1
        },
        "Description": {
          "type": "cexolocstring",
          "value": {}
        },
        "HasMapNote": {
          "type": "byte",
          "value": 1
        },
        "LinkedTo": {
          "type": "cexostring",
          "value": ""
        },
        "LocalizedName": {
          "type": "cexolocstring",
          "value": {
            "0": "Tile Exit - West"
          }
        },
        "MapNote": {
          "type": "cexolocstring",
          "value": {
            "0": "Exit - west",
            "10": "Wyjœcie - zachód"
          }
        },
        "MapNoteEnabled": {
          "type": "byte",
          "value": 1
        },
        "Tag": {
          "type": "cexostring",
          "value": "wp_west"
        },
        "TemplateResRef": {
          "type": "resref",
          "value": "wp_west"
        },
        "XOrientation": {
          "type": "float",
          "value": 0.9997
        },
        "XPosition": {
          "type": "float",
          "value": 3.1838
        },
        "YOrientation": {
          "type": "float",
          "value": 0.0245
        },
        "YPosition": {
          "type": "float",
          "value": 54.768
        },
        "ZPosition": {
          "type": "float",
          "value": 4.9165
        }
      },
      {
        "__struct_id": 5,
        "Appearance": {
          "type": "byte",
          "value": 4
        },
        "Description": {
          "type": "cexolocstring",
          "value": {}
        },
        "HasMapNote": {
          "type": "byte",
          "value": 0
        },
        "LinkedTo": {
          "type": "cexostring",
          "value": ""
        },
        "LocalizedName": {
          "type": "cexolocstring",
          "value": {
            "0": "Questgiver 1 Spawn Point"
          }
        },
        "MapNote": {
          "type": "cexolocstring",
          "value": {}
        },
        "MapNoteEnabled": {
          "type": "byte",
          "value": 0
        },
        "Tag": {
          "type": "cexostring",
          "value": "wp_questgiver_1"
        },
        "TemplateResRef": {
          "type": "resref",
          "value": "wp_questgiver_1"
        },
        "XOrientation": {
          "type": "float",
          "value": -0.7572
        },
        "XPosition": {
          "type": "float",
          "value": 47.2706
        },
        "YOrientation": {
          "type": "float",
          "value": 0.6532
        },
        "YPosition": {
          "type": "float",
          "value": 33.1798
        },
        "ZPosition": {
          "type": "float",
          "value": 5.0
        }
      },
      {
        "__struct_id": 5,
        "Appearance": {
          "type": "byte",
          "value": 4
        },
        "Description": {
          "type": "cexolocstring",
          "value": {}
        },
        "HasMapNote": {
          "type": "byte",
          "value": 0
        },
        "LinkedTo": {
          "type": "cexostring",
          "value": ""
        },
        "LocalizedName": {
          "type": "cexolocstring",
          "value": {
            "0": "Questgiver 2 Spawn Point"
          }
        },
        "MapNote": {
          "type": "cexolocstring",
          "value": {}
        },
        "MapNoteEnabled": {
          "type": "byte",
          "value": 0
        },
        "Tag": {
          "type": "cexostring",
          "value": "wp_questgiver_2"
        },
        "TemplateResRef": {
          "type": "resref",
          "value": "wp_questgiver_2"
        },
        "XOrientation": {
          "type": "float",
          "value": 0.8577
        },
        "XPosition": {
          "type": "float",
          "value": 15.2021
        },
        "YOrientation": {
          "type": "float",
          "value": 0.5141
        },
        "YPosition": {
          "type": "float",
          "value": 41.9249
        },
        "ZPosition": {
          "type": "float",
          "value": 5.0
        }
      },
      {
        "__struct_id": 5,
        "Appearance": {
          "type": "byte",
          "value": 4
        },
        "Description": {
          "type": "cexolocstring",
          "value": {}
        },
        "HasMapNote": {
          "type": "byte",
          "value": 0
        },
        "LinkedTo": {
          "type": "cexostring",
          "value": ""
        },
        "LocalizedName": {
          "type": "cexolocstring",
          "value": {
            "0": "Questgiver 3 Spawn Point"
          }
        },
        "MapNote": {
          "type": "cexolocstring",
          "value": {}
        },
        "MapNoteEnabled": {
          "type": "byte",
          "value": 0
        },
        "Tag": {
          "type": "cexostring",
          "value": "wp_questgiver_3"
        },
        "TemplateResRef": {
          "type": "resref",
          "value": "wp_questgiver_3"
        },
        "XOrientation": {
          "type": "float",
          "value": -0.7572
        },
        "XPosition": {
          "type": "float",
          "value": 70.8755
        },
        "YOrientation": {
          "type": "float",
          "value": -0.6532
        },
        "YPosition": {
          "type": "float",
          "value": 32.4393
        },
        "ZPosition": {
          "type": "float",
          "value": 5.0
        }
      },
      {
        "__struct_id": 5,
        "Appearance": {
          "type": "byte",
          "value": 4
        },
        "Description": {
          "type": "cexolocstring",
          "value": {}
        },
        "HasMapNote": {
          "type": "byte",
          "value": 0
        },
        "LinkedTo": {
          "type": "cexostring",
          "value": ""
        },
        "LocalizedName": {
          "type": "cexolocstring",
          "value": {
            "0": "Questgiver 4 Spawn Point"
          }
        },
        "MapNote": {
          "type": "cexolocstring",
          "value": {}
        },
        "MapNoteEnabled": {
          "type": "byte",
          "value": 0
        },
        "Tag": {
          "type": "cexostring",
          "value": "wp_questgiver_4"
        },
        "TemplateResRef": {
          "type": "resref",
          "value": "wp_questgiver_4"
        },
        "XOrientation": {
          "type": "float",
          "value": 0.8932
        },
        "XPosition": {
          "type": "float",
          "value": 39.616
        },
        "YOrientation": {
          "type": "float",
          "value": -0.4496
        },
        "YPosition": {
          "type": "float",
          "value": 69.2794
        },
        "ZPosition": {
          "type": "float",
          "value": 5.0
        }
      },
      {
        "__struct_id": 5,
        "Appearance": {
          "type": "byte",
          "value": 4
        },
        "Description": {
          "type": "cexolocstring",
          "value": {}
        },
        "HasMapNote": {
          "type": "byte",
          "value": 0
        },
        "LinkedTo": {
          "type": "cexostring",
          "value": ""
        },
        "LocalizedName": {
          "type": "cexolocstring",
          "value": {
            "0": "Questgiver 5 Spawn Point"
          }
        },
        "MapNote": {
          "type": "cexolocstring",
          "value": {}
        },
        "MapNoteEnabled": {
          "type": "byte",
          "value": 0
        },
        "Tag": {
          "type": "cexostring",
          "value": "wp_questgiver_5"
        },
        "TemplateResRef": {
          "type": "resref",
          "value": "wp_questgiver_5"
        },
        "XOrientation": {
          "type": "float",
          "value": 0.0491
        },
        "XPosition": {
          "type": "float",
          "value": 19.581
        },
        "YOrientation": {
          "type": "float",
          "value": -0.9988
        },
        "YPosition": {
          "type": "float",
          "value": 71.31310000000001
        },
        "ZPosition": {
          "type": "float",
          "value": 5.01
        }
      },
      {
        "__struct_id": 5,
        "Appearance": {
          "type": "byte",
          "value": 4
        },
        "Description": {
          "type": "cexolocstring",
          "value": {}
        },
        "HasMapNote": {
          "type": "byte",
          "value": 0
        },
        "LinkedTo": {
          "type": "cexostring",
          "value": ""
        },
        "LocalizedName": {
          "type": "cexolocstring",
          "value": {
            "0": "Questgiver 6 Spawn Point"
          }
        },
        "MapNote": {
          "type": "cexolocstring",
          "value": {}
        },
        "MapNoteEnabled": {
          "type": "byte",
          "value": 0
        },
        "Tag": {
          "type": "cexostring",
          "value": "wp_questgiver_6"
        },
        "TemplateResRef": {
          "type": "resref",
          "value": "wp_questgiver_6"
        },
        "XOrientation": {
          "type": "float",
          "value": 0.0
        },
        "XPosition": {
          "type": "float",
          "value": 71.7317
        },
        "YOrientation": {
          "type": "float",
          "value": -1.0
        },
        "YPosition": {
          "type": "float",
          "value": 59.7905
        },
        "ZPosition": {
          "type": "float",
          "value": 5.0
        }
      },
      {
        "__struct_id": 5,
        "Appearance": {
          "type": "byte",
          "value": 3
        },
        "Description": {
          "type": "cexolocstring",
          "value": {}
        },
        "HasMapNote": {
          "type": "byte",
          "value": 0
        },
        "LinkedTo": {
          "type": "cexostring",
          "value": ""
        },
        "LocalizedName": {
          "type": "cexolocstring",
          "value": {
            "0": "Commoner 1 Spawn Point"
          }
        },
        "MapNote": {
          "type": "cexolocstring",
          "value": {}
        },
        "MapNoteEnabled": {
          "type": "byte",
          "value": 0
        },
        "Tag": {
          "type": "cexostring",
          "value": "wp_commoner_1"
        },
        "TemplateResRef": {
          "type": "resref",
          "value": "wp_commoner_1"
        },
        "XOrientation": {
          "type": "float",
          "value": 0.0
        },
        "XPosition": {
          "type": "float",
          "value": 50.5394
        },
        "YOrientation": {
          "type": "float",
          "value": 1.0
        },
        "YPosition": {
          "type": "float",
          "value": 16.6543
        },
        "ZPosition": {
          "type": "float",
          "value": 5.0
        }
      },
      {
        "__struct_id": 5,
        "Appearance": {
          "type": "byte",
          "value": 3
        },
        "Description": {
          "type": "cexolocstring",
          "value": {}
        },
        "HasMapNote": {
          "type": "byte",
          "value": 0
        },
        "LinkedTo": {
          "type": "cexostring",
          "value": ""
        },
        "LocalizedName": {
          "type": "cexolocstring",
          "value": {
            "0": "Commoner 2 Spawn Point"
          }
        },
        "MapNote": {
          "type": "cexolocstring",
          "value": {}
        },
        "MapNoteEnabled": {
          "type": "byte",
          "value": 0
        },
        "Tag": {
          "type": "cexostring",
          "value": "wp_commoner_2"
        },
        "TemplateResRef": {
          "type": "resref",
          "value": "wp_commoner_2"
        },
        "XOrientation": {
          "type": "float",
          "value": -0.0491
        },
        "XPosition": {
          "type": "float",
          "value": 50.5134
        },
        "YOrientation": {
          "type": "float",
          "value": -0.9988
        },
        "YPosition": {
          "type": "float",
          "value": 21.0101
        },
        "ZPosition": {
          "type": "float",
          "value": 5.0
        }
      },
      {
        "__struct_id": 5,
        "Appearance": {
          "type": "byte",
          "value": 3
        },
        "Description": {
          "type": "cexolocstring",
          "value": {}
        },
        "HasMapNote": {
          "type": "byte",
          "value": 0
        },
        "LinkedTo": {
          "type": "cexostring",
          "value": ""
        },
        "LocalizedName": {
          "type": "cexolocstring",
          "value": {
            "0": "Commoner 3 Spawn Point"
          }
        },
        "MapNote": {
          "type": "cexolocstring",
          "value": {}
        },
        "MapNoteEnabled": {
          "type": "byte",
          "value": 0
        },
        "Tag": {
          "type": "cexostring",
          "value": "wp_commoner_3"
        },
        "TemplateResRef": {
          "type": "resref",
          "value": "wp_commoner_3"
        },
        "XOrientation": {
          "type": "float",
          "value": 0.0
        },
        "XPosition": {
          "type": "float",
          "value": 49.1616
        },
        "YOrientation": {
          "type": "float",
          "value": 1.0
        },
        "YPosition": {
          "type": "float",
          "value": 58.5224
        },
        "ZPosition": {
          "type": "float",
          "value": 5.0
        }
      },
      {
        "__struct_id": 5,
        "Appearance": {
          "type": "byte",
          "value": 3
        },
        "Description": {
          "type": "cexolocstring",
          "value": {}
        },
        "HasMapNote": {
          "type": "byte",
          "value": 0
        },
        "LinkedTo": {
          "type": "cexostring",
          "value": ""
        },
        "LocalizedName": {
          "type": "cexolocstring",
          "value": {
            "0": "Commoner 4 Spawn Point"
          }
        },
        "MapNote": {
          "type": "cexolocstring",
          "value": {}
        },
        "MapNoteEnabled": {
          "type": "byte",
          "value": 0
        },
        "Tag": {
          "type": "cexostring",
          "value": "wp_commoner_4"
        },
        "TemplateResRef": {
          "type": "resref",
          "value": "wp_commoner_4"
        },
        "XOrientation": {
          "type": "float",
          "value": -0.0736
        },
        "XPosition": {
          "type": "float",
          "value": 49.6491
        },
        "YOrientation": {
          "type": "float",
          "value": -0.9973
        },
        "YPosition": {
          "type": "float",
          "value": 62.101
        },
        "ZPosition": {
          "type": "float",
          "value": 5.0
        }
      },
      {
        "__struct_id": 5,
        "Appearance": {
          "type": "byte",
          "value": 3
        },
        "Description": {
          "type": "cexolocstring",
          "value": {}
        },
        "HasMapNote": {
          "type": "byte",
          "value": 0
        },
        "LinkedTo": {
          "type": "cexostring",
          "value": ""
        },
        "LocalizedName": {
          "type": "cexolocstring",
          "value": {
            "0": "Commoner 5 Spawn Point"
          }
        },
        "MapNote": {
          "type": "cexolocstring",
          "value": {}
        },
        "MapNoteEnabled": {
          "type": "byte",
          "value": 0
        },
        "Tag": {
          "type": "cexostring",
          "value": "wp_commoner_5"
        },
        "TemplateResRef": {
          "type": "resref",
          "value": "wp_commoner_5"
        },
        "XOrientation": {
          "type": "float",
          "value": 0.5758
        },
        "XPosition": {
          "type": "float",
          "value": 15.4257
        },
        "YOrientation": {
          "type": "float",
          "value": 0.8176
        },
        "YPosition": {
          "type": "float",
          "value": 20.4259
        },
        "ZPosition": {
          "type": "float",
          "value": 5.0
        }
      },
      {
        "__struct_id": 5,
        "Appearance": {
          "type": "byte",
          "value": 1
        },
        "Description": {
          "type": "cexolocstring",
          "value": {}
        },
        "HasMapNote": {
          "type": "byte",
          "value": 0
        },
        "LinkedTo": {
          "type": "cexostring",
          "value": ""
        },
        "LocalizedName": {
          "type": "cexolocstring",
          "value": {
            "0": "Light source (10 metres)"
          }
        },
        "MapNote": {
          "type": "cexolocstring",
          "value": {}
        },
        "MapNoteEnabled": {
          "type": "byte",
          "value": 0
        },
        "Tag": {
          "type": "cexostring",
          "value": "wp_light10"
        },
        "TemplateResRef": {
          "type": "resref",
          "value": "wp_light10"
        },
        "VarTable": {
          "type": "list",
          "value": [
            {
              "__struct_id": 0,
              "Name": {
                "type": "cexostring",
                "value": "DRK_LIGHT_RADIUS"
              },
              "Type": {
                "type": "dword",
                "value": 1
              },
              "Value": {
                "type": "int",
                "value": 10
              }
            }
          ]
        },
        "XOrientation": {
          "type": "float",
          "value": 0.0
        },
        "XPosition": {
          "type": "float",
          "value": 34.7356
        },
        "YOrientation": {
          "type": "float",
          "value": 1.0
        },
        "YPosition": {
          "type": "float",
          "value": 47.8513
        },
        "ZPosition": {
          "type": "float",
          "value": 5.01
        }
      },
      {
        "__struct_id": 5,
        "Appearance": {
          "type": "byte",
          "value": 1
        },
        "Description": {
          "type": "cexolocstring",
          "value": {}
        },
        "HasMapNote": {
          "type": "byte",
          "value": 0
        },
        "LinkedTo": {
          "type": "cexostring",
          "value": ""
        },
        "LocalizedName": {
          "type": "cexolocstring",
          "value": {
            "0": "Store Sign Spawn Point"
          }
        },
        "MapNote": {
          "type": "cexolocstring",
          "value": {}
        },
        "MapNoteEnabled": {
          "type": "byte",
          "value": 0
        },
        "Tag": {
          "type": "cexostring",
          "value": "wp_storesign"
        },
        "TemplateResRef": {
          "type": "resref",
          "value": "wp_storesign"
        },
        "XOrientation": {
          "type": "float",
          "value": 0.0
        },
        "XPosition": {
          "type": "float",
          "value": 26.0014
        },
        "YOrientation": {
          "type": "float",
          "value": -1.0
        },
        "YPosition": {
          "type": "float",
          "value": 61.563
        },
        "ZPosition": {
          "type": "float",
          "value": 5.0
        }
      },
      {
        "__struct_id": 5,
        "Appearance": {
          "type": "byte",
          "value": 1
        },
        "Description": {
          "type": "cexolocstring",
          "value": {}
        },
        "HasMapNote": {
          "type": "byte",
          "value": 0
        },
        "LinkedTo": {
          "type": "cexostring",
          "value": ""
        },
        "LocalizedName": {
          "type": "cexolocstring",
          "value": {
            "0": "Inn Sign Spawn Point"
          }
        },
        "MapNote": {
          "type": "cexolocstring",
          "value": {}
        },
        "MapNoteEnabled": {
          "type": "byte",
          "value": 0
        },
        "Tag": {
          "type": "cexostring",
          "value": "wp_innsign"
        },
        "TemplateResRef": {
          "type": "resref",
          "value": "wp_innsign"
        },
        "XOrientation": {
          "type": "float",
          "value": -1.0
        },
        "XPosition": {
          "type": "float",
          "value": 31.61
        },
        "YOrientation": {
          "type": "float",
          "value": 0.0
        },
        "YPosition": {
          "type": "float",
          "value": 16.7897
        },
        "ZPosition": {
          "type": "float",
          "value": 5.0
        }
      }
    ]
  }
}
