{
  "__data_type": "UTW ",
  "Appearance": {
    "type": "byte",
    "value": 3
  },
  "Comment": {
    "type": "cexostring",
    "value": ""
  },
  "Description": {
    "type": "cexolocstring",
    "value": {}
  },
  "HasMapNote": {
    "type": "byte",
    "value": 0
  },
  "LinkedTo": {
    "type": "cexostring",
    "value": ""
  },
  "LocalizedName": {
    "type": "cexolocstring",
    "value": {
      "0": "Bounty Hunter Spawn Point"
    }
  },
  "MapNote": {
    "type": "cexolocstring",
    "value": {}
  },
  "MapNoteEnabled": {
    "type": "byte",
    "value": 0
  },
  "PaletteID": {
    "type": "byte",
    "value": 5
  },
  "Tag": {
    "type": "cexostring",
    "value": "wp_bountyhunter"
  },
  "TemplateResRef": {
    "type": "resref",
    "value": "wp_bountyhunter"
  }
}
