{
  "__data_type": "ITP ",
  "MAIN": {
    "type": "list",
    "value": [
      {
        "__struct_id": 0,
        "ID": {
          "type": "byte",
          "value": 5
        },
        "LIST": {
          "type": "list",
          "value": [
            {
              "__struct_id": 0,
              "NAME": {
                "type": "cexostring",
                "value": "Area Transition - East"
              },
              "RESREF": {
                "type": "resref",
                "value": "tri_go_east"
              }
            },
            {
              "__struct_id": 0,
              "NAME": {
                "type": "cexostring",
                "value": "Area Transition - Facility exit"
              },
              "RESREF": {
                "type": "resref",
                "value": "tri_go_facexit"
              }
            },
            {
              "__struct_id": 0,
              "NAME": {
                "type": "cexostring",
                "value": "Area Transition - North"
              },
              "RESREF": {
                "type": "resref",
                "value": "tri_go_north"
              }
            },
            {
              "__struct_id": 0,
              "NAME": {
                "type": "cexostring",
                "value": "Area Transition - South"
              },
              "RESREF": {
                "type": "resref",
                "value": "tri_go_south"
              }
            },
            {
              "__struct_id": 0,
              "NAME": {
                "type": "cexostring",
                "value": "Area Transition - West"
              },
              "RESREF": {
                "type": "resref",
                "value": "tri_go_west"
              }
            }
          ]
        },
        "STRREF": {
          "type": "dword",
          "value": 1082
        }
      },
      {
        "__struct_id": 0,
        "ID": {
          "type": "byte",
          "value": 6
        },
        "STRREF": {
          "type": "dword",
          "value": 6790
        }
      },
      {
        "__struct_id": 0,
        "ID": {
          "type": "byte",
          "value": 16
        },
        "STRREF": {
          "type": "dword",
          "value": 9129
        }
      },
      {
        "__struct_id": 0,
        "LIST": {
          "type": "list",
          "value": [
            {
              "__struct_id": 0,
              "ID": {
                "type": "byte",
                "value": 0
              },
              "STRREF": {
                "type": "dword",
                "value": 6688
              }
            },
            {
              "__struct_id": 0,
              "ID": {
                "type": "byte",
                "value": 1
              },
              "STRREF": {
                "type": "dword",
                "value": 6689
              }
            },
            {
              "__struct_id": 0,
              "ID": {
                "type": "byte",
                "value": 2
              },
              "STRREF": {
                "type": "dword",
                "value": 6690
              }
            },
            {
              "__struct_id": 0,
              "ID": {
                "type": "byte",
                "value": 3
              },
              "STRREF": {
                "type": "dword",
                "value": 6691
              }
            },
            {
              "__struct_id": 0,
              "ID": {
                "type": "byte",
                "value": 4
              },
              "STRREF": {
                "type": "dword",
                "value": 6692
              }
            }
          ]
        },
        "STRREF": {
          "type": "dword",
          "value": 6687
        }
      },
      {
        "__struct_id": 0,
        "LIST": {
          "type": "list",
          "value": [
            {
              "__struct_id": 0,
              "ID": {
                "type": "byte",
                "value": 11
              },
              "STRREF": {
                "type": "dword",
                "value": 53181
              }
            },
            {
              "__struct_id": 0,
              "ID": {
                "type": "byte",
                "value": 12
              },
              "STRREF": {
                "type": "dword",
                "value": 2255
              }
            },
            {
              "__struct_id": 0,
              "ID": {
                "type": "byte",
                "value": 13
              },
              "STRREF": {
                "type": "dword",
                "value": 2256
              }
            },
            {
              "__struct_id": 0,
              "ID": {
                "type": "byte",
                "value": 14
              },
              "STRREF": {
                "type": "dword",
                "value": 2257
              }
            },
            {
              "__struct_id": 0,
              "ID": {
                "type": "byte",
                "value": 15
              },
              "STRREF": {
                "type": "dword",
                "value": 53182
              }
            }
          ]
        },
        "STRREF": {
          "type": "dword",
          "value": 5563
        }
      }
    ]
  }
}
