{
  "__data_type": "ARE ",
  "ChanceLightning": {
    "type": "int",
    "value": 0
  },
  "ChanceRain": {
    "type": "int",
    "value": 0
  },
  "ChanceSnow": {
    "type": "int",
    "value": 0
  },
  "Comments": {
    "type": "cexostring",
    "value": ""
  },
  "Creator_ID": {
    "type": "int",
    "value": -1
  },
  "DayNightCycle": {
    "type": "byte",
    "value": 0
  },
  "Expansion_List": {
    "type": "list",
    "value": []
  },
  "Flags": {
    "type": "dword",
    "value": 1
  },
  "FogClipDist": {
    "type": "float",
    "value": 45.0
  },
  "Height": {
    "type": "int",
    "value": 2
  },
  "ID": {
    "type": "int",
    "value": -1
  },
  "IsNight": {
    "type": "byte",
    "value": 1
  },
  "LightingScheme": {
    "type": "byte",
    "value": 12
  },
  "LoadScreenID": {
    "type": "word",
    "value": 44
  },
  "ModListenCheck": {
    "type": "int",
    "value": 0
  },
  "ModSpotCheck": {
    "type": "int",
    "value": 0
  },
  "MoonAmbientColor": {
    "type": "dword",
    "value": 3947580
  },
  "MoonDiffuseColor": {
    "type": "dword",
    "value": 11184810
  },
  "MoonFogAmount": {
    "type": "byte",
    "value": 5
  },
  "MoonFogColor": {
    "type": "dword",
    "value": 0
  },
  "MoonShadows": {
    "type": "byte",
    "value": 0
  },
  "Name": {
    "type": "cexolocstring",
    "value": {
      "0": "store04"
    }
  },
  "NoRest": {
    "type": "byte",
    "value": 1
  },
  "OnEnter": {
    "type": "resref",
    "value": ""
  },
  "OnExit": {
    "type": "resref",
    "value": ""
  },
  "OnHeartbeat": {
    "type": "resref",
    "value": ""
  },
  "OnUserDefined": {
    "type": "resref",
    "value": ""
  },
  "PlayerVsPlayer": {
    "type": "byte",
    "value": 3
  },
  "ResRef": {
    "type": "resref",
    "value": "store04"
  },
  "ShadowOpacity": {
    "type": "byte",
    "value": 60
  },
  "SkyBox": {
    "type": "byte",
    "value": 0
  },
  "SunAmbientColor": {
    "type": "dword",
    "value": 0
  },
  "SunDiffuseColor": {
    "type": "dword",
    "value": 0
  },
  "SunFogAmount": {
    "type": "byte",
    "value": 0
  },
  "SunFogColor": {
    "type": "dword",
    "value": 0
  },
  "SunShadows": {
    "type": "byte",
    "value": 0
  },
  "Tag": {
    "type": "cexostring",
    "value": "store04"
  },
  "Tile_List": {
    "type": "list",
    "value": [
      {
        "__struct_id": 1,
        "Tile_AnimLoop1": {
          "type": "byte",
          "value": 1
        },
        "Tile_AnimLoop2": {
          "type": "byte",
          "value": 1
        },
        "Tile_AnimLoop3": {
          "type": "byte",
          "value": 1
        },
        "Tile_Height": {
          "type": "int",
          "value": 0
        },
        "Tile_ID": {
          "type": "int",
          "value": 192
        },
        "Tile_MainLight1": {
          "type": "byte",
          "value": 4
        },
        "Tile_MainLight2": {
          "type": "byte",
          "value": 14
        },
        "Tile_Orientation": {
          "type": "int",
          "value": 1
        },
        "Tile_SrcLight1": {
          "type": "byte",
          "value": 3
        },
        "Tile_SrcLight2": {
          "type": "byte",
          "value": 3
        }
      },
      {
        "__struct_id": 1,
        "Tile_AnimLoop1": {
          "type": "byte",
          "value": 1
        },
        "Tile_AnimLoop2": {
          "type": "byte",
          "value": 1
        },
        "Tile_AnimLoop3": {
          "type": "byte",
          "value": 1
        },
        "Tile_Height": {
          "type": "int",
          "value": 0
        },
        "Tile_ID": {
          "type": "int",
          "value": 94
        },
        "Tile_MainLight1": {
          "type": "byte",
          "value": 30
        },
        "Tile_MainLight2": {
          "type": "byte",
          "value": 14
        },
        "Tile_Orientation": {
          "type": "int",
          "value": 1
        },
        "Tile_SrcLight1": {
          "type": "byte",
          "value": 3
        },
        "Tile_SrcLight2": {
          "type": "byte",
          "value": 3
        }
      },
      {
        "__struct_id": 1,
        "Tile_AnimLoop1": {
          "type": "byte",
          "value": 1
        },
        "Tile_AnimLoop2": {
          "type": "byte",
          "value": 1
        },
        "Tile_AnimLoop3": {
          "type": "byte",
          "value": 1
        },
        "Tile_Height": {
          "type": "int",
          "value": 0
        },
        "Tile_ID": {
          "type": "int",
          "value": 77
        },
        "Tile_MainLight1": {
          "type": "byte",
          "value": 4
        },
        "Tile_MainLight2": {
          "type": "byte",
          "value": 0
        },
        "Tile_Orientation": {
          "type": "int",
          "value": 2
        },
        "Tile_SrcLight1": {
          "type": "byte",
          "value": 3
        },
        "Tile_SrcLight2": {
          "type": "byte",
          "value": 3
        }
      },
      {
        "__struct_id": 1,
        "Tile_AnimLoop1": {
          "type": "byte",
          "value": 1
        },
        "Tile_AnimLoop2": {
          "type": "byte",
          "value": 1
        },
        "Tile_AnimLoop3": {
          "type": "byte",
          "value": 1
        },
        "Tile_Height": {
          "type": "int",
          "value": 0
        },
        "Tile_ID": {
          "type": "int",
          "value": 94
        },
        "Tile_MainLight1": {
          "type": "byte",
          "value": 0
        },
        "Tile_MainLight2": {
          "type": "byte",
          "value": 13
        },
        "Tile_Orientation": {
          "type": "int",
          "value": 3
        },
        "Tile_SrcLight1": {
          "type": "byte",
          "value": 3
        },
        "Tile_SrcLight2": {
          "type": "byte",
          "value": 3
        }
      }
    ]
  },
  "Tileset": {
    "type": "resref",
    "value": "tin01"
  },
  "Width": {
    "type": "int",
    "value": 2
  },
  "WindPower": {
    "type": "int",
    "value": 0
  }
}
