{
  "__data_type": "UTC ",
  "Appearance_Type": {
    "type": "word",
    "value": 849
  },
  "BodyBag": {
    "type": "byte",
    "value": 0
  },
  "Cha": {
    "type": "byte",
    "value": 9
  },
  "ChallengeRating": {
    "type": "float",
    "value": 0.5
  },
  "ClassList": {
    "type": "list",
    "value": [
      {
        "__struct_id": 2,
        "Class": {
          "type": "int",
          "value": 4
        },
        "ClassLevel": {
          "type": "short",
          "value": 1
        }
      }
    ]
  },
  "Comment": {
    "type": "cexostring",
    "value": "This is just a \"Companions\" faction member, meant to enable changing a creature's faction to that of this one."
  },
  "Con": {
    "type": "byte",
    "value": 16
  },
  "Conversation": {
    "type": "resref",
    "value": ""
  },
  "CRAdjust": {
    "type": "int",
    "value": 0
  },
  "CurrentHitPoints": {
    "type": "short",
    "value": 10
  },
  "DecayTime": {
    "type": "dword",
    "value": 5000
  },
  "Deity": {
    "type": "cexostring",
    "value": ""
  },
  "Description": {
    "type": "cexolocstring",
    "value": {}
  },
  "Dex": {
    "type": "byte",
    "value": 13
  },
  "Disarmable": {
    "type": "byte",
    "value": 0
  },
  "Equip_ItemList": {
    "type": "list",
    "value": []
  },
  "FactionID": {
    "type": "word",
    "value": 12
  },
  "FeatList": {
    "type": "list",
    "value": [
      {
        "__struct_id": 1,
        "Feat": {
          "type": "word",
          "value": 2
        }
      },
      {
        "__struct_id": 1,
        "Feat": {
          "type": "word",
          "value": 3
        }
      },
      {
        "__struct_id": 1,
        "Feat": {
          "type": "word",
          "value": 4
        }
      },
      {
        "__struct_id": 1,
        "Feat": {
          "type": "word",
          "value": 10
        }
      },
      {
        "__struct_id": 1,
        "Feat": {
          "type": "word",
          "value": 1089
        }
      },
      {
        "__struct_id": 1,
        "Feat": {
          "type": "word",
          "value": 28
        }
      },
      {
        "__struct_id": 1,
        "Feat": {
          "type": "word",
          "value": 258
        }
      },
      {
        "__struct_id": 1,
        "Feat": {
          "type": "word",
          "value": 32
        }
      },
      {
        "__struct_id": 1,
        "Feat": {
          "type": "word",
          "value": 106
        }
      },
      {
        "__struct_id": 1,
        "Feat": {
          "type": "word",
          "value": 45
        }
      },
      {
        "__struct_id": 1,
        "Feat": {
          "type": "word",
          "value": 46
        }
      }
    ]
  },
  "FirstName": {
    "type": "cexolocstring",
    "value": {
      "0": "Ally faction"
    }
  },
  "fortbonus": {
    "type": "short",
    "value": 0
  },
  "Gender": {
    "type": "byte",
    "value": 0
  },
  "GoodEvil": {
    "type": "byte",
    "value": 50
  },
  "HitPoints": {
    "type": "short",
    "value": 10
  },
  "Int": {
    "type": "byte",
    "value": 10
  },
  "Interruptable": {
    "type": "byte",
    "value": 0
  },
  "IsImmortal": {
    "type": "byte",
    "value": 0
  },
  "IsPC": {
    "type": "byte",
    "value": 0
  },
  "LastName": {
    "type": "cexolocstring",
    "value": {
      "0": ""
    }
  },
  "LawfulChaotic": {
    "type": "byte",
    "value": 50
  },
  "Lootable": {
    "type": "byte",
    "value": 0
  },
  "MaxHitPoints": {
    "type": "short",
    "value": 13
  },
  "NaturalAC": {
    "type": "byte",
    "value": 0
  },
  "NoPermDeath": {
    "type": "byte",
    "value": 0
  },
  "PaletteID": {
    "type": "byte",
    "value": 0
  },
  "PerceptionRange": {
    "type": "byte",
    "value": 11
  },
  "Phenotype": {
    "type": "int",
    "value": 0
  },
  "Plot": {
    "type": "byte",
    "value": 0
  },
  "PortraitId": {
    "type": "word",
    "value": 185
  },
  "Race": {
    "type": "byte",
    "value": 6
  },
  "refbonus": {
    "type": "short",
    "value": 0
  },
  "ScriptAttacked": {
    "type": "resref",
    "value": ""
  },
  "ScriptDamaged": {
    "type": "resref",
    "value": ""
  },
  "ScriptDeath": {
    "type": "resref",
    "value": ""
  },
  "ScriptDialogue": {
    "type": "resref",
    "value": ""
  },
  "ScriptDisturbed": {
    "type": "resref",
    "value": ""
  },
  "ScriptEndRound": {
    "type": "resref",
    "value": ""
  },
  "ScriptHeartbeat": {
    "type": "resref",
    "value": ""
  },
  "ScriptOnBlocked": {
    "type": "resref",
    "value": ""
  },
  "ScriptOnNotice": {
    "type": "resref",
    "value": ""
  },
  "ScriptRested": {
    "type": "resref",
    "value": ""
  },
  "ScriptSpawn": {
    "type": "resref",
    "value": ""
  },
  "ScriptSpellAt": {
    "type": "resref",
    "value": ""
  },
  "ScriptUserDefine": {
    "type": "resref",
    "value": ""
  },
  "SkillList": {
    "type": "list",
    "value": [
      {
        "__struct_id": 0,
        "Rank": {
          "type": "byte",
          "value": 0
        }
      },
      {
        "__struct_id": 0,
        "Rank": {
          "type": "byte",
          "value": 1
        }
      },
      {
        "__struct_id": 0,
        "Rank": {
          "type": "byte",
          "value": 0
        }
      },
      {
        "__struct_id": 0,
        "Rank": {
          "type": "byte",
          "value": 2
        }
      },
      {
        "__struct_id": 0,
        "Rank": {
          "type": "byte",
          "value": 2
        }
      },
      {
        "__struct_id": 0,
        "Rank": {
          "type": "byte",
          "value": 0
        }
      },
      {
        "__struct_id": 0,
        "Rank": {
          "type": "byte",
          "value": 0
        }
      },
      {
        "__struct_id": 0,
        "Rank": {
          "type": "byte",
          "value": 1
        }
      },
      {
        "__struct_id": 0,
        "Rank": {
          "type": "byte",
          "value": 0
        }
      },
      {
        "__struct_id": 0,
        "Rank": {
          "type": "byte",
          "value": 0
        }
      },
      {
        "__struct_id": 0,
        "Rank": {
          "type": "byte",
          "value": 2
        }
      },
      {
        "__struct_id": 0,
        "Rank": {
          "type": "byte",
          "value": 0
        }
      },
      {
        "__struct_id": 0,
        "Rank": {
          "type": "byte",
          "value": 0
        }
      },
      {
        "__struct_id": 0,
        "Rank": {
          "type": "byte",
          "value": 0
        }
      },
      {
        "__struct_id": 0,
        "Rank": {
          "type": "byte",
          "value": 0
        }
      },
      {
        "__struct_id": 0,
        "Rank": {
          "type": "byte",
          "value": 0
        }
      },
      {
        "__struct_id": 0,
        "Rank": {
          "type": "byte",
          "value": 0
        }
      },
      {
        "__struct_id": 0,
        "Rank": {
          "type": "byte",
          "value": 0
        }
      },
      {
        "__struct_id": 0,
        "Rank": {
          "type": "byte",
          "value": 0
        }
      },
      {
        "__struct_id": 0,
        "Rank": {
          "type": "byte",
          "value": 0
        }
      },
      {
        "__struct_id": 0,
        "Rank": {
          "type": "byte",
          "value": 0
        }
      },
      {
        "__struct_id": 0,
        "Rank": {
          "type": "byte",
          "value": 0
        }
      },
      {
        "__struct_id": 0,
        "Rank": {
          "type": "byte",
          "value": 1
        }
      },
      {
        "__struct_id": 0,
        "Rank": {
          "type": "byte",
          "value": 0
        }
      },
      {
        "__struct_id": 0,
        "Rank": {
          "type": "byte",
          "value": 0
        }
      },
      {
        "__struct_id": 0,
        "Rank": {
          "type": "byte",
          "value": 1
        }
      },
      {
        "__struct_id": 0,
        "Rank": {
          "type": "byte",
          "value": 2
        }
      },
      {
        "__struct_id": 0,
        "Rank": {
          "type": "byte",
          "value": 0
        }
      }
    ]
  },
  "SoundSetFile": {
    "type": "word",
    "value": 0
  },
  "SpecAbilityList": {
    "type": "list",
    "value": []
  },
  "StartingPackage": {
    "type": "byte",
    "value": 4
  },
  "Str": {
    "type": "byte",
    "value": 16
  },
  "Subrace": {
    "type": "cexostring",
    "value": ""
  },
  "Tag": {
    "type": "cexostring",
    "value": "cre_facally"
  },
  "Tail_New": {
    "type": "dword",
    "value": 0
  },
  "TemplateList": {
    "type": "list",
    "value": []
  },
  "TemplateResRef": {
    "type": "resref",
    "value": "cre_facally"
  },
  "WalkRate": {
    "type": "int",
    "value": 7
  },
  "willbonus": {
    "type": "short",
    "value": 0
  },
  "Wings_New": {
    "type": "dword",
    "value": 0
  },
  "Wis": {
    "type": "byte",
    "value": 10
  }
}
