{
  "__data_type": "ARE ",
  "ChanceLightning": {
    "type": "int",
    "value": 0
  },
  "ChanceRain": {
    "type": "int",
    "value": 0
  },
  "ChanceSnow": {
    "type": "int",
    "value": 0
  },
  "Comments": {
    "type": "cexostring",
    "value": ""
  },
  "Creator_ID": {
    "type": "int",
    "value": -1
  },
  "DayNightCycle": {
    "type": "byte",
    "value": 1
  },
  "Expansion_List": {
    "type": "list",
    "value": []
  },
  "Flags": {
    "type": "dword",
    "value": 4
  },
  "FogClipDist": {
    "type": "float",
    "value": 45.0
  },
  "Height": {
    "type": "int",
    "value": 8
  },
  "ID": {
    "type": "int",
    "value": -1
  },
  "IsNight": {
    "type": "byte",
    "value": 0
  },
  "LightingScheme": {
    "type": "byte",
    "value": 0
  },
  "LoadScreenID": {
    "type": "word",
    "value": 63
  },
  "ModListenCheck": {
    "type": "int",
    "value": 0
  },
  "ModSpotCheck": {
    "type": "int",
    "value": 0
  },
  "MoonAmbientColor": {
    "type": "dword",
    "value": 0
  },
  "MoonDiffuseColor": {
    "type": "dword",
    "value": 13132900
  },
  "MoonFogAmount": {
    "type": "byte",
    "value": 0
  },
  "MoonFogColor": {
    "type": "dword",
    "value": 6566450
  },
  "MoonShadows": {
    "type": "byte",
    "value": 1
  },
  "Name": {
    "type": "cexolocstring",
    "value": {
      "0": "fac_mage_rural"
    }
  },
  "NoRest": {
    "type": "byte",
    "value": 1
  },
  "OnEnter": {
    "type": "resref",
    "value": ""
  },
  "OnExit": {
    "type": "resref",
    "value": ""
  },
  "OnHeartbeat": {
    "type": "resref",
    "value": ""
  },
  "OnUserDefined": {
    "type": "resref",
    "value": ""
  },
  "PlayerVsPlayer": {
    "type": "byte",
    "value": 3
  },
  "ResRef": {
    "type": "resref",
    "value": "fac_mage_rural"
  },
  "ShadowOpacity": {
    "type": "byte",
    "value": 50
  },
  "SkyBox": {
    "type": "byte",
    "value": 0
  },
  "SunAmbientColor": {
    "type": "dword",
    "value": 6566450
  },
  "SunDiffuseColor": {
    "type": "dword",
    "value": 16777215
  },
  "SunFogAmount": {
    "type": "byte",
    "value": 0
  },
  "SunFogColor": {
    "type": "dword",
    "value": 9535080
  },
  "SunShadows": {
    "type": "byte",
    "value": 1
  },
  "Tag": {
    "type": "cexostring",
    "value": "fac_mage_rural"
  },
  "Tile_List": {
    "type": "list",
    "value": [
      {
        "__struct_id": 1,
        "Tile_AnimLoop1": {
          "type": "byte",
          "value": 1
        },
        "Tile_AnimLoop2": {
          "type": "byte",
          "value": 1
        },
        "Tile_AnimLoop3": {
          "type": "byte",
          "value": 1
        },
        "Tile_Height": {
          "type": "int",
          "value": 0
        },
        "Tile_ID": {
          "type": "int",
          "value": 16
        },
        "Tile_MainLight1": {
          "type": "byte",
          "value": 0
        },
        "Tile_MainLight2": {
          "type": "byte",
          "value": 0
        },
        "Tile_Orientation": {
          "type": "int",
          "value": 1
        },
        "Tile_SrcLight1": {
          "type": "byte",
          "value": 0
        },
        "Tile_SrcLight2": {
          "type": "byte",
          "value": 0
        }
      },
      {
        "__struct_id": 1,
        "Tile_AnimLoop1": {
          "type": "byte",
          "value": 1
        },
        "Tile_AnimLoop2": {
          "type": "byte",
          "value": 1
        },
        "Tile_AnimLoop3": {
          "type": "byte",
          "value": 1
        },
        "Tile_Height": {
          "type": "int",
          "value": 0
        },
        "Tile_ID": {
          "type": "int",
          "value": 34
        },
        "Tile_MainLight1": {
          "type": "byte",
          "value": 0
        },
        "Tile_MainLight2": {
          "type": "byte",
          "value": 0
        },
        "Tile_Orientation": {
          "type": "int",
          "value": 2
        },
        "Tile_SrcLight1": {
          "type": "byte",
          "value": 0
        },
        "Tile_SrcLight2": {
          "type": "byte",
          "value": 0
        }
      },
      {
        "__struct_id": 1,
        "Tile_AnimLoop1": {
          "type": "byte",
          "value": 1
        },
        "Tile_AnimLoop2": {
          "type": "byte",
          "value": 1
        },
        "Tile_AnimLoop3": {
          "type": "byte",
          "value": 1
        },
        "Tile_Height": {
          "type": "int",
          "value": 0
        },
        "Tile_ID": {
          "type": "int",
          "value": 40
        },
        "Tile_MainLight1": {
          "type": "byte",
          "value": 0
        },
        "Tile_MainLight2": {
          "type": "byte",
          "value": 0
        },
        "Tile_Orientation": {
          "type": "int",
          "value": 3
        },
        "Tile_SrcLight1": {
          "type": "byte",
          "value": 0
        },
        "Tile_SrcLight2": {
          "type": "byte",
          "value": 0
        }
      },
      {
        "__struct_id": 1,
        "Tile_AnimLoop1": {
          "type": "byte",
          "value": 1
        },
        "Tile_AnimLoop2": {
          "type": "byte",
          "value": 1
        },
        "Tile_AnimLoop3": {
          "type": "byte",
          "value": 1
        },
        "Tile_Height": {
          "type": "int",
          "value": 0
        },
        "Tile_ID": {
          "type": "int",
          "value": 44
        },
        "Tile_MainLight1": {
          "type": "byte",
          "value": 0
        },
        "Tile_MainLight2": {
          "type": "byte",
          "value": 0
        },
        "Tile_Orientation": {
          "type": "int",
          "value": 1
        },
        "Tile_SrcLight1": {
          "type": "byte",
          "value": 0
        },
        "Tile_SrcLight2": {
          "type": "byte",
          "value": 0
        }
      },
      {
        "__struct_id": 1,
        "Tile_AnimLoop1": {
          "type": "byte",
          "value": 1
        },
        "Tile_AnimLoop2": {
          "type": "byte",
          "value": 1
        },
        "Tile_AnimLoop3": {
          "type": "byte",
          "value": 1
        },
        "Tile_Height": {
          "type": "int",
          "value": 0
        },
        "Tile_ID": {
          "type": "int",
          "value": 38
        },
        "Tile_MainLight1": {
          "type": "byte",
          "value": 0
        },
        "Tile_MainLight2": {
          "type": "byte",
          "value": 0
        },
        "Tile_Orientation": {
          "type": "int",
          "value": 0
        },
        "Tile_SrcLight1": {
          "type": "byte",
          "value": 0
        },
        "Tile_SrcLight2": {
          "type": "byte",
          "value": 0
        }
      },
      {
        "__struct_id": 1,
        "Tile_AnimLoop1": {
          "type": "byte",
          "value": 1
        },
        "Tile_AnimLoop2": {
          "type": "byte",
          "value": 1
        },
        "Tile_AnimLoop3": {
          "type": "byte",
          "value": 1
        },
        "Tile_Height": {
          "type": "int",
          "value": 0
        },
        "Tile_ID": {
          "type": "int",
          "value": 1007
        },
        "Tile_MainLight1": {
          "type": "byte",
          "value": 0
        },
        "Tile_MainLight2": {
          "type": "byte",
          "value": 0
        },
        "Tile_Orientation": {
          "type": "int",
          "value": 1
        },
        "Tile_SrcLight1": {
          "type": "byte",
          "value": 0
        },
        "Tile_SrcLight2": {
          "type": "byte",
          "value": 0
        }
      },
      {
        "__struct_id": 1,
        "Tile_AnimLoop1": {
          "type": "byte",
          "value": 1
        },
        "Tile_AnimLoop2": {
          "type": "byte",
          "value": 1
        },
        "Tile_AnimLoop3": {
          "type": "byte",
          "value": 1
        },
        "Tile_Height": {
          "type": "int",
          "value": 0
        },
        "Tile_ID": {
          "type": "int",
          "value": 1008
        },
        "Tile_MainLight1": {
          "type": "byte",
          "value": 0
        },
        "Tile_MainLight2": {
          "type": "byte",
          "value": 0
        },
        "Tile_Orientation": {
          "type": "int",
          "value": 3
        },
        "Tile_SrcLight1": {
          "type": "byte",
          "value": 0
        },
        "Tile_SrcLight2": {
          "type": "byte",
          "value": 0
        }
      },
      {
        "__struct_id": 1,
        "Tile_AnimLoop1": {
          "type": "byte",
          "value": 1
        },
        "Tile_AnimLoop2": {
          "type": "byte",
          "value": 1
        },
        "Tile_AnimLoop3": {
          "type": "byte",
          "value": 1
        },
        "Tile_Height": {
          "type": "int",
          "value": 0
        },
        "Tile_ID": {
          "type": "int",
          "value": 13
        },
        "Tile_MainLight1": {
          "type": "byte",
          "value": 0
        },
        "Tile_MainLight2": {
          "type": "byte",
          "value": 0
        },
        "Tile_Orientation": {
          "type": "int",
          "value": 0
        },
        "Tile_SrcLight1": {
          "type": "byte",
          "value": 0
        },
        "Tile_SrcLight2": {
          "type": "byte",
          "value": 0
        }
      },
      {
        "__struct_id": 1,
        "Tile_AnimLoop1": {
          "type": "byte",
          "value": 1
        },
        "Tile_AnimLoop2": {
          "type": "byte",
          "value": 1
        },
        "Tile_AnimLoop3": {
          "type": "byte",
          "value": 1
        },
        "Tile_Height": {
          "type": "int",
          "value": 0
        },
        "Tile_ID": {
          "type": "int",
          "value": 35
        },
        "Tile_MainLight1": {
          "type": "byte",
          "value": 0
        },
        "Tile_MainLight2": {
          "type": "byte",
          "value": 0
        },
        "Tile_Orientation": {
          "type": "int",
          "value": 2
        },
        "Tile_SrcLight1": {
          "type": "byte",
          "value": 0
        },
        "Tile_SrcLight2": {
          "type": "byte",
          "value": 0
        }
      },
      {
        "__struct_id": 1,
        "Tile_AnimLoop1": {
          "type": "byte",
          "value": 1
        },
        "Tile_AnimLoop2": {
          "type": "byte",
          "value": 1
        },
        "Tile_AnimLoop3": {
          "type": "byte",
          "value": 1
        },
        "Tile_Height": {
          "type": "int",
          "value": 0
        },
        "Tile_ID": {
          "type": "int",
          "value": 45
        },
        "Tile_MainLight1": {
          "type": "byte",
          "value": 0
        },
        "Tile_MainLight2": {
          "type": "byte",
          "value": 0
        },
        "Tile_Orientation": {
          "type": "int",
          "value": 1
        },
        "Tile_SrcLight1": {
          "type": "byte",
          "value": 0
        },
        "Tile_SrcLight2": {
          "type": "byte",
          "value": 0
        }
      },
      {
        "__struct_id": 1,
        "Tile_AnimLoop1": {
          "type": "byte",
          "value": 1
        },
        "Tile_AnimLoop2": {
          "type": "byte",
          "value": 1
        },
        "Tile_AnimLoop3": {
          "type": "byte",
          "value": 1
        },
        "Tile_Height": {
          "type": "int",
          "value": 0
        },
        "Tile_ID": {
          "type": "int",
          "value": 44
        },
        "Tile_MainLight1": {
          "type": "byte",
          "value": 0
        },
        "Tile_MainLight2": {
          "type": "byte",
          "value": 0
        },
        "Tile_Orientation": {
          "type": "int",
          "value": 3
        },
        "Tile_SrcLight1": {
          "type": "byte",
          "value": 0
        },
        "Tile_SrcLight2": {
          "type": "byte",
          "value": 0
        }
      },
      {
        "__struct_id": 1,
        "Tile_AnimLoop1": {
          "type": "byte",
          "value": 1
        },
        "Tile_AnimLoop2": {
          "type": "byte",
          "value": 1
        },
        "Tile_AnimLoop3": {
          "type": "byte",
          "value": 1
        },
        "Tile_Height": {
          "type": "int",
          "value": 0
        },
        "Tile_ID": {
          "type": "int",
          "value": 39
        },
        "Tile_MainLight1": {
          "type": "byte",
          "value": 0
        },
        "Tile_MainLight2": {
          "type": "byte",
          "value": 0
        },
        "Tile_Orientation": {
          "type": "int",
          "value": 1
        },
        "Tile_SrcLight1": {
          "type": "byte",
          "value": 0
        },
        "Tile_SrcLight2": {
          "type": "byte",
          "value": 0
        }
      },
      {
        "__struct_id": 1,
        "Tile_AnimLoop1": {
          "type": "byte",
          "value": 1
        },
        "Tile_AnimLoop2": {
          "type": "byte",
          "value": 1
        },
        "Tile_AnimLoop3": {
          "type": "byte",
          "value": 1
        },
        "Tile_Height": {
          "type": "int",
          "value": 0
        },
        "Tile_ID": {
          "type": "int",
          "value": 36
        },
        "Tile_MainLight1": {
          "type": "byte",
          "value": 0
        },
        "Tile_MainLight2": {
          "type": "byte",
          "value": 0
        },
        "Tile_Orientation": {
          "type": "int",
          "value": 0
        },
        "Tile_SrcLight1": {
          "type": "byte",
          "value": 0
        },
        "Tile_SrcLight2": {
          "type": "byte",
          "value": 0
        }
      },
      {
        "__struct_id": 1,
        "Tile_AnimLoop1": {
          "type": "byte",
          "value": 1
        },
        "Tile_AnimLoop2": {
          "type": "byte",
          "value": 1
        },
        "Tile_AnimLoop3": {
          "type": "byte",
          "value": 1
        },
        "Tile_Height": {
          "type": "int",
          "value": 0
        },
        "Tile_ID": {
          "type": "int",
          "value": 20
        },
        "Tile_MainLight1": {
          "type": "byte",
          "value": 0
        },
        "Tile_MainLight2": {
          "type": "byte",
          "value": 0
        },
        "Tile_Orientation": {
          "type": "int",
          "value": 0
        },
        "Tile_SrcLight1": {
          "type": "byte",
          "value": 0
        },
        "Tile_SrcLight2": {
          "type": "byte",
          "value": 0
        }
      },
      {
        "__struct_id": 1,
        "Tile_AnimLoop1": {
          "type": "byte",
          "value": 1
        },
        "Tile_AnimLoop2": {
          "type": "byte",
          "value": 1
        },
        "Tile_AnimLoop3": {
          "type": "byte",
          "value": 1
        },
        "Tile_Height": {
          "type": "int",
          "value": 0
        },
        "Tile_ID": {
          "type": "int",
          "value": 1016
        },
        "Tile_MainLight1": {
          "type": "byte",
          "value": 0
        },
        "Tile_MainLight2": {
          "type": "byte",
          "value": 0
        },
        "Tile_Orientation": {
          "type": "int",
          "value": 0
        },
        "Tile_SrcLight1": {
          "type": "byte",
          "value": 0
        },
        "Tile_SrcLight2": {
          "type": "byte",
          "value": 0
        }
      },
      {
        "__struct_id": 1,
        "Tile_AnimLoop1": {
          "type": "byte",
          "value": 1
        },
        "Tile_AnimLoop2": {
          "type": "byte",
          "value": 1
        },
        "Tile_AnimLoop3": {
          "type": "byte",
          "value": 1
        },
        "Tile_Height": {
          "type": "int",
          "value": 0
        },
        "Tile_ID": {
          "type": "int",
          "value": 878
        },
        "Tile_MainLight1": {
          "type": "byte",
          "value": 0
        },
        "Tile_MainLight2": {
          "type": "byte",
          "value": 0
        },
        "Tile_Orientation": {
          "type": "int",
          "value": 1
        },
        "Tile_SrcLight1": {
          "type": "byte",
          "value": 0
        },
        "Tile_SrcLight2": {
          "type": "byte",
          "value": 0
        }
      },
      {
        "__struct_id": 1,
        "Tile_AnimLoop1": {
          "type": "byte",
          "value": 1
        },
        "Tile_AnimLoop2": {
          "type": "byte",
          "value": 1
        },
        "Tile_AnimLoop3": {
          "type": "byte",
          "value": 1
        },
        "Tile_Height": {
          "type": "int",
          "value": 0
        },
        "Tile_ID": {
          "type": "int",
          "value": 45
        },
        "Tile_MainLight1": {
          "type": "byte",
          "value": 0
        },
        "Tile_MainLight2": {
          "type": "byte",
          "value": 0
        },
        "Tile_Orientation": {
          "type": "int",
          "value": 1
        },
        "Tile_SrcLight1": {
          "type": "byte",
          "value": 0
        },
        "Tile_SrcLight2": {
          "type": "byte",
          "value": 0
        }
      },
      {
        "__struct_id": 1,
        "Tile_AnimLoop1": {
          "type": "byte",
          "value": 1
        },
        "Tile_AnimLoop2": {
          "type": "byte",
          "value": 1
        },
        "Tile_AnimLoop3": {
          "type": "byte",
          "value": 1
        },
        "Tile_Height": {
          "type": "int",
          "value": 0
        },
        "Tile_ID": {
          "type": "int",
          "value": 2
        },
        "Tile_MainLight1": {
          "type": "byte",
          "value": 0
        },
        "Tile_MainLight2": {
          "type": "byte",
          "value": 0
        },
        "Tile_Orientation": {
          "type": "int",
          "value": 2
        },
        "Tile_SrcLight1": {
          "type": "byte",
          "value": 0
        },
        "Tile_SrcLight2": {
          "type": "byte",
          "value": 0
        }
      },
      {
        "__struct_id": 1,
        "Tile_AnimLoop1": {
          "type": "byte",
          "value": 1
        },
        "Tile_AnimLoop2": {
          "type": "byte",
          "value": 1
        },
        "Tile_AnimLoop3": {
          "type": "byte",
          "value": 1
        },
        "Tile_Height": {
          "type": "int",
          "value": 0
        },
        "Tile_ID": {
          "type": "int",
          "value": 38
        },
        "Tile_MainLight1": {
          "type": "byte",
          "value": 0
        },
        "Tile_MainLight2": {
          "type": "byte",
          "value": 0
        },
        "Tile_Orientation": {
          "type": "int",
          "value": 0
        },
        "Tile_SrcLight1": {
          "type": "byte",
          "value": 0
        },
        "Tile_SrcLight2": {
          "type": "byte",
          "value": 0
        }
      },
      {
        "__struct_id": 1,
        "Tile_AnimLoop1": {
          "type": "byte",
          "value": 1
        },
        "Tile_AnimLoop2": {
          "type": "byte",
          "value": 1
        },
        "Tile_AnimLoop3": {
          "type": "byte",
          "value": 1
        },
        "Tile_Height": {
          "type": "int",
          "value": 0
        },
        "Tile_ID": {
          "type": "int",
          "value": 158
        },
        "Tile_MainLight1": {
          "type": "byte",
          "value": 0
        },
        "Tile_MainLight2": {
          "type": "byte",
          "value": 0
        },
        "Tile_Orientation": {
          "type": "int",
          "value": 3
        },
        "Tile_SrcLight1": {
          "type": "byte",
          "value": 0
        },
        "Tile_SrcLight2": {
          "type": "byte",
          "value": 0
        }
      },
      {
        "__struct_id": 1,
        "Tile_AnimLoop1": {
          "type": "byte",
          "value": 1
        },
        "Tile_AnimLoop2": {
          "type": "byte",
          "value": 1
        },
        "Tile_AnimLoop3": {
          "type": "byte",
          "value": 1
        },
        "Tile_Height": {
          "type": "int",
          "value": 0
        },
        "Tile_ID": {
          "type": "int",
          "value": 163
        },
        "Tile_MainLight1": {
          "type": "byte",
          "value": 0
        },
        "Tile_MainLight2": {
          "type": "byte",
          "value": 0
        },
        "Tile_Orientation": {
          "type": "int",
          "value": 0
        },
        "Tile_SrcLight1": {
          "type": "byte",
          "value": 0
        },
        "Tile_SrcLight2": {
          "type": "byte",
          "value": 0
        }
      },
      {
        "__struct_id": 1,
        "Tile_AnimLoop1": {
          "type": "byte",
          "value": 1
        },
        "Tile_AnimLoop2": {
          "type": "byte",
          "value": 1
        },
        "Tile_AnimLoop3": {
          "type": "byte",
          "value": 1
        },
        "Tile_Height": {
          "type": "int",
          "value": 0
        },
        "Tile_ID": {
          "type": "int",
          "value": 169
        },
        "Tile_MainLight1": {
          "type": "byte",
          "value": 0
        },
        "Tile_MainLight2": {
          "type": "byte",
          "value": 0
        },
        "Tile_Orientation": {
          "type": "int",
          "value": 0
        },
        "Tile_SrcLight1": {
          "type": "byte",
          "value": 0
        },
        "Tile_SrcLight2": {
          "type": "byte",
          "value": 0
        }
      },
      {
        "__struct_id": 1,
        "Tile_AnimLoop1": {
          "type": "byte",
          "value": 1
        },
        "Tile_AnimLoop2": {
          "type": "byte",
          "value": 1
        },
        "Tile_AnimLoop3": {
          "type": "byte",
          "value": 1
        },
        "Tile_Height": {
          "type": "int",
          "value": 0
        },
        "Tile_ID": {
          "type": "int",
          "value": 1078
        },
        "Tile_MainLight1": {
          "type": "byte",
          "value": 0
        },
        "Tile_MainLight2": {
          "type": "byte",
          "value": 0
        },
        "Tile_Orientation": {
          "type": "int",
          "value": 0
        },
        "Tile_SrcLight1": {
          "type": "byte",
          "value": 0
        },
        "Tile_SrcLight2": {
          "type": "byte",
          "value": 0
        }
      },
      {
        "__struct_id": 1,
        "Tile_AnimLoop1": {
          "type": "byte",
          "value": 1
        },
        "Tile_AnimLoop2": {
          "type": "byte",
          "value": 1
        },
        "Tile_AnimLoop3": {
          "type": "byte",
          "value": 1
        },
        "Tile_Height": {
          "type": "int",
          "value": 0
        },
        "Tile_ID": {
          "type": "int",
          "value": 231
        },
        "Tile_MainLight1": {
          "type": "byte",
          "value": 0
        },
        "Tile_MainLight2": {
          "type": "byte",
          "value": 0
        },
        "Tile_Orientation": {
          "type": "int",
          "value": 0
        },
        "Tile_SrcLight1": {
          "type": "byte",
          "value": 0
        },
        "Tile_SrcLight2": {
          "type": "byte",
          "value": 0
        }
      },
      {
        "__struct_id": 1,
        "Tile_AnimLoop1": {
          "type": "byte",
          "value": 1
        },
        "Tile_AnimLoop2": {
          "type": "byte",
          "value": 1
        },
        "Tile_AnimLoop3": {
          "type": "byte",
          "value": 1
        },
        "Tile_Height": {
          "type": "int",
          "value": 0
        },
        "Tile_ID": {
          "type": "int",
          "value": 1
        },
        "Tile_MainLight1": {
          "type": "byte",
          "value": 0
        },
        "Tile_MainLight2": {
          "type": "byte",
          "value": 0
        },
        "Tile_Orientation": {
          "type": "int",
          "value": 0
        },
        "Tile_SrcLight1": {
          "type": "byte",
          "value": 0
        },
        "Tile_SrcLight2": {
          "type": "byte",
          "value": 0
        }
      },
      {
        "__struct_id": 1,
        "Tile_AnimLoop1": {
          "type": "byte",
          "value": 1
        },
        "Tile_AnimLoop2": {
          "type": "byte",
          "value": 1
        },
        "Tile_AnimLoop3": {
          "type": "byte",
          "value": 1
        },
        "Tile_Height": {
          "type": "int",
          "value": 0
        },
        "Tile_ID": {
          "type": "int",
          "value": 45
        },
        "Tile_MainLight1": {
          "type": "byte",
          "value": 0
        },
        "Tile_MainLight2": {
          "type": "byte",
          "value": 0
        },
        "Tile_Orientation": {
          "type": "int",
          "value": 3
        },
        "Tile_SrcLight1": {
          "type": "byte",
          "value": 0
        },
        "Tile_SrcLight2": {
          "type": "byte",
          "value": 0
        }
      },
      {
        "__struct_id": 1,
        "Tile_AnimLoop1": {
          "type": "byte",
          "value": 1
        },
        "Tile_AnimLoop2": {
          "type": "byte",
          "value": 1
        },
        "Tile_AnimLoop3": {
          "type": "byte",
          "value": 1
        },
        "Tile_Height": {
          "type": "int",
          "value": 0
        },
        "Tile_ID": {
          "type": "int",
          "value": 34
        },
        "Tile_MainLight1": {
          "type": "byte",
          "value": 0
        },
        "Tile_MainLight2": {
          "type": "byte",
          "value": 0
        },
        "Tile_Orientation": {
          "type": "int",
          "value": 0
        },
        "Tile_SrcLight1": {
          "type": "byte",
          "value": 0
        },
        "Tile_SrcLight2": {
          "type": "byte",
          "value": 0
        }
      },
      {
        "__struct_id": 1,
        "Tile_AnimLoop1": {
          "type": "byte",
          "value": 1
        },
        "Tile_AnimLoop2": {
          "type": "byte",
          "value": 1
        },
        "Tile_AnimLoop3": {
          "type": "byte",
          "value": 1
        },
        "Tile_Height": {
          "type": "int",
          "value": 0
        },
        "Tile_ID": {
          "type": "int",
          "value": 184
        },
        "Tile_MainLight1": {
          "type": "byte",
          "value": 0
        },
        "Tile_MainLight2": {
          "type": "byte",
          "value": 0
        },
        "Tile_Orientation": {
          "type": "int",
          "value": 3
        },
        "Tile_SrcLight1": {
          "type": "byte",
          "value": 0
        },
        "Tile_SrcLight2": {
          "type": "byte",
          "value": 0
        }
      },
      {
        "__struct_id": 1,
        "Tile_AnimLoop1": {
          "type": "byte",
          "value": 1
        },
        "Tile_AnimLoop2": {
          "type": "byte",
          "value": 1
        },
        "Tile_AnimLoop3": {
          "type": "byte",
          "value": 1
        },
        "Tile_Height": {
          "type": "int",
          "value": 0
        },
        "Tile_ID": {
          "type": "int",
          "value": 193
        },
        "Tile_MainLight1": {
          "type": "byte",
          "value": 0
        },
        "Tile_MainLight2": {
          "type": "byte",
          "value": 0
        },
        "Tile_Orientation": {
          "type": "int",
          "value": 0
        },
        "Tile_SrcLight1": {
          "type": "byte",
          "value": 0
        },
        "Tile_SrcLight2": {
          "type": "byte",
          "value": 0
        }
      },
      {
        "__struct_id": 1,
        "Tile_AnimLoop1": {
          "type": "byte",
          "value": 1
        },
        "Tile_AnimLoop2": {
          "type": "byte",
          "value": 1
        },
        "Tile_AnimLoop3": {
          "type": "byte",
          "value": 1
        },
        "Tile_Height": {
          "type": "int",
          "value": 0
        },
        "Tile_ID": {
          "type": "int",
          "value": 180
        },
        "Tile_MainLight1": {
          "type": "byte",
          "value": 0
        },
        "Tile_MainLight2": {
          "type": "byte",
          "value": 0
        },
        "Tile_Orientation": {
          "type": "int",
          "value": 3
        },
        "Tile_SrcLight1": {
          "type": "byte",
          "value": 0
        },
        "Tile_SrcLight2": {
          "type": "byte",
          "value": 0
        }
      },
      {
        "__struct_id": 1,
        "Tile_AnimLoop1": {
          "type": "byte",
          "value": 1
        },
        "Tile_AnimLoop2": {
          "type": "byte",
          "value": 1
        },
        "Tile_AnimLoop3": {
          "type": "byte",
          "value": 1
        },
        "Tile_Height": {
          "type": "int",
          "value": 0
        },
        "Tile_ID": {
          "type": "int",
          "value": 190
        },
        "Tile_MainLight1": {
          "type": "byte",
          "value": 0
        },
        "Tile_MainLight2": {
          "type": "byte",
          "value": 0
        },
        "Tile_Orientation": {
          "type": "int",
          "value": 0
        },
        "Tile_SrcLight1": {
          "type": "byte",
          "value": 0
        },
        "Tile_SrcLight2": {
          "type": "byte",
          "value": 0
        }
      },
      {
        "__struct_id": 1,
        "Tile_AnimLoop1": {
          "type": "byte",
          "value": 1
        },
        "Tile_AnimLoop2": {
          "type": "byte",
          "value": 1
        },
        "Tile_AnimLoop3": {
          "type": "byte",
          "value": 1
        },
        "Tile_Height": {
          "type": "int",
          "value": 0
        },
        "Tile_ID": {
          "type": "int",
          "value": 226
        },
        "Tile_MainLight1": {
          "type": "byte",
          "value": 0
        },
        "Tile_MainLight2": {
          "type": "byte",
          "value": 0
        },
        "Tile_Orientation": {
          "type": "int",
          "value": 0
        },
        "Tile_SrcLight1": {
          "type": "byte",
          "value": 0
        },
        "Tile_SrcLight2": {
          "type": "byte",
          "value": 0
        }
      },
      {
        "__struct_id": 1,
        "Tile_AnimLoop1": {
          "type": "byte",
          "value": 1
        },
        "Tile_AnimLoop2": {
          "type": "byte",
          "value": 1
        },
        "Tile_AnimLoop3": {
          "type": "byte",
          "value": 1
        },
        "Tile_Height": {
          "type": "int",
          "value": 0
        },
        "Tile_ID": {
          "type": "int",
          "value": 44
        },
        "Tile_MainLight1": {
          "type": "byte",
          "value": 0
        },
        "Tile_MainLight2": {
          "type": "byte",
          "value": 0
        },
        "Tile_Orientation": {
          "type": "int",
          "value": 0
        },
        "Tile_SrcLight1": {
          "type": "byte",
          "value": 0
        },
        "Tile_SrcLight2": {
          "type": "byte",
          "value": 0
        }
      },
      {
        "__struct_id": 1,
        "Tile_AnimLoop1": {
          "type": "byte",
          "value": 1
        },
        "Tile_AnimLoop2": {
          "type": "byte",
          "value": 1
        },
        "Tile_AnimLoop3": {
          "type": "byte",
          "value": 1
        },
        "Tile_Height": {
          "type": "int",
          "value": 0
        },
        "Tile_ID": {
          "type": "int",
          "value": 38
        },
        "Tile_MainLight1": {
          "type": "byte",
          "value": 0
        },
        "Tile_MainLight2": {
          "type": "byte",
          "value": 0
        },
        "Tile_Orientation": {
          "type": "int",
          "value": 0
        },
        "Tile_SrcLight1": {
          "type": "byte",
          "value": 0
        },
        "Tile_SrcLight2": {
          "type": "byte",
          "value": 0
        }
      },
      {
        "__struct_id": 1,
        "Tile_AnimLoop1": {
          "type": "byte",
          "value": 1
        },
        "Tile_AnimLoop2": {
          "type": "byte",
          "value": 1
        },
        "Tile_AnimLoop3": {
          "type": "byte",
          "value": 1
        },
        "Tile_Height": {
          "type": "int",
          "value": 0
        },
        "Tile_ID": {
          "type": "int",
          "value": 337
        },
        "Tile_MainLight1": {
          "type": "byte",
          "value": 0
        },
        "Tile_MainLight2": {
          "type": "byte",
          "value": 0
        },
        "Tile_Orientation": {
          "type": "int",
          "value": 2
        },
        "Tile_SrcLight1": {
          "type": "byte",
          "value": 0
        },
        "Tile_SrcLight2": {
          "type": "byte",
          "value": 0
        }
      },
      {
        "__struct_id": 1,
        "Tile_AnimLoop1": {
          "type": "byte",
          "value": 1
        },
        "Tile_AnimLoop2": {
          "type": "byte",
          "value": 1
        },
        "Tile_AnimLoop3": {
          "type": "byte",
          "value": 1
        },
        "Tile_Height": {
          "type": "int",
          "value": 0
        },
        "Tile_ID": {
          "type": "int",
          "value": 158
        },
        "Tile_MainLight1": {
          "type": "byte",
          "value": 0
        },
        "Tile_MainLight2": {
          "type": "byte",
          "value": 0
        },
        "Tile_Orientation": {
          "type": "int",
          "value": 2
        },
        "Tile_SrcLight1": {
          "type": "byte",
          "value": 0
        },
        "Tile_SrcLight2": {
          "type": "byte",
          "value": 0
        }
      },
      {
        "__struct_id": 1,
        "Tile_AnimLoop1": {
          "type": "byte",
          "value": 1
        },
        "Tile_AnimLoop2": {
          "type": "byte",
          "value": 1
        },
        "Tile_AnimLoop3": {
          "type": "byte",
          "value": 1
        },
        "Tile_Height": {
          "type": "int",
          "value": 0
        },
        "Tile_ID": {
          "type": "int",
          "value": 183
        },
        "Tile_MainLight1": {
          "type": "byte",
          "value": 0
        },
        "Tile_MainLight2": {
          "type": "byte",
          "value": 0
        },
        "Tile_Orientation": {
          "type": "int",
          "value": 2
        },
        "Tile_SrcLight1": {
          "type": "byte",
          "value": 0
        },
        "Tile_SrcLight2": {
          "type": "byte",
          "value": 0
        }
      },
      {
        "__struct_id": 1,
        "Tile_AnimLoop1": {
          "type": "byte",
          "value": 1
        },
        "Tile_AnimLoop2": {
          "type": "byte",
          "value": 1
        },
        "Tile_AnimLoop3": {
          "type": "byte",
          "value": 1
        },
        "Tile_Height": {
          "type": "int",
          "value": 0
        },
        "Tile_ID": {
          "type": "int",
          "value": 161
        },
        "Tile_MainLight1": {
          "type": "byte",
          "value": 0
        },
        "Tile_MainLight2": {
          "type": "byte",
          "value": 0
        },
        "Tile_Orientation": {
          "type": "int",
          "value": 2
        },
        "Tile_SrcLight1": {
          "type": "byte",
          "value": 0
        },
        "Tile_SrcLight2": {
          "type": "byte",
          "value": 0
        }
      },
      {
        "__struct_id": 1,
        "Tile_AnimLoop1": {
          "type": "byte",
          "value": 1
        },
        "Tile_AnimLoop2": {
          "type": "byte",
          "value": 1
        },
        "Tile_AnimLoop3": {
          "type": "byte",
          "value": 1
        },
        "Tile_Height": {
          "type": "int",
          "value": 0
        },
        "Tile_ID": {
          "type": "int",
          "value": 1078
        },
        "Tile_MainLight1": {
          "type": "byte",
          "value": 0
        },
        "Tile_MainLight2": {
          "type": "byte",
          "value": 0
        },
        "Tile_Orientation": {
          "type": "int",
          "value": 2
        },
        "Tile_SrcLight1": {
          "type": "byte",
          "value": 0
        },
        "Tile_SrcLight2": {
          "type": "byte",
          "value": 0
        }
      },
      {
        "__struct_id": 1,
        "Tile_AnimLoop1": {
          "type": "byte",
          "value": 1
        },
        "Tile_AnimLoop2": {
          "type": "byte",
          "value": 1
        },
        "Tile_AnimLoop3": {
          "type": "byte",
          "value": 1
        },
        "Tile_Height": {
          "type": "int",
          "value": 0
        },
        "Tile_ID": {
          "type": "int",
          "value": 231
        },
        "Tile_MainLight1": {
          "type": "byte",
          "value": 0
        },
        "Tile_MainLight2": {
          "type": "byte",
          "value": 0
        },
        "Tile_Orientation": {
          "type": "int",
          "value": 2
        },
        "Tile_SrcLight1": {
          "type": "byte",
          "value": 0
        },
        "Tile_SrcLight2": {
          "type": "byte",
          "value": 0
        }
      },
      {
        "__struct_id": 1,
        "Tile_AnimLoop1": {
          "type": "byte",
          "value": 1
        },
        "Tile_AnimLoop2": {
          "type": "byte",
          "value": 1
        },
        "Tile_AnimLoop3": {
          "type": "byte",
          "value": 1
        },
        "Tile_Height": {
          "type": "int",
          "value": 0
        },
        "Tile_ID": {
          "type": "int",
          "value": 36
        },
        "Tile_MainLight1": {
          "type": "byte",
          "value": 0
        },
        "Tile_MainLight2": {
          "type": "byte",
          "value": 0
        },
        "Tile_Orientation": {
          "type": "int",
          "value": 1
        },
        "Tile_SrcLight1": {
          "type": "byte",
          "value": 0
        },
        "Tile_SrcLight2": {
          "type": "byte",
          "value": 0
        }
      },
      {
        "__struct_id": 1,
        "Tile_AnimLoop1": {
          "type": "byte",
          "value": 1
        },
        "Tile_AnimLoop2": {
          "type": "byte",
          "value": 1
        },
        "Tile_AnimLoop3": {
          "type": "byte",
          "value": 1
        },
        "Tile_Height": {
          "type": "int",
          "value": 0
        },
        "Tile_ID": {
          "type": "int",
          "value": 35
        },
        "Tile_MainLight1": {
          "type": "byte",
          "value": 0
        },
        "Tile_MainLight2": {
          "type": "byte",
          "value": 0
        },
        "Tile_Orientation": {
          "type": "int",
          "value": 0
        },
        "Tile_SrcLight1": {
          "type": "byte",
          "value": 0
        },
        "Tile_SrcLight2": {
          "type": "byte",
          "value": 0
        }
      },
      {
        "__struct_id": 1,
        "Tile_AnimLoop1": {
          "type": "byte",
          "value": 1
        },
        "Tile_AnimLoop2": {
          "type": "byte",
          "value": 1
        },
        "Tile_AnimLoop3": {
          "type": "byte",
          "value": 1
        },
        "Tile_Height": {
          "type": "int",
          "value": 0
        },
        "Tile_ID": {
          "type": "int",
          "value": 646
        },
        "Tile_MainLight1": {
          "type": "byte",
          "value": 0
        },
        "Tile_MainLight2": {
          "type": "byte",
          "value": 0
        },
        "Tile_Orientation": {
          "type": "int",
          "value": 3
        },
        "Tile_SrcLight1": {
          "type": "byte",
          "value": 0
        },
        "Tile_SrcLight2": {
          "type": "byte",
          "value": 0
        }
      },
      {
        "__struct_id": 1,
        "Tile_AnimLoop1": {
          "type": "byte",
          "value": 1
        },
        "Tile_AnimLoop2": {
          "type": "byte",
          "value": 1
        },
        "Tile_AnimLoop3": {
          "type": "byte",
          "value": 1
        },
        "Tile_Height": {
          "type": "int",
          "value": 0
        },
        "Tile_ID": {
          "type": "int",
          "value": 656
        },
        "Tile_MainLight1": {
          "type": "byte",
          "value": 0
        },
        "Tile_MainLight2": {
          "type": "byte",
          "value": 0
        },
        "Tile_Orientation": {
          "type": "int",
          "value": 0
        },
        "Tile_SrcLight1": {
          "type": "byte",
          "value": 0
        },
        "Tile_SrcLight2": {
          "type": "byte",
          "value": 0
        }
      },
      {
        "__struct_id": 1,
        "Tile_AnimLoop1": {
          "type": "byte",
          "value": 1
        },
        "Tile_AnimLoop2": {
          "type": "byte",
          "value": 1
        },
        "Tile_AnimLoop3": {
          "type": "byte",
          "value": 1
        },
        "Tile_Height": {
          "type": "int",
          "value": 0
        },
        "Tile_ID": {
          "type": "int",
          "value": 593
        },
        "Tile_MainLight1": {
          "type": "byte",
          "value": 0
        },
        "Tile_MainLight2": {
          "type": "byte",
          "value": 0
        },
        "Tile_Orientation": {
          "type": "int",
          "value": 1
        },
        "Tile_SrcLight1": {
          "type": "byte",
          "value": 0
        },
        "Tile_SrcLight2": {
          "type": "byte",
          "value": 0
        }
      },
      {
        "__struct_id": 1,
        "Tile_AnimLoop1": {
          "type": "byte",
          "value": 1
        },
        "Tile_AnimLoop2": {
          "type": "byte",
          "value": 1
        },
        "Tile_AnimLoop3": {
          "type": "byte",
          "value": 1
        },
        "Tile_Height": {
          "type": "int",
          "value": 0
        },
        "Tile_ID": {
          "type": "int",
          "value": 878
        },
        "Tile_MainLight1": {
          "type": "byte",
          "value": 0
        },
        "Tile_MainLight2": {
          "type": "byte",
          "value": 0
        },
        "Tile_Orientation": {
          "type": "int",
          "value": 1
        },
        "Tile_SrcLight1": {
          "type": "byte",
          "value": 0
        },
        "Tile_SrcLight2": {
          "type": "byte",
          "value": 0
        }
      },
      {
        "__struct_id": 1,
        "Tile_AnimLoop1": {
          "type": "byte",
          "value": 1
        },
        "Tile_AnimLoop2": {
          "type": "byte",
          "value": 1
        },
        "Tile_AnimLoop3": {
          "type": "byte",
          "value": 1
        },
        "Tile_Height": {
          "type": "int",
          "value": 0
        },
        "Tile_ID": {
          "type": "int",
          "value": 1016
        },
        "Tile_MainLight1": {
          "type": "byte",
          "value": 0
        },
        "Tile_MainLight2": {
          "type": "byte",
          "value": 0
        },
        "Tile_Orientation": {
          "type": "int",
          "value": 0
        },
        "Tile_SrcLight1": {
          "type": "byte",
          "value": 0
        },
        "Tile_SrcLight2": {
          "type": "byte",
          "value": 0
        }
      },
      {
        "__struct_id": 1,
        "Tile_AnimLoop1": {
          "type": "byte",
          "value": 1
        },
        "Tile_AnimLoop2": {
          "type": "byte",
          "value": 1
        },
        "Tile_AnimLoop3": {
          "type": "byte",
          "value": 1
        },
        "Tile_Height": {
          "type": "int",
          "value": 0
        },
        "Tile_ID": {
          "type": "int",
          "value": 18
        },
        "Tile_MainLight1": {
          "type": "byte",
          "value": 0
        },
        "Tile_MainLight2": {
          "type": "byte",
          "value": 0
        },
        "Tile_Orientation": {
          "type": "int",
          "value": 0
        },
        "Tile_SrcLight1": {
          "type": "byte",
          "value": 0
        },
        "Tile_SrcLight2": {
          "type": "byte",
          "value": 0
        }
      },
      {
        "__struct_id": 1,
        "Tile_AnimLoop1": {
          "type": "byte",
          "value": 1
        },
        "Tile_AnimLoop2": {
          "type": "byte",
          "value": 1
        },
        "Tile_AnimLoop3": {
          "type": "byte",
          "value": 1
        },
        "Tile_Height": {
          "type": "int",
          "value": 0
        },
        "Tile_ID": {
          "type": "int",
          "value": 612
        },
        "Tile_MainLight1": {
          "type": "byte",
          "value": 0
        },
        "Tile_MainLight2": {
          "type": "byte",
          "value": 0
        },
        "Tile_Orientation": {
          "type": "int",
          "value": 0
        },
        "Tile_SrcLight1": {
          "type": "byte",
          "value": 0
        },
        "Tile_SrcLight2": {
          "type": "byte",
          "value": 0
        }
      },
      {
        "__struct_id": 1,
        "Tile_AnimLoop1": {
          "type": "byte",
          "value": 1
        },
        "Tile_AnimLoop2": {
          "type": "byte",
          "value": 1
        },
        "Tile_AnimLoop3": {
          "type": "byte",
          "value": 1
        },
        "Tile_Height": {
          "type": "int",
          "value": 0
        },
        "Tile_ID": {
          "type": "int",
          "value": 590
        },
        "Tile_MainLight1": {
          "type": "byte",
          "value": 0
        },
        "Tile_MainLight2": {
          "type": "byte",
          "value": 0
        },
        "Tile_Orientation": {
          "type": "int",
          "value": 0
        },
        "Tile_SrcLight1": {
          "type": "byte",
          "value": 0
        },
        "Tile_SrcLight2": {
          "type": "byte",
          "value": 0
        }
      },
      {
        "__struct_id": 1,
        "Tile_AnimLoop1": {
          "type": "byte",
          "value": 1
        },
        "Tile_AnimLoop2": {
          "type": "byte",
          "value": 1
        },
        "Tile_AnimLoop3": {
          "type": "byte",
          "value": 1
        },
        "Tile_Height": {
          "type": "int",
          "value": 0
        },
        "Tile_ID": {
          "type": "int",
          "value": 699
        },
        "Tile_MainLight1": {
          "type": "byte",
          "value": 0
        },
        "Tile_MainLight2": {
          "type": "byte",
          "value": 0
        },
        "Tile_Orientation": {
          "type": "int",
          "value": 0
        },
        "Tile_SrcLight1": {
          "type": "byte",
          "value": 0
        },
        "Tile_SrcLight2": {
          "type": "byte",
          "value": 0
        }
      },
      {
        "__struct_id": 1,
        "Tile_AnimLoop1": {
          "type": "byte",
          "value": 1
        },
        "Tile_AnimLoop2": {
          "type": "byte",
          "value": 1
        },
        "Tile_AnimLoop3": {
          "type": "byte",
          "value": 1
        },
        "Tile_Height": {
          "type": "int",
          "value": 0
        },
        "Tile_ID": {
          "type": "int",
          "value": 1382
        },
        "Tile_MainLight1": {
          "type": "byte",
          "value": 0
        },
        "Tile_MainLight2": {
          "type": "byte",
          "value": 0
        },
        "Tile_Orientation": {
          "type": "int",
          "value": 0
        },
        "Tile_SrcLight1": {
          "type": "byte",
          "value": 0
        },
        "Tile_SrcLight2": {
          "type": "byte",
          "value": 0
        }
      },
      {
        "__struct_id": 1,
        "Tile_AnimLoop1": {
          "type": "byte",
          "value": 1
        },
        "Tile_AnimLoop2": {
          "type": "byte",
          "value": 1
        },
        "Tile_AnimLoop3": {
          "type": "byte",
          "value": 1
        },
        "Tile_Height": {
          "type": "int",
          "value": 0
        },
        "Tile_ID": {
          "type": "int",
          "value": 1111
        },
        "Tile_MainLight1": {
          "type": "byte",
          "value": 0
        },
        "Tile_MainLight2": {
          "type": "byte",
          "value": 0
        },
        "Tile_Orientation": {
          "type": "int",
          "value": 2
        },
        "Tile_SrcLight1": {
          "type": "byte",
          "value": 0
        },
        "Tile_SrcLight2": {
          "type": "byte",
          "value": 0
        }
      },
      {
        "__struct_id": 1,
        "Tile_AnimLoop1": {
          "type": "byte",
          "value": 1
        },
        "Tile_AnimLoop2": {
          "type": "byte",
          "value": 1
        },
        "Tile_AnimLoop3": {
          "type": "byte",
          "value": 1
        },
        "Tile_Height": {
          "type": "int",
          "value": 0
        },
        "Tile_ID": {
          "type": "int",
          "value": 1011
        },
        "Tile_MainLight1": {
          "type": "byte",
          "value": 0
        },
        "Tile_MainLight2": {
          "type": "byte",
          "value": 0
        },
        "Tile_Orientation": {
          "type": "int",
          "value": 3
        },
        "Tile_SrcLight1": {
          "type": "byte",
          "value": 0
        },
        "Tile_SrcLight2": {
          "type": "byte",
          "value": 0
        }
      },
      {
        "__struct_id": 1,
        "Tile_AnimLoop1": {
          "type": "byte",
          "value": 1
        },
        "Tile_AnimLoop2": {
          "type": "byte",
          "value": 1
        },
        "Tile_AnimLoop3": {
          "type": "byte",
          "value": 1
        },
        "Tile_Height": {
          "type": "int",
          "value": 0
        },
        "Tile_ID": {
          "type": "int",
          "value": 1007
        },
        "Tile_MainLight1": {
          "type": "byte",
          "value": 0
        },
        "Tile_MainLight2": {
          "type": "byte",
          "value": 0
        },
        "Tile_Orientation": {
          "type": "int",
          "value": 0
        },
        "Tile_SrcLight1": {
          "type": "byte",
          "value": 0
        },
        "Tile_SrcLight2": {
          "type": "byte",
          "value": 0
        }
      },
      {
        "__struct_id": 1,
        "Tile_AnimLoop1": {
          "type": "byte",
          "value": 1
        },
        "Tile_AnimLoop2": {
          "type": "byte",
          "value": 1
        },
        "Tile_AnimLoop3": {
          "type": "byte",
          "value": 1
        },
        "Tile_Height": {
          "type": "int",
          "value": 0
        },
        "Tile_ID": {
          "type": "int",
          "value": 9
        },
        "Tile_MainLight1": {
          "type": "byte",
          "value": 0
        },
        "Tile_MainLight2": {
          "type": "byte",
          "value": 0
        },
        "Tile_Orientation": {
          "type": "int",
          "value": 1
        },
        "Tile_SrcLight1": {
          "type": "byte",
          "value": 0
        },
        "Tile_SrcLight2": {
          "type": "byte",
          "value": 0
        }
      },
      {
        "__struct_id": 1,
        "Tile_AnimLoop1": {
          "type": "byte",
          "value": 1
        },
        "Tile_AnimLoop2": {
          "type": "byte",
          "value": 1
        },
        "Tile_AnimLoop3": {
          "type": "byte",
          "value": 1
        },
        "Tile_Height": {
          "type": "int",
          "value": 0
        },
        "Tile_ID": {
          "type": "int",
          "value": 587
        },
        "Tile_MainLight1": {
          "type": "byte",
          "value": 0
        },
        "Tile_MainLight2": {
          "type": "byte",
          "value": 0
        },
        "Tile_Orientation": {
          "type": "int",
          "value": 3
        },
        "Tile_SrcLight1": {
          "type": "byte",
          "value": 0
        },
        "Tile_SrcLight2": {
          "type": "byte",
          "value": 0
        }
      },
      {
        "__struct_id": 1,
        "Tile_AnimLoop1": {
          "type": "byte",
          "value": 1
        },
        "Tile_AnimLoop2": {
          "type": "byte",
          "value": 1
        },
        "Tile_AnimLoop3": {
          "type": "byte",
          "value": 1
        },
        "Tile_Height": {
          "type": "int",
          "value": 0
        },
        "Tile_ID": {
          "type": "int",
          "value": 1568
        },
        "Tile_MainLight1": {
          "type": "byte",
          "value": 0
        },
        "Tile_MainLight2": {
          "type": "byte",
          "value": 0
        },
        "Tile_Orientation": {
          "type": "int",
          "value": 2
        },
        "Tile_SrcLight1": {
          "type": "byte",
          "value": 0
        },
        "Tile_SrcLight2": {
          "type": "byte",
          "value": 0
        }
      },
      {
        "__struct_id": 1,
        "Tile_AnimLoop1": {
          "type": "byte",
          "value": 1
        },
        "Tile_AnimLoop2": {
          "type": "byte",
          "value": 1
        },
        "Tile_AnimLoop3": {
          "type": "byte",
          "value": 1
        },
        "Tile_Height": {
          "type": "int",
          "value": 0
        },
        "Tile_ID": {
          "type": "int",
          "value": 604
        },
        "Tile_MainLight1": {
          "type": "byte",
          "value": 0
        },
        "Tile_MainLight2": {
          "type": "byte",
          "value": 0
        },
        "Tile_Orientation": {
          "type": "int",
          "value": 2
        },
        "Tile_SrcLight1": {
          "type": "byte",
          "value": 0
        },
        "Tile_SrcLight2": {
          "type": "byte",
          "value": 0
        }
      },
      {
        "__struct_id": 1,
        "Tile_AnimLoop1": {
          "type": "byte",
          "value": 1
        },
        "Tile_AnimLoop2": {
          "type": "byte",
          "value": 1
        },
        "Tile_AnimLoop3": {
          "type": "byte",
          "value": 1
        },
        "Tile_Height": {
          "type": "int",
          "value": 0
        },
        "Tile_ID": {
          "type": "int",
          "value": 603
        },
        "Tile_MainLight1": {
          "type": "byte",
          "value": 0
        },
        "Tile_MainLight2": {
          "type": "byte",
          "value": 0
        },
        "Tile_Orientation": {
          "type": "int",
          "value": 2
        },
        "Tile_SrcLight1": {
          "type": "byte",
          "value": 0
        },
        "Tile_SrcLight2": {
          "type": "byte",
          "value": 0
        }
      },
      {
        "__struct_id": 1,
        "Tile_AnimLoop1": {
          "type": "byte",
          "value": 1
        },
        "Tile_AnimLoop2": {
          "type": "byte",
          "value": 1
        },
        "Tile_AnimLoop3": {
          "type": "byte",
          "value": 1
        },
        "Tile_Height": {
          "type": "int",
          "value": 0
        },
        "Tile_ID": {
          "type": "int",
          "value": 608
        },
        "Tile_MainLight1": {
          "type": "byte",
          "value": 0
        },
        "Tile_MainLight2": {
          "type": "byte",
          "value": 0
        },
        "Tile_Orientation": {
          "type": "int",
          "value": 1
        },
        "Tile_SrcLight1": {
          "type": "byte",
          "value": 0
        },
        "Tile_SrcLight2": {
          "type": "byte",
          "value": 0
        }
      },
      {
        "__struct_id": 1,
        "Tile_AnimLoop1": {
          "type": "byte",
          "value": 1
        },
        "Tile_AnimLoop2": {
          "type": "byte",
          "value": 1
        },
        "Tile_AnimLoop3": {
          "type": "byte",
          "value": 1
        },
        "Tile_Height": {
          "type": "int",
          "value": 0
        },
        "Tile_ID": {
          "type": "int",
          "value": 18
        },
        "Tile_MainLight1": {
          "type": "byte",
          "value": 0
        },
        "Tile_MainLight2": {
          "type": "byte",
          "value": 0
        },
        "Tile_Orientation": {
          "type": "int",
          "value": 0
        },
        "Tile_SrcLight1": {
          "type": "byte",
          "value": 0
        },
        "Tile_SrcLight2": {
          "type": "byte",
          "value": 0
        }
      },
      {
        "__struct_id": 1,
        "Tile_AnimLoop1": {
          "type": "byte",
          "value": 1
        },
        "Tile_AnimLoop2": {
          "type": "byte",
          "value": 1
        },
        "Tile_AnimLoop3": {
          "type": "byte",
          "value": 1
        },
        "Tile_Height": {
          "type": "int",
          "value": 0
        },
        "Tile_ID": {
          "type": "int",
          "value": 12
        },
        "Tile_MainLight1": {
          "type": "byte",
          "value": 0
        },
        "Tile_MainLight2": {
          "type": "byte",
          "value": 0
        },
        "Tile_Orientation": {
          "type": "int",
          "value": 0
        },
        "Tile_SrcLight1": {
          "type": "byte",
          "value": 0
        },
        "Tile_SrcLight2": {
          "type": "byte",
          "value": 0
        }
      },
      {
        "__struct_id": 1,
        "Tile_AnimLoop1": {
          "type": "byte",
          "value": 1
        },
        "Tile_AnimLoop2": {
          "type": "byte",
          "value": 1
        },
        "Tile_AnimLoop3": {
          "type": "byte",
          "value": 1
        },
        "Tile_Height": {
          "type": "int",
          "value": 0
        },
        "Tile_ID": {
          "type": "int",
          "value": 878
        },
        "Tile_MainLight1": {
          "type": "byte",
          "value": 0
        },
        "Tile_MainLight2": {
          "type": "byte",
          "value": 0
        },
        "Tile_Orientation": {
          "type": "int",
          "value": 1
        },
        "Tile_SrcLight1": {
          "type": "byte",
          "value": 0
        },
        "Tile_SrcLight2": {
          "type": "byte",
          "value": 0
        }
      }
    ]
  },
  "Tileset": {
    "type": "resref",
    "value": "trm02"
  },
  "Width": {
    "type": "int",
    "value": 8
  },
  "WindPower": {
    "type": "int",
    "value": 0
  }
}
