{
  "__data_type": "GIC ",
  "Creature List": {
    "type": "list",
    "value": []
  },
  "Door List": {
    "type": "list",
    "value": [
      {
        "__struct_id": 8,
        "Comment": {
          "type": "cexostring",
          "value": "Easy Door 3\r\n\r\nHardness DC: 15"
        }
      }
    ]
  },
  "Encounter List": {
    "type": "list",
    "value": []
  },
  "List": {
    "type": "list",
    "value": []
  },
  "Placeable List": {
    "type": "list",
    "value": [
      {
        "__struct_id": 9,
        "Comment": {
          "type": "cexostring",
          "value": "Bookcase 2"
        }
      },
      {
        "__struct_id": 9,
        "Comment": {
          "type": "cexostring",
          "value": "Bookcase 2"
        }
      },
      {
        "__struct_id": 9,
        "Comment": {
          "type": "cexostring",
          "value": "Bookcase 3"
        }
      },
      {
        "__struct_id": 9,
        "Comment": {
          "type": "cexostring",
          "value": "Well"
        }
      },
      {
        "__struct_id": 9,
        "Comment": {
          "type": "cexostring",
          "value": "Table"
        }
      },
      {
        "__struct_id": 9,
        "Comment": {
          "type": "cexostring",
          "value": "boulder002"
        }
      },
      {
        "__struct_id": 9,
        "Comment": {
          "type": "cexostring",
          "value": "boulder002"
        }
      },
      {
        "__struct_id": 9,
        "Comment": {
          "type": "cexostring",
          "value": "x0_cushions"
        }
      },
      {
        "__struct_id": 9,
        "Comment": {
          "type": "cexostring",
          "value": "Bird Cage"
        }
      },
      {
        "__struct_id": 9,
        "Comment": {
          "type": "cexostring",
          "value": ""
        }
      },
      {
        "__struct_id": 9,
        "Comment": {
          "type": "cexostring",
          "value": "Sphinx Statue"
        }
      },
      {
        "__struct_id": 9,
        "Comment": {
          "type": "cexostring",
          "value": "Bolts of Cloth"
        }
      },
      {
        "__struct_id": 9,
        "Comment": {
          "type": "cexostring",
          "value": "Scales"
        }
      },
      {
        "__struct_id": 9,
        "Comment": {
          "type": "cexostring",
          "value": "Telescope"
        }
      },
      {
        "__struct_id": 9,
        "Comment": {
          "type": "cexostring",
          "value": "Shield Rack"
        }
      },
      {
        "__struct_id": 9,
        "Comment": {
          "type": "cexostring",
          "value": "Lance Rack"
        }
      },
      {
        "__struct_id": 9,
        "Comment": {
          "type": "cexostring",
          "value": "Lance Rack"
        }
      },
      {
        "__struct_id": 9,
        "Comment": {
          "type": "cexostring",
          "value": "Chandelier"
        }
      },
      {
        "__struct_id": 9,
        "Comment": {
          "type": "cexostring",
          "value": "Chandelier"
        }
      },
      {
        "__struct_id": 9,
        "Comment": {
          "type": "cexostring",
          "value": "Table"
        }
      },
      {
        "__struct_id": 9,
        "Comment": {
          "type": "cexostring",
          "value": "Bolts of Cloth"
        }
      },
      {
        "__struct_id": 9,
        "Comment": {
          "type": "cexostring",
          "value": "Anvil"
        }
      },
      {
        "__struct_id": 9,
        "Comment": {
          "type": "cexostring",
          "value": "Sphinx Statue"
        }
      },
      {
        "__struct_id": 9,
        "Comment": {
          "type": "cexostring",
          "value": "Urn"
        }
      },
      {
        "__struct_id": 9,
        "Comment": {
          "type": "cexostring",
          "value": "Urn"
        }
      },
      {
        "__struct_id": 9,
        "Comment": {
          "type": "cexostring",
          "value": ""
        }
      },
      {
        "__struct_id": 9,
        "Comment": {
          "type": "cexostring",
          "value": ""
        }
      },
      {
        "__struct_id": 9,
        "Comment": {
          "type": "cexostring",
          "value": ""
        }
      },
      {
        "__struct_id": 9,
        "Comment": {
          "type": "cexostring",
          "value": ""
        }
      },
      {
        "__struct_id": 9,
        "Comment": {
          "type": "cexostring",
          "value": "Statue - Stone"
        }
      },
      {
        "__struct_id": 9,
        "Comment": {
          "type": "cexostring",
          "value": "Statue - Stone"
        }
      }
    ]
  },
  "SoundList": {
    "type": "list",
    "value": []
  },
  "StoreList": {
    "type": "list",
    "value": []
  },
  "TriggerList": {
    "type": "list",
    "value": []
  },
  "WaypointList": {
    "type": "list",
    "value": [
      {
        "__struct_id": 5,
        "Comment": {
          "type": "cexostring",
          "value": ""
        }
      },
      {
        "__struct_id": 5,
        "Comment": {
          "type": "cexostring",
          "value": ""
        }
      }
    ]
  }
}
