{
  "__data_type": "UTI ",
  "AddCost": {
    "type": "dword",
    "value": 2500
  },
  "BaseItem": {
    "type": "int",
    "value": 24
  },
  "Charges": {
    "type": "byte",
    "value": 0
  },
  "Comment": {
    "type": "cexostring",
    "value": ""
  },
  "Cost": {
    "type": "dword",
    "value": 2500
  },
  "Cursed": {
    "type": "byte",
    "value": 0
  },
  "DescIdentified": {
    "type": "cexolocstring",
    "value": {
      "0": "This item will be destroyed when acquired and a horse will be spawned.",
      "10": "Po podniesieniu tego przedmiotu zostanie przyzwany koñ, który jest mu przypisany. Przedmiot zostanie nastêpnie zniszczony."
    }
  },
  "Description": {
    "type": "cexolocstring",
    "value": {}
  },
  "Identified": {
    "type": "byte",
    "value": 1
  },
  "LocalizedName": {
    "type": "cexolocstring",
    "value": {
      "0": "Gunpowder horse, heavily armored",
      "10": "Siwy koñ, ciê¿ko opancerzony"
    }
  },
  "ModelPart1": {
    "type": "byte",
    "value": 83
  },
  "PaletteID": {
    "type": "byte",
    "value": 0
  },
  "Plot": {
    "type": "byte",
    "value": 0
  },
  "PropertiesList": {
    "type": "list",
    "value": []
  },
  "StackSize": {
    "type": "word",
    "value": 1
  },
  "Stolen": {
    "type": "byte",
    "value": 0
  },
  "Tag": {
    "type": "cexostring",
    "value": "it_horsetoken"
  },
  "TemplateResRef": {
    "type": "resref",
    "value": "it_hwarhorse3"
  }
}
