{
  "__data_type": "UTC ",
  "Appearance_Type": {
    "type": "word",
    "value": 519
  },
  "BodyBag": {
    "type": "byte",
    "value": 0
  },
  "Cha": {
    "type": "byte",
    "value": 6
  },
  "ChallengeRating": {
    "type": "float",
    "value": 12.0
  },
  "ClassList": {
    "type": "list",
    "value": [
      {
        "__struct_id": 2,
        "Class": {
          "type": "int",
          "value": 23
        },
        "ClassLevel": {
          "type": "short",
          "value": 16
        }
      }
    ]
  },
  "Comment": {
    "type": "cexostring",
    "value": ""
  },
  "Con": {
    "type": "byte",
    "value": 17
  },
  "Conversation": {
    "type": "resref",
    "value": ""
  },
  "CRAdjust": {
    "type": "int",
    "value": 0
  },
  "CurrentHitPoints": {
    "type": "short",
    "value": 88
  },
  "DecayTime": {
    "type": "dword",
    "value": 5000
  },
  "Deity": {
    "type": "cexostring",
    "value": ""
  },
  "Description": {
    "type": "cexolocstring",
    "value": {
      "0": "This is a majestic and seemingly magical horse.",
      "10": "Wierzchowce paladynów to majestatyczne, magiczne konie."
    }
  },
  "Dex": {
    "type": "byte",
    "value": 13
  },
  "Disarmable": {
    "type": "byte",
    "value": 1
  },
  "Equip_ItemList": {
    "type": "list",
    "value": [
      {
        "__struct_id": 16384,
        "EquippedRes": {
          "type": "resref",
          "value": "nw_it_crewpb005"
        }
      },
      {
        "__struct_id": 32768,
        "EquippedRes": {
          "type": "resref",
          "value": "nw_it_crewpb005"
        }
      },
      {
        "__struct_id": 65536,
        "EquippedRes": {
          "type": "resref",
          "value": "nw_it_crewps002"
        }
      },
      {
        "__struct_id": 131072,
        "EquippedRes": {
          "type": "resref",
          "value": "x3_it_palhide3"
        }
      }
    ]
  },
  "FactionID": {
    "type": "word",
    "value": 4
  },
  "FeatList": {
    "type": "list",
    "value": [
      {
        "__struct_id": 1,
        "Feat": {
          "type": "word",
          "value": 206
        }
      },
      {
        "__struct_id": 1,
        "Feat": {
          "type": "word",
          "value": 212
        }
      },
      {
        "__struct_id": 1,
        "Feat": {
          "type": "word",
          "value": 289
        }
      }
    ]
  },
  "FirstName": {
    "type": "cexolocstring",
    "value": {
      "0": "Paladin Mount",
      "10": "Wierzchowiec Paladyna"
    }
  },
  "fortbonus": {
    "type": "short",
    "value": 0
  },
  "Gender": {
    "type": "byte",
    "value": 0
  },
  "GoodEvil": {
    "type": "byte",
    "value": 100
  },
  "HitPoints": {
    "type": "short",
    "value": 88
  },
  "Int": {
    "type": "byte",
    "value": 11
  },
  "Interruptable": {
    "type": "byte",
    "value": 1
  },
  "IsImmortal": {
    "type": "byte",
    "value": 0
  },
  "IsPC": {
    "type": "byte",
    "value": 0
  },
  "LastName": {
    "type": "cexolocstring",
    "value": {
      "0": ""
    }
  },
  "LawfulChaotic": {
    "type": "byte",
    "value": 100
  },
  "Lootable": {
    "type": "byte",
    "value": 0
  },
  "MaxHitPoints": {
    "type": "short",
    "value": 136
  },
  "NaturalAC": {
    "type": "byte",
    "value": 14
  },
  "NoPermDeath": {
    "type": "byte",
    "value": 1
  },
  "PaletteID": {
    "type": "byte",
    "value": 4
  },
  "PerceptionRange": {
    "type": "byte",
    "value": 11
  },
  "Phenotype": {
    "type": "int",
    "value": 0
  },
  "Plot": {
    "type": "byte",
    "value": 0
  },
  "PortraitId": {
    "type": "word",
    "value": 1282
  },
  "Race": {
    "type": "byte",
    "value": 19
  },
  "refbonus": {
    "type": "short",
    "value": 0
  },
  "ScriptAttacked": {
    "type": "resref",
    "value": "evn_creattacked"
  },
  "ScriptDamaged": {
    "type": "resref",
    "value": "evn_credamage"
  },
  "ScriptDeath": {
    "type": "resref",
    "value": "evn_credeath"
  },
  "ScriptDialogue": {
    "type": "resref",
    "value": "evn_creconvo"
  },
  "ScriptDisturbed": {
    "type": "resref",
    "value": "evn_credisturbed"
  },
  "ScriptEndRound": {
    "type": "resref",
    "value": "evn_creroundend"
  },
  "ScriptHeartbeat": {
    "type": "resref",
    "value": "evn_crehb"
  },
  "ScriptOnBlocked": {
    "type": "resref",
    "value": "evn_creblocked"
  },
  "ScriptOnNotice": {
    "type": "resref",
    "value": "evn_crepercept"
  },
  "ScriptRested": {
    "type": "resref",
    "value": "evn_crerested"
  },
  "ScriptSpawn": {
    "type": "resref",
    "value": "evn_crespawn"
  },
  "ScriptSpellAt": {
    "type": "resref",
    "value": "evn_crecastat"
  },
  "ScriptUserDefine": {
    "type": "resref",
    "value": "evn_creuserdef"
  },
  "SkillList": {
    "type": "list",
    "value": [
      {
        "__struct_id": 0,
        "Rank": {
          "type": "byte",
          "value": 0
        }
      },
      {
        "__struct_id": 0,
        "Rank": {
          "type": "byte",
          "value": 0
        }
      },
      {
        "__struct_id": 0,
        "Rank": {
          "type": "byte",
          "value": 0
        }
      },
      {
        "__struct_id": 0,
        "Rank": {
          "type": "byte",
          "value": 9
        }
      },
      {
        "__struct_id": 0,
        "Rank": {
          "type": "byte",
          "value": 0
        }
      },
      {
        "__struct_id": 0,
        "Rank": {
          "type": "byte",
          "value": 0
        }
      },
      {
        "__struct_id": 0,
        "Rank": {
          "type": "byte",
          "value": 13
        }
      },
      {
        "__struct_id": 0,
        "Rank": {
          "type": "byte",
          "value": 0
        }
      },
      {
        "__struct_id": 0,
        "Rank": {
          "type": "byte",
          "value": 0
        }
      },
      {
        "__struct_id": 0,
        "Rank": {
          "type": "byte",
          "value": 0
        }
      },
      {
        "__struct_id": 0,
        "Rank": {
          "type": "byte",
          "value": 0
        }
      },
      {
        "__struct_id": 0,
        "Rank": {
          "type": "byte",
          "value": 0
        }
      },
      {
        "__struct_id": 0,
        "Rank": {
          "type": "byte",
          "value": 0
        }
      },
      {
        "__struct_id": 0,
        "Rank": {
          "type": "byte",
          "value": 0
        }
      },
      {
        "__struct_id": 0,
        "Rank": {
          "type": "byte",
          "value": 0
        }
      },
      {
        "__struct_id": 0,
        "Rank": {
          "type": "byte",
          "value": 0
        }
      },
      {
        "__struct_id": 0,
        "Rank": {
          "type": "byte",
          "value": 0
        }
      },
      {
        "__struct_id": 0,
        "Rank": {
          "type": "byte",
          "value": 7
        }
      },
      {
        "__struct_id": 0,
        "Rank": {
          "type": "byte",
          "value": 0
        }
      },
      {
        "__struct_id": 0,
        "Rank": {
          "type": "byte",
          "value": 0
        }
      },
      {
        "__struct_id": 0,
        "Rank": {
          "type": "byte",
          "value": 0
        }
      },
      {
        "__struct_id": 0,
        "Rank": {
          "type": "byte",
          "value": 0
        }
      },
      {
        "__struct_id": 0,
        "Rank": {
          "type": "byte",
          "value": 0
        }
      },
      {
        "__struct_id": 0,
        "Rank": {
          "type": "byte",
          "value": 0
        }
      },
      {
        "__struct_id": 0,
        "Rank": {
          "type": "byte",
          "value": 0
        }
      },
      {
        "__struct_id": 0,
        "Rank": {
          "type": "byte",
          "value": 0
        }
      },
      {
        "__struct_id": 0,
        "Rank": {
          "type": "byte",
          "value": 0
        }
      },
      {
        "__struct_id": 0,
        "Rank": {
          "type": "byte",
          "value": 0
        }
      }
    ]
  },
  "SoundSetFile": {
    "type": "word",
    "value": 259
  },
  "SpecAbilityList": {
    "type": "list",
    "value": []
  },
  "StartingPackage": {
    "type": "byte",
    "value": 85
  },
  "Str": {
    "type": "byte",
    "value": 25
  },
  "Subrace": {
    "type": "cexostring",
    "value": ""
  },
  "Tag": {
    "type": "cexostring",
    "value": "x3_palhrs6"
  },
  "Tail_New": {
    "type": "dword",
    "value": 0
  },
  "TemplateList": {
    "type": "list",
    "value": []
  },
  "TemplateResRef": {
    "type": "resref",
    "value": "x3_palhrs6"
  },
  "VarTable": {
    "type": "list",
    "value": [
      {
        "__struct_id": 0,
        "Name": {
          "type": "cexostring",
          "value": "X3_HORSE_POSTMOUNT_SCRIPT"
        },
        "Type": {
          "type": "dword",
          "value": 3
        },
        "Value": {
          "type": "cexostring",
          "value": "x3_s2_palmount"
        }
      },
      {
        "__struct_id": 0,
        "Name": {
          "type": "cexostring",
          "value": "X3_HORSE_POSTDISMOUNT_SCRIPT"
        },
        "Type": {
          "type": "dword",
          "value": 3
        },
        "Value": {
          "type": "cexostring",
          "value": "x3_s2_paldmount"
        }
      },
      {
        "__struct_id": 0,
        "Name": {
          "type": "cexostring",
          "value": "StandardSummon"
        },
        "Type": {
          "type": "dword",
          "value": 1
        },
        "Value": {
          "type": "int",
          "value": 1
        }
      },
      {
        "__struct_id": 0,
        "Name": {
          "type": "cexostring",
          "value": "OnHeartbeat"
        },
        "Type": {
          "type": "dword",
          "value": 3
        },
        "Value": {
          "type": "cexostring",
          "value": "x3_c2_pm_hb"
        }
      },
      {
        "__struct_id": 0,
        "Name": {
          "type": "cexostring",
          "value": "OnDeath"
        },
        "Type": {
          "type": "dword",
          "value": 3
        },
        "Value": {
          "type": "cexostring",
          "value": "x3_c2_pm_death"
        }
      },
      {
        "__struct_id": 0,
        "Name": {
          "type": "cexostring",
          "value": "NamePl"
        },
        "Type": {
          "type": "dword",
          "value": 3
        },
        "Value": {
          "type": "cexostring",
          "value": "Wierzchowiec Paladyna"
        }
      },
      {
        "__struct_id": 0,
        "Name": {
          "type": "cexostring",
          "value": "ExtraAC"
        },
        "Type": {
          "type": "dword",
          "value": 1
        },
        "Value": {
          "type": "int",
          "value": 2
        }
      },
      {
        "__struct_id": 0,
        "Name": {
          "type": "cexostring",
          "value": "X3_HORSE_PREMOUNT_SCRIPT"
        },
        "Type": {
          "type": "dword",
          "value": 3
        },
        "Value": {
          "type": "cexostring",
          "value": "exe_premount"
        }
      }
    ]
  },
  "WalkRate": {
    "type": "int",
    "value": 5
  },
  "willbonus": {
    "type": "short",
    "value": 0
  },
  "Wings_New": {
    "type": "dword",
    "value": 0
  },
  "Wis": {
    "type": "byte",
    "value": 13
  }
}
