{
  "__data_type": "UTC ",
  "Appearance_Type": {
    "type": "word",
    "value": 186
  },
  "BodyBag": {
    "type": "byte",
    "value": 0
  },
  "Cha": {
    "type": "byte",
    "value": 18
  },
  "ChallengeRating": {
    "type": "float",
    "value": 3.0
  },
  "ClassList": {
    "type": "list",
    "value": [
      {
        "__struct_id": 2,
        "Class": {
          "type": "int",
          "value": 19
        },
        "ClassLevel": {
          "type": "short",
          "value": 4
        }
      }
    ]
  },
  "Comment": {
    "type": "cexostring",
    "value": ""
  },
  "Con": {
    "type": "byte",
    "value": 10
  },
  "Conversation": {
    "type": "resref",
    "value": ""
  },
  "CRAdjust": {
    "type": "int",
    "value": 0
  },
  "CurrentHitPoints": {
    "type": "short",
    "value": 26
  },
  "DecayTime": {
    "type": "dword",
    "value": 5000
  },
  "Deity": {
    "type": "cexostring",
    "value": ""
  },
  "Description": {
    "id": 12359,
    "type": "cexolocstring",
    "value": {
      "0": "The spectral remains of people driven to madness and suicide, Allips crave only revenge against those who pushed them over the brink."
    }
  },
  "Dex": {
    "type": "byte",
    "value": 12
  },
  "Disarmable": {
    "type": "byte",
    "value": 0
  },
  "Equip_ItemList": {
    "type": "list",
    "value": [
      {
        "__struct_id": 16384,
        "EquippedRes": {
          "type": "resref",
          "value": "nw_it_crewpsp014"
        }
      },
      {
        "__struct_id": 32768,
        "EquippedRes": {
          "type": "resref",
          "value": "nw_it_crewpsp014"
        }
      },
      {
        "__struct_id": 131072,
        "EquippedRes": {
          "type": "resref",
          "value": "nw_it_creitemun4"
        }
      }
    ]
  },
  "FactionID": {
    "type": "word",
    "value": 1
  },
  "FeatList": {
    "type": "list",
    "value": [
      {
        "__struct_id": 1,
        "Feat": {
          "type": "word",
          "value": 228
        }
      },
      {
        "__struct_id": 1,
        "Feat": {
          "type": "word",
          "value": 289
        }
      }
    ]
  },
  "FirstName": {
    "id": 12360,
    "type": "cexolocstring",
    "value": {}
  },
  "fortbonus": {
    "type": "short",
    "value": 0
  },
  "Gender": {
    "type": "byte",
    "value": 4
  },
  "GoodEvil": {
    "type": "byte",
    "value": 0
  },
  "HitPoints": {
    "type": "short",
    "value": 26
  },
  "Int": {
    "type": "byte",
    "value": 11
  },
  "Interruptable": {
    "type": "byte",
    "value": 1
  },
  "IsImmortal": {
    "type": "byte",
    "value": 0
  },
  "IsPC": {
    "type": "byte",
    "value": 0
  },
  "LastName": {
    "type": "cexolocstring",
    "value": {}
  },
  "LawfulChaotic": {
    "type": "byte",
    "value": 0
  },
  "Lootable": {
    "type": "byte",
    "value": 0
  },
  "MaxHitPoints": {
    "type": "short",
    "value": 26
  },
  "NaturalAC": {
    "type": "byte",
    "value": 0
  },
  "NoPermDeath": {
    "type": "byte",
    "value": 0
  },
  "PaletteID": {
    "type": "byte",
    "value": 32
  },
  "PerceptionRange": {
    "type": "byte",
    "value": 11
  },
  "Phenotype": {
    "type": "int",
    "value": 0
  },
  "Plot": {
    "type": "byte",
    "value": 0
  },
  "PortraitId": {
    "type": "word",
    "value": 142
  },
  "Race": {
    "type": "byte",
    "value": 24
  },
  "refbonus": {
    "type": "short",
    "value": 0
  },
  "ScriptAttacked": {
    "type": "resref",
    "value": "nw_c2_default5"
  },
  "ScriptDamaged": {
    "type": "resref",
    "value": "nw_c2_default6"
  },
  "ScriptDeath": {
    "type": "resref",
    "value": "nw_c2_default7"
  },
  "ScriptDialogue": {
    "type": "resref",
    "value": "nw_c2_default4"
  },
  "ScriptDisturbed": {
    "type": "resref",
    "value": "nw_c2_default8"
  },
  "ScriptEndRound": {
    "type": "resref",
    "value": "nw_c2_default3"
  },
  "ScriptHeartbeat": {
    "type": "resref",
    "value": "nw_c2_default1"
  },
  "ScriptOnBlocked": {
    "type": "resref",
    "value": "nw_c2_defaulte"
  },
  "ScriptOnNotice": {
    "type": "resref",
    "value": "nw_c2_default2"
  },
  "ScriptRested": {
    "type": "resref",
    "value": "nw_c2_defaulta"
  },
  "ScriptSpawn": {
    "type": "resref",
    "value": "nw_c2_default9"
  },
  "ScriptSpellAt": {
    "type": "resref",
    "value": "nw_c2_defaultb"
  },
  "ScriptUserDefine": {
    "type": "resref",
    "value": "nw_c2_defaultd"
  },
  "SkillList": {
    "type": "list",
    "value": [
      {
        "__struct_id": 0,
        "Rank": {
          "type": "byte",
          "value": 0
        }
      },
      {
        "__struct_id": 0,
        "Rank": {
          "type": "byte",
          "value": 0
        }
      },
      {
        "__struct_id": 0,
        "Rank": {
          "type": "byte",
          "value": 0
        }
      },
      {
        "__struct_id": 0,
        "Rank": {
          "type": "byte",
          "value": 0
        }
      },
      {
        "__struct_id": 0,
        "Rank": {
          "type": "byte",
          "value": 0
        }
      },
      {
        "__struct_id": 0,
        "Rank": {
          "type": "byte",
          "value": 8
        }
      },
      {
        "__struct_id": 0,
        "Rank": {
          "type": "byte",
          "value": 7
        }
      },
      {
        "__struct_id": 0,
        "Rank": {
          "type": "byte",
          "value": 0
        }
      },
      {
        "__struct_id": 0,
        "Rank": {
          "type": "byte",
          "value": 0
        }
      },
      {
        "__struct_id": 0,
        "Rank": {
          "type": "byte",
          "value": 0
        }
      },
      {
        "__struct_id": 0,
        "Rank": {
          "type": "byte",
          "value": 0
        }
      },
      {
        "__struct_id": 0,
        "Rank": {
          "type": "byte",
          "value": 0
        }
      },
      {
        "__struct_id": 0,
        "Rank": {
          "type": "byte",
          "value": 0
        }
      },
      {
        "__struct_id": 0,
        "Rank": {
          "type": "byte",
          "value": 0
        }
      },
      {
        "__struct_id": 0,
        "Rank": {
          "type": "byte",
          "value": 7
        }
      },
      {
        "__struct_id": 0,
        "Rank": {
          "type": "byte",
          "value": 0
        }
      },
      {
        "__struct_id": 0,
        "Rank": {
          "type": "byte",
          "value": 0
        }
      },
      {
        "__struct_id": 0,
        "Rank": {
          "type": "byte",
          "value": 7
        }
      },
      {
        "__struct_id": 0,
        "Rank": {
          "type": "byte",
          "value": 0
        }
      },
      {
        "__struct_id": 0,
        "Rank": {
          "type": "byte",
          "value": 0
        }
      },
      {
        "__struct_id": 0,
        "Rank": {
          "type": "byte",
          "value": 0
        }
      },
      {
        "__struct_id": 0,
        "Rank": {
          "type": "byte",
          "value": 0
        }
      },
      {
        "__struct_id": 0,
        "Rank": {
          "type": "byte",
          "value": 0
        }
      },
      {
        "__struct_id": 0,
        "Rank": {
          "type": "byte",
          "value": 0
        }
      },
      {
        "__struct_id": 0,
        "Rank": {
          "type": "byte",
          "value": 0
        }
      },
      {
        "__struct_id": 0,
        "Rank": {
          "type": "byte",
          "value": 0
        }
      },
      {
        "__struct_id": 0,
        "Rank": {
          "type": "byte",
          "value": 0
        }
      },
      {
        "__struct_id": 0,
        "Rank": {
          "type": "byte",
          "value": 0
        }
      }
    ]
  },
  "SoundSetFile": {
    "type": "word",
    "value": 107
  },
  "SpecAbilityList": {
    "type": "list",
    "value": []
  },
  "StartingPackage": {
    "type": "byte",
    "value": 0
  },
  "Str": {
    "type": "byte",
    "value": 10
  },
  "Subrace": {
    "type": "cexostring",
    "value": ""
  },
  "Tag": {
    "type": "cexostring",
    "value": "cre_allip"
  },
  "Tail_New": {
    "type": "dword",
    "value": 0
  },
  "TemplateList": {
    "type": "list",
    "value": []
  },
  "TemplateResRef": {
    "type": "resref",
    "value": "cre_allip"
  },
  "WalkRate": {
    "type": "int",
    "value": 7
  },
  "willbonus": {
    "type": "short",
    "value": 0
  },
  "Wings_New": {
    "type": "dword",
    "value": 0
  },
  "Wis": {
    "type": "byte",
    "value": 11
  }
}
