{
  "__data_type": "DLG ",
  "DelayEntry": {
    "type": "dword",
    "value": 0
  },
  "DelayReply": {
    "type": "dword",
    "value": 0
  },
  "EndConverAbort": {
    "type": "resref",
    "value": "cnv_fnt_enmend"
  },
  "EndConversation": {
    "type": "resref",
    "value": "cnv_fnt_enmend"
  },
  "EntryList": {
    "type": "list",
    "value": [
      {
        "__struct_id": 0,
        "ActionParams": {
          "type": "list",
          "value": []
        },
        "Animation": {
          "type": "dword",
          "value": 0
        },
        "AnimLoop": {
          "type": "byte",
          "value": 1
        },
        "Comment": {
          "type": "cexostring",
          "value": ""
        },
        "Delay": {
          "type": "dword",
          "value": 4294967295
        },
        "Quest": {
          "type": "cexostring",
          "value": ""
        },
        "RepliesList": {
          "type": "list",
          "value": [
            {
              "__struct_id": 0,
              "Active": {
                "type": "resref",
                "value": ""
              },
              "ConditionParams": {
                "type": "list",
                "value": []
              },
              "Index": {
                "type": "dword",
                "value": 4
              },
              "IsChild": {
                "type": "byte",
                "value": 0
              }
            },
            {
              "__struct_id": 1,
              "Active": {
                "type": "resref",
                "value": ""
              },
              "ConditionParams": {
                "type": "list",
                "value": []
              },
              "Index": {
                "type": "dword",
                "value": 2
              },
              "IsChild": {
                "type": "byte",
                "value": 0
              }
            },
            {
              "__struct_id": 2,
              "Active": {
                "type": "resref",
                "value": ""
              },
              "ConditionParams": {
                "type": "list",
                "value": []
              },
              "Index": {
                "type": "dword",
                "value": 1
              },
              "IsChild": {
                "type": "byte",
                "value": 0
              }
            },
            {
              "__struct_id": 3,
              "Active": {
                "type": "resref",
                "value": ""
              },
              "ConditionParams": {
                "type": "list",
                "value": []
              },
              "Index": {
                "type": "dword",
                "value": 0
              },
              "IsChild": {
                "type": "byte",
                "value": 0
              }
            }
          ]
        },
        "Script": {
          "type": "resref",
          "value": "cnv_fnt_enmstart"
        },
        "Sound": {
          "type": "resref",
          "value": ""
        },
        "Speaker": {
          "type": "cexostring",
          "value": ""
        },
        "Text": {
          "type": "cexolocstring",
          "value": {
            "0": "What do we have here! What a nice shiny coin you've got there! Give it to me or else!",
            "10": "Co tu mamy! Co za œliczna b³yszcz¹ca monetka! Dawaj mi j¹ lub giñ!"
          }
        }
      },
      {
        "__struct_id": 1,
        "ActionParams": {
          "type": "list",
          "value": []
        },
        "Animation": {
          "type": "dword",
          "value": 0
        },
        "AnimLoop": {
          "type": "byte",
          "value": 1
        },
        "Comment": {
          "type": "cexostring",
          "value": ""
        },
        "Delay": {
          "type": "dword",
          "value": 0
        },
        "Quest": {
          "type": "cexostring",
          "value": ""
        },
        "RepliesList": {
          "type": "list",
          "value": [
            {
              "__struct_id": 0,
              "Active": {
                "type": "resref",
                "value": ""
              },
              "ConditionParams": {
                "type": "list",
                "value": []
              },
              "Index": {
                "type": "dword",
                "value": 5
              },
              "IsChild": {
                "type": "byte",
                "value": 1
              },
              "LinkComment": {
                "type": "cexostring",
                "value": ""
              }
            }
          ]
        },
        "Script": {
          "type": "resref",
          "value": "cnv_fnt_prepatk"
        },
        "Sound": {
          "type": "resref",
          "value": ""
        },
        "Speaker": {
          "type": "cexostring",
          "value": ""
        },
        "Text": {
          "type": "cexolocstring",
          "value": {
            "0": "<StartCheck>[Failure]</Start> Then I'll just take it from you by force!",
            "10": "<StartCheck>[Niepowodzenie]</Start> W takim razie wyrwê tê monetê z twoich martwych ³ap!"
          }
        }
      },
      {
        "__struct_id": 2,
        "ActionParams": {
          "type": "list",
          "value": []
        },
        "Animation": {
          "type": "dword",
          "value": 0
        },
        "AnimLoop": {
          "type": "byte",
          "value": 1
        },
        "Comment": {
          "type": "cexostring",
          "value": ""
        },
        "Delay": {
          "type": "dword",
          "value": 4294967295
        },
        "Quest": {
          "type": "cexostring",
          "value": ""
        },
        "RepliesList": {
          "type": "list",
          "value": [
            {
              "__struct_id": 0,
              "Active": {
                "type": "resref",
                "value": ""
              },
              "ConditionParams": {
                "type": "list",
                "value": []
              },
              "Index": {
                "type": "dword",
                "value": 3
              },
              "IsChild": {
                "type": "byte",
                "value": 0
              }
            }
          ]
        },
        "Script": {
          "type": "resref",
          "value": "cnv_fnt_intimida"
        },
        "Sound": {
          "type": "resref",
          "value": ""
        },
        "Speaker": {
          "type": "cexostring",
          "value": ""
        },
        "Text": {
          "type": "cexolocstring",
          "value": {
            "0": "<StartAction>[Success]</Start> Uh... y-yeah... let's get outta here!",
            "10": "<StartAction>[Sukces]</Start> Uh... t-tak... ju¿ mnie tu nie ma!"
          }
        }
      },
      {
        "__struct_id": 3,
        "ActionParams": {
          "type": "list",
          "value": []
        },
        "Animation": {
          "type": "dword",
          "value": 0
        },
        "AnimLoop": {
          "type": "byte",
          "value": 1
        },
        "Comment": {
          "type": "cexostring",
          "value": ""
        },
        "Delay": {
          "type": "dword",
          "value": 0
        },
        "Quest": {
          "type": "cexostring",
          "value": ""
        },
        "RepliesList": {
          "type": "list",
          "value": [
            {
              "__struct_id": 0,
              "Active": {
                "type": "resref",
                "value": ""
              },
              "ConditionParams": {
                "type": "list",
                "value": []
              },
              "Index": {
                "type": "dword",
                "value": 5
              },
              "IsChild": {
                "type": "byte",
                "value": 0
              }
            }
          ]
        },
        "Script": {
          "type": "resref",
          "value": "cnv_fnt_prepatk"
        },
        "Sound": {
          "type": "resref",
          "value": ""
        },
        "Speaker": {
          "type": "cexostring",
          "value": ""
        },
        "Text": {
          "type": "cexolocstring",
          "value": {
            "0": "<StartCheck>[Failure]</Start> I don't believe you! Why would you want to keep it so badly, then? I'll just take it from you by force!",
            "10": "<StartCheck>[Niepowodzenie]</Start> Nie wierzê ci! Dlaczego tak bardzo próbowa³byœ w takim wypadku zachowaæ tê monetê? Wyrwê j¹ z twoich martwych ³ap!"
          }
        }
      },
      {
        "__struct_id": 4,
        "ActionParams": {
          "type": "list",
          "value": []
        },
        "Animation": {
          "type": "dword",
          "value": 0
        },
        "AnimLoop": {
          "type": "byte",
          "value": 1
        },
        "Comment": {
          "type": "cexostring",
          "value": ""
        },
        "Delay": {
          "type": "dword",
          "value": 0
        },
        "Quest": {
          "type": "cexostring",
          "value": ""
        },
        "RepliesList": {
          "type": "list",
          "value": [
            {
              "__struct_id": 0,
              "Active": {
                "type": "resref",
                "value": ""
              },
              "ConditionParams": {
                "type": "list",
                "value": []
              },
              "Index": {
                "type": "dword",
                "value": 6
              },
              "IsChild": {
                "type": "byte",
                "value": 0
              }
            }
          ]
        },
        "Script": {
          "type": "resref",
          "value": "cnv_fnt_persuade"
        },
        "Sound": {
          "type": "resref",
          "value": ""
        },
        "Speaker": {
          "type": "cexostring",
          "value": ""
        },
        "Text": {
          "type": "cexolocstring",
          "value": {
            "0": "<StartAction>[Success]</Start> Mm... Fine!",
            "10": "<StartAction>[Sukces]</Start> Mm... Niech bêdzie!"
          }
        }
      }
    ]
  },
  "NumWords": {
    "type": "dword",
    "value": 137
  },
  "PreventZoomIn": {
    "type": "byte",
    "value": 0
  },
  "ReplyList": {
    "type": "list",
    "value": [
      {
        "__struct_id": 0,
        "ActionParams": {
          "type": "list",
          "value": []
        },
        "Animation": {
          "type": "dword",
          "value": 0
        },
        "AnimLoop": {
          "type": "byte",
          "value": 1
        },
        "Comment": {
          "type": "cexostring",
          "value": ""
        },
        "Delay": {
          "type": "dword",
          "value": 4294967295
        },
        "EntriesList": {
          "type": "list",
          "value": []
        },
        "Quest": {
          "type": "cexostring",
          "value": ""
        },
        "Script": {
          "type": "resref",
          "value": "cnv_fnt_prepatk"
        },
        "Sound": {
          "type": "resref",
          "value": ""
        },
        "Text": {
          "type": "cexolocstring",
          "value": {
            "0": "<StartAction>[Attack]</Start> You're asking for it!",
            "10": "<StartAction>[Atak]</Start> Prosisz siê o k³opoty!"
          }
        }
      },
      {
        "__struct_id": 1,
        "ActionParams": {
          "type": "list",
          "value": []
        },
        "Animation": {
          "type": "dword",
          "value": 0
        },
        "AnimLoop": {
          "type": "byte",
          "value": 1
        },
        "Comment": {
          "type": "cexostring",
          "value": ""
        },
        "Delay": {
          "type": "dword",
          "value": 4294967295
        },
        "EntriesList": {
          "type": "list",
          "value": []
        },
        "Quest": {
          "type": "cexostring",
          "value": ""
        },
        "Script": {
          "type": "resref",
          "value": "cnv_fnt_givecoin"
        },
        "Sound": {
          "type": "resref",
          "value": ""
        },
        "Text": {
          "type": "cexolocstring",
          "value": {
            "0": "Fine, take it. I don't want any trouble right now.",
            "10": "Dobrze, weŸ j¹. Nie chcê w tej chwili ¿adnych k³opotów."
          }
        }
      },
      {
        "__struct_id": 2,
        "ActionParams": {
          "type": "list",
          "value": []
        },
        "Animation": {
          "type": "dword",
          "value": 0
        },
        "AnimLoop": {
          "type": "byte",
          "value": 1
        },
        "Comment": {
          "type": "cexostring",
          "value": ""
        },
        "Delay": {
          "type": "dword",
          "value": 4294967295
        },
        "EntriesList": {
          "type": "list",
          "value": [
            {
              "__struct_id": 0,
              "Active": {
                "type": "resref",
                "value": "con_fnt_intimida"
              },
              "ConditionParams": {
                "type": "list",
                "value": []
              },
              "Index": {
                "type": "dword",
                "value": 2
              },
              "IsChild": {
                "type": "byte",
                "value": 0
              }
            },
            {
              "__struct_id": 1,
              "Active": {
                "type": "resref",
                "value": ""
              },
              "ConditionParams": {
                "type": "list",
                "value": []
              },
              "Index": {
                "type": "dword",
                "value": 1
              },
              "IsChild": {
                "type": "byte",
                "value": 0
              }
            }
          ]
        },
        "Quest": {
          "type": "cexostring",
          "value": ""
        },
        "Script": {
          "type": "resref",
          "value": ""
        },
        "Sound": {
          "type": "resref",
          "value": ""
        },
        "Text": {
          "type": "cexolocstring",
          "value": {
            "0": "<StartCheck>[Intimidate (Party Skill)]</Start> Step back right now or you won't have another chance, fool.",
            "10": "<StartCheck>[Zastraszanie (Dru¿ynowe)]</Start> Odsuñ siê w tej chwili, g³upcze, bo drugiej szansy nie dostaniesz."
          }
        }
      },
      {
        "__struct_id": 3,
        "ActionParams": {
          "type": "list",
          "value": []
        },
        "Animation": {
          "type": "dword",
          "value": 0
        },
        "AnimLoop": {
          "type": "byte",
          "value": 1
        },
        "Comment": {
          "type": "cexostring",
          "value": ""
        },
        "Delay": {
          "type": "dword",
          "value": 4294967295
        },
        "EntriesList": {
          "type": "list",
          "value": []
        },
        "Quest": {
          "type": "cexostring",
          "value": ""
        },
        "Script": {
          "type": "resref",
          "value": ""
        },
        "Sound": {
          "type": "resref",
          "value": ""
        },
        "Text": {
          "type": "cexolocstring",
          "value": {
            "0": "Good.",
            "10": "Œwietnie."
          }
        }
      },
      {
        "__struct_id": 4,
        "ActionParams": {
          "type": "list",
          "value": []
        },
        "Animation": {
          "type": "dword",
          "value": 0
        },
        "AnimLoop": {
          "type": "byte",
          "value": 1
        },
        "Comment": {
          "type": "cexostring",
          "value": ""
        },
        "Delay": {
          "type": "dword",
          "value": 4294967295
        },
        "EntriesList": {
          "type": "list",
          "value": [
            {
              "__struct_id": 0,
              "Active": {
                "type": "resref",
                "value": "con_fnt_persuade"
              },
              "ConditionParams": {
                "type": "list",
                "value": []
              },
              "Index": {
                "type": "dword",
                "value": 4
              },
              "IsChild": {
                "type": "byte",
                "value": 0
              }
            },
            {
              "__struct_id": 1,
              "Active": {
                "type": "resref",
                "value": ""
              },
              "ConditionParams": {
                "type": "list",
                "value": []
              },
              "Index": {
                "type": "dword",
                "value": 3
              },
              "IsChild": {
                "type": "byte",
                "value": 0
              }
            }
          ]
        },
        "Quest": {
          "type": "cexostring",
          "value": ""
        },
        "Script": {
          "type": "resref",
          "value": ""
        },
        "Sound": {
          "type": "resref",
          "value": ""
        },
        "Text": {
          "type": "cexolocstring",
          "value": {
            "0": "<StartCheck>[Persuade (Party Skill)]</Start> Greed has clouded your mind. Can't you see this old coin is no more valuable than a regular gold piece? I'll give you 10 pieces of gold and then be on your way.",
            "10": "<StartCheck>[Perswazja (Dru¿ynowa)]</Start> Chciwoœæ odebra³a ci rozum. Nie widzisz, ¿e ta stara moneta nie jest warta wiêcej ni¿ dowolna inna? Dostaniesz 10 sztuk z³ota i odejdŸ w pokoju."
          }
        }
      },
      {
        "__struct_id": 5,
        "ActionParams": {
          "type": "list",
          "value": []
        },
        "Animation": {
          "type": "dword",
          "value": 0
        },
        "AnimLoop": {
          "type": "byte",
          "value": 1
        },
        "Comment": {
          "type": "cexostring",
          "value": ""
        },
        "Delay": {
          "type": "dword",
          "value": 4294967295
        },
        "EntriesList": {
          "type": "list",
          "value": []
        },
        "Quest": {
          "type": "cexostring",
          "value": ""
        },
        "Script": {
          "type": "resref",
          "value": ""
        },
        "Sound": {
          "type": "resref",
          "value": ""
        },
        "Text": {
          "type": "cexolocstring",
          "value": {
            "0": "You've asked for it!",
            "10": "Zginiesz na w³asne ¿yczenie!"
          }
        }
      },
      {
        "__struct_id": 6,
        "ActionParams": {
          "type": "list",
          "value": []
        },
        "Animation": {
          "type": "dword",
          "value": 0
        },
        "AnimLoop": {
          "type": "byte",
          "value": 1
        },
        "Comment": {
          "type": "cexostring",
          "value": ""
        },
        "Delay": {
          "type": "dword",
          "value": 4294967295
        },
        "EntriesList": {
          "type": "list",
          "value": []
        },
        "Quest": {
          "type": "cexostring",
          "value": ""
        },
        "Script": {
          "type": "resref",
          "value": ""
        },
        "Sound": {
          "type": "resref",
          "value": ""
        },
        "Text": {
          "type": "cexolocstring",
          "value": {
            "0": "Here. Now leave me be.",
            "10": "Proszê. A teraz zostaw mnie w spokoju."
          }
        }
      }
    ]
  },
  "StartingList": {
    "type": "list",
    "value": [
      {
        "__struct_id": 0,
        "Active": {
          "type": "resref",
          "value": "con_fnt_encantal"
        },
        "ConditionParams": {
          "type": "list",
          "value": []
        },
        "Index": {
          "type": "dword",
          "value": 0
        }
      }
    ]
  }
}
