{
  "__data_type": "GIC ",
  "Creature List": {
    "type": "list",
    "value": []
  },
  "Door List": {
    "type": "list",
    "value": [
      {
        "__struct_id": 8,
        "Comment": {
          "type": "cexostring",
          "value": "Barn 2 Door"
        }
      }
    ]
  },
  "Encounter List": {
    "type": "list",
    "value": []
  },
  "List": {
    "type": "list",
    "value": []
  },
  "Placeable List": {
    "type": "list",
    "value": [
      {
        "__struct_id": 9,
        "Comment": {
          "type": "cexostring",
          "value": "This is the trap door that will be created when the Hidden door trigger determins that the door has been found. see comments on the trigger for how to use."
        }
      },
      {
        "__struct_id": 9,
        "Comment": {
          "type": "cexostring",
          "value": ""
        }
      },
      {
        "__struct_id": 9,
        "Comment": {
          "type": "cexostring",
          "value": ""
        }
      },
      {
        "__struct_id": 9,
        "Comment": {
          "type": "cexostring",
          "value": ""
        }
      },
      {
        "__struct_id": 9,
        "Comment": {
          "type": "cexostring",
          "value": "Dead Tree"
        }
      },
      {
        "__struct_id": 9,
        "Comment": {
          "type": "cexostring",
          "value": ""
        }
      },
      {
        "__struct_id": 9,
        "Comment": {
          "type": "cexostring",
          "value": "Tree - Normal"
        }
      },
      {
        "__struct_id": 9,
        "Comment": {
          "type": "cexostring",
          "value": "Tree - Normal"
        }
      },
      {
        "__struct_id": 9,
        "Comment": {
          "type": "cexostring",
          "value": "Tree - Normal"
        }
      },
      {
        "__struct_id": 9,
        "Comment": {
          "type": "cexostring",
          "value": "Tree - Normal"
        }
      },
      {
        "__struct_id": 9,
        "Comment": {
          "type": "cexostring",
          "value": "Tree - Normal"
        }
      },
      {
        "__struct_id": 9,
        "Comment": {
          "type": "cexostring",
          "value": "Tree - Normal"
        }
      },
      {
        "__struct_id": 9,
        "Comment": {
          "type": "cexostring",
          "value": ""
        }
      }
    ]
  },
  "SoundList": {
    "type": "list",
    "value": []
  },
  "StoreList": {
    "type": "list",
    "value": []
  },
  "TriggerList": {
    "type": "list",
    "value": [
      {
        "__struct_id": 1,
        "Comment": {
          "type": "cexostring",
          "value": ""
        }
      }
    ]
  },
  "WaypointList": {
    "type": "list",
    "value": [
      {
        "__struct_id": 5,
        "Comment": {
          "type": "cexostring",
          "value": ""
        }
      },
      {
        "__struct_id": 5,
        "Comment": {
          "type": "cexostring",
          "value": "On the Advanced tab, replace <Place text here> with whatever information you wish to appear on the Map of an area."
        }
      }
    ]
  }
}
