{
  "__data_type": "DLG ",
  "DelayEntry": {
    "type": "dword",
    "value": 0
  },
  "DelayReply": {
    "type": "dword",
    "value": 0
  },
  "EndConverAbort": {
    "type": "resref",
    "value": "nw_walk_wp"
  },
  "EndConversation": {
    "type": "resref",
    "value": "nw_walk_wp"
  },
  "EntryList": {
    "type": "list",
    "value": [
      {
        "__struct_id": 0,
        "ActionParams": {
          "type": "list",
          "value": []
        },
        "Animation": {
          "type": "dword",
          "value": 0
        },
        "AnimLoop": {
          "type": "byte",
          "value": 1
        },
        "Comment": {
          "type": "cexostring",
          "value": ""
        },
        "Delay": {
          "type": "dword",
          "value": 4294967295
        },
        "Quest": {
          "type": "cexostring",
          "value": ""
        },
        "RepliesList": {
          "type": "list",
          "value": [
            {
              "__struct_id": 0,
              "Active": {
                "type": "resref",
                "value": ""
              },
              "ConditionParams": {
                "type": "list",
                "value": []
              },
              "Index": {
                "type": "dword",
                "value": 1
              },
              "IsChild": {
                "type": "byte",
                "value": 0
              }
            },
            {
              "__struct_id": 1,
              "Active": {
                "type": "resref",
                "value": ""
              },
              "ConditionParams": {
                "type": "list",
                "value": []
              },
              "Index": {
                "type": "dword",
                "value": 0
              },
              "IsChild": {
                "type": "byte",
                "value": 0
              }
            }
          ]
        },
        "Script": {
          "type": "resref",
          "value": ""
        },
        "Sound": {
          "type": "resref",
          "value": ""
        },
        "Speaker": {
          "type": "cexostring",
          "value": ""
        },
        "Text": {
          "type": "cexolocstring",
          "value": {
            "0": "Greetings, hero. If you're looking for a challenge, you've come to the right place.",
            "10": "Pozdrowienia, bohaterze. Je¿eli poszukujesz wyzwania, przybywasz do w³aœciwego miejsca.",
            "11": "Pozdrowienia, bohaterko. Je¿eli poszukujesz wyzwania, przybywasz do w³aœciwego miejsca."
          }
        }
      },
      {
        "__struct_id": 1,
        "ActionParams": {
          "type": "list",
          "value": []
        },
        "Animation": {
          "type": "dword",
          "value": 0
        },
        "AnimLoop": {
          "type": "byte",
          "value": 1
        },
        "Comment": {
          "type": "cexostring",
          "value": ""
        },
        "Delay": {
          "type": "dword",
          "value": 4294967295
        },
        "Quest": {
          "type": "cexostring",
          "value": ""
        },
        "RepliesList": {
          "type": "list",
          "value": [
            {
              "__struct_id": 0,
              "Active": {
                "type": "resref",
                "value": ""
              },
              "ConditionParams": {
                "type": "list",
                "value": []
              },
              "Index": {
                "type": "dword",
                "value": 2
              },
              "IsChild": {
                "type": "byte",
                "value": 0
              }
            },
            {
              "__struct_id": 1,
              "Active": {
                "type": "resref",
                "value": ""
              },
              "ConditionParams": {
                "type": "list",
                "value": []
              },
              "Index": {
                "type": "dword",
                "value": 0
              },
              "IsChild": {
                "type": "byte",
                "value": 1
              },
              "LinkComment": {
                "type": "cexostring",
                "value": ""
              }
            }
          ]
        },
        "Script": {
          "type": "resref",
          "value": ""
        },
        "Sound": {
          "type": "resref",
          "value": ""
        },
        "Speaker": {
          "type": "cexostring",
          "value": ""
        },
        "Text": {
          "type": "cexolocstring",
          "value": {
            "0": "We've been looking for courageous gladiators eager to risk their life on the arena full of bloodthirsty beasts. The reward for the victor is significant - a sack of <CUSTOM1001> gold.",
            "10": "Poszukujemy odwa¿nych gladiatorów, którzy byliby gotowi zaryzykowaæ ¿yciem na naszej arenie w starciu z krwio¿erczymi bestiami. Nagroda dla zwyciêzcy jest wysoka - mieszek <CUSTOM1001> sztuk z³ota."
          }
        }
      },
      {
        "__struct_id": 2,
        "ActionParams": {
          "type": "list",
          "value": []
        },
        "Animation": {
          "type": "dword",
          "value": 0
        },
        "AnimLoop": {
          "type": "byte",
          "value": 1
        },
        "Comment": {
          "type": "cexostring",
          "value": ""
        },
        "Delay": {
          "type": "dword",
          "value": 4294967295
        },
        "Quest": {
          "type": "cexostring",
          "value": ""
        },
        "RepliesList": {
          "type": "list",
          "value": [
            {
              "__struct_id": 0,
              "Active": {
                "type": "resref",
                "value": ""
              },
              "ConditionParams": {
                "type": "list",
                "value": []
              },
              "Index": {
                "type": "dword",
                "value": 3
              },
              "IsChild": {
                "type": "byte",
                "value": 0
              }
            }
          ]
        },
        "Script": {
          "type": "resref",
          "value": ""
        },
        "Sound": {
          "type": "resref",
          "value": ""
        },
        "Speaker": {
          "type": "cexostring",
          "value": ""
        },
        "Text": {
          "type": "cexolocstring",
          "value": {
            "0": "You can participate together with your companions. The participants will face off on their own against enemies in a series of <CUSTOM1002> battles. They can take breaks between fights to catch their breath, mend their wounds, cast spells or drink potions, but they are given no opportunity to fully rest. When they are ready to fight, they need to pull the lever to release the next wave of enemies.",
            "10": "Mo¿esz uczestniczyæ wraz ze swoimi kompanami. Uczestnikom przyjdzie stoczyæ <CUSTOM1002> walk. Miêdzy walkami mog¹ zrobiæ przerwê na z³apanie oddechu i opatrzenie ran, rzucenie zaklêæ albo wypicie mikstur, nie otrzymuj¹ jednak szansy na pe³en wypoczynek. Gdy s¹ gotowi do nastêpnej walki, powinni poci¹gn¹æ za dŸwigniê, aby wypuœciæ nastêpn¹ falê przeciwników."
          }
        }
      },
      {
        "__struct_id": 3,
        "ActionParams": {
          "type": "list",
          "value": []
        },
        "Animation": {
          "type": "dword",
          "value": 0
        },
        "AnimLoop": {
          "type": "byte",
          "value": 1
        },
        "Comment": {
          "type": "cexostring",
          "value": ""
        },
        "Delay": {
          "type": "dword",
          "value": 4294967295
        },
        "Quest": {
          "type": "cexostring",
          "value": ""
        },
        "RepliesList": {
          "type": "list",
          "value": [
            {
              "__struct_id": 0,
              "Active": {
                "type": "resref",
                "value": ""
              },
              "ConditionParams": {
                "type": "list",
                "value": []
              },
              "Index": {
                "type": "dword",
                "value": 4
              },
              "IsChild": {
                "type": "byte",
                "value": 0
              }
            }
          ]
        },
        "Script": {
          "type": "resref",
          "value": ""
        },
        "Sound": {
          "type": "resref",
          "value": ""
        },
        "Speaker": {
          "type": "cexostring",
          "value": ""
        },
        "Text": {
          "type": "cexolocstring",
          "value": {
            "0": "If the party manages to persevere and emerge victorious from all their battles, they will be rewarded with the grand reward of <CUSTOM1001> gold. However, if the participants leave the arena before victory, they lose.",
            "10": "Je¿eli dru¿ynie uda siê przetrwaæ i odniesie zwyciêstwo we wszystkich walkach, zostanie nagrodzona sum¹ <CUSTOM1001> sztuk z³ota. Jeœli jednak uczestnicy opuszcz¹ arenê przed odniesieniem zwyciêstwa, przegrywaj¹."
          }
        }
      },
      {
        "__struct_id": 4,
        "ActionParams": {
          "type": "list",
          "value": []
        },
        "Animation": {
          "type": "dword",
          "value": 0
        },
        "AnimLoop": {
          "type": "byte",
          "value": 1
        },
        "Comment": {
          "type": "cexostring",
          "value": ""
        },
        "Delay": {
          "type": "dword",
          "value": 4294967295
        },
        "Quest": {
          "type": "cexostring",
          "value": ""
        },
        "RepliesList": {
          "type": "list",
          "value": [
            {
              "__struct_id": 0,
              "Active": {
                "type": "resref",
                "value": ""
              },
              "ConditionParams": {
                "type": "list",
                "value": []
              },
              "Index": {
                "type": "dword",
                "value": 5
              },
              "IsChild": {
                "type": "byte",
                "value": 0
              }
            },
            {
              "__struct_id": 1,
              "Active": {
                "type": "resref",
                "value": ""
              },
              "ConditionParams": {
                "type": "list",
                "value": []
              },
              "Index": {
                "type": "dword",
                "value": 0
              },
              "IsChild": {
                "type": "byte",
                "value": 1
              },
              "LinkComment": {
                "type": "cexostring",
                "value": ""
              }
            }
          ]
        },
        "Script": {
          "type": "resref",
          "value": ""
        },
        "Sound": {
          "type": "resref",
          "value": ""
        },
        "Speaker": {
          "type": "cexostring",
          "value": ""
        },
        "Text": {
          "type": "cexolocstring",
          "value": {
            "0": "Collecting creatures for the event takes us a lot of time. You can only participate once because of it.",
            "10": "Gromadzenie stworzeñ do wykorzystania w tym wydarzeniu zajmuje nam wiele czasu i wysi³ku. Z tego powodu masz tylko jedn¹ szansê na spróbowanie swych si³ na arenie."
          }
        }
      },
      {
        "__struct_id": 5,
        "ActionParams": {
          "type": "list",
          "value": []
        },
        "Animation": {
          "type": "dword",
          "value": 0
        },
        "AnimLoop": {
          "type": "byte",
          "value": 1
        },
        "Comment": {
          "type": "cexostring",
          "value": ""
        },
        "Delay": {
          "type": "dword",
          "value": 4294967295
        },
        "Quest": {
          "type": "cexostring",
          "value": ""
        },
        "RepliesList": {
          "type": "list",
          "value": [
            {
              "__struct_id": 0,
              "Active": {
                "type": "resref",
                "value": ""
              },
              "ConditionParams": {
                "type": "list",
                "value": []
              },
              "Index": {
                "type": "dword",
                "value": 7
              },
              "IsChild": {
                "type": "byte",
                "value": 0
              }
            },
            {
              "__struct_id": 1,
              "Active": {
                "type": "resref",
                "value": ""
              },
              "ConditionParams": {
                "type": "list",
                "value": []
              },
              "Index": {
                "type": "dword",
                "value": 6
              },
              "IsChild": {
                "type": "byte",
                "value": 0
              }
            }
          ]
        },
        "Script": {
          "type": "resref",
          "value": "cnv_arn_getfight"
        },
        "Sound": {
          "type": "resref",
          "value": ""
        },
        "Speaker": {
          "type": "cexostring",
          "value": ""
        },
        "Text": {
          "type": "cexolocstring",
          "value": {
            "0": "That's the spirit of a true warrior! Are you ready to fight? If so, we can proceed to the arena and start.",
            "10": "Dusza prawdziwego wojownika! Czy jesteœcie gotowi do walki? Je¿eli tak, mo¿emy udaæ siê na arenê i rozpocz¹æ."
          }
        }
      },
      {
        "__struct_id": 6,
        "ActionParams": {
          "type": "list",
          "value": []
        },
        "Animation": {
          "type": "dword",
          "value": 0
        },
        "AnimLoop": {
          "type": "byte",
          "value": 1
        },
        "Comment": {
          "type": "cexostring",
          "value": ""
        },
        "Delay": {
          "type": "dword",
          "value": 4294967295
        },
        "Quest": {
          "type": "cexostring",
          "value": ""
        },
        "RepliesList": {
          "type": "list",
          "value": []
        },
        "Script": {
          "type": "resref",
          "value": ""
        },
        "Sound": {
          "type": "resref",
          "value": ""
        },
        "Speaker": {
          "type": "cexostring",
          "value": ""
        },
        "Text": {
          "type": "cexolocstring",
          "value": {
            "0": "The battle is commencing! I'm afraid you've come to late to join it.",
            "10": "Bitwa siê rozpoczê³a! Obawiam siê, ¿e przybywasz za póŸno, aby do niej do³¹czyæ."
          }
        }
      },
      {
        "__struct_id": 7,
        "ActionParams": {
          "type": "list",
          "value": []
        },
        "Animation": {
          "type": "dword",
          "value": 0
        },
        "AnimLoop": {
          "type": "byte",
          "value": 1
        },
        "Comment": {
          "type": "cexostring",
          "value": ""
        },
        "Delay": {
          "type": "dword",
          "value": 4294967295
        },
        "Quest": {
          "type": "cexostring",
          "value": ""
        },
        "RepliesList": {
          "type": "list",
          "value": []
        },
        "Script": {
          "type": "resref",
          "value": ""
        },
        "Sound": {
          "type": "resref",
          "value": ""
        },
        "Speaker": {
          "type": "cexostring",
          "value": ""
        },
        "Text": {
          "type": "cexolocstring",
          "value": {
            "0": "Courage demands respect no matter the outcome. Still, losers leave our arena empty-handed if they are fortunate. Others never leave.",
            "10": "Odwaga zas³uguje na szacunek, bez wzglêdu na wynik walki. Nie zmienia to jednak faktu, ¿e przegrani na naszej arenie, jeœli maj¹ szczêœcie, wychodz¹ z pustymi rêkami. Reszta nie wychodzi nigdy. "
          }
        }
      },
      {
        "__struct_id": 8,
        "ActionParams": {
          "type": "list",
          "value": []
        },
        "Animation": {
          "type": "dword",
          "value": 0
        },
        "AnimLoop": {
          "type": "byte",
          "value": 1
        },
        "Comment": {
          "type": "cexostring",
          "value": ""
        },
        "Delay": {
          "type": "dword",
          "value": 4294967295
        },
        "Quest": {
          "type": "cexostring",
          "value": ""
        },
        "RepliesList": {
          "type": "list",
          "value": [
            {
              "__struct_id": 0,
              "Active": {
                "type": "resref",
                "value": ""
              },
              "ConditionParams": {
                "type": "list",
                "value": []
              },
              "Index": {
                "type": "dword",
                "value": 8
              },
              "IsChild": {
                "type": "byte",
                "value": 0
              }
            }
          ]
        },
        "Script": {
          "type": "resref",
          "value": ""
        },
        "Sound": {
          "type": "resref",
          "value": ""
        },
        "Speaker": {
          "type": "cexostring",
          "value": ""
        },
        "Text": {
          "type": "cexolocstring",
          "value": {
            "0": "Glory to the victor! That battle was worthy of the champion title. Please accept this reward of <CUSTOM1001> gold.",
            "10": "Chwa³a zwyciêzcy! Ta bitwa by³a godna tytu³u mistrza areny. Przyjmij proszê nagrodê <CUSTOM1001> sztuk z³ota."
          }
        }
      },
      {
        "__struct_id": 9,
        "ActionParams": {
          "type": "list",
          "value": []
        },
        "Animation": {
          "type": "dword",
          "value": 0
        },
        "AnimLoop": {
          "type": "byte",
          "value": 1
        },
        "Comment": {
          "type": "cexostring",
          "value": ""
        },
        "Delay": {
          "type": "dword",
          "value": 4294967295
        },
        "Quest": {
          "type": "cexostring",
          "value": ""
        },
        "RepliesList": {
          "type": "list",
          "value": []
        },
        "Script": {
          "type": "resref",
          "value": ""
        },
        "Sound": {
          "type": "resref",
          "value": ""
        },
        "Speaker": {
          "type": "cexostring",
          "value": ""
        },
        "Text": {
          "type": "cexolocstring",
          "value": {
            "0": "Back for more? We won't host any other arena fights in a while, I'm afraid.",
            "10": "Wracasz po wiêcej? Obawiam siê, ¿e w najbli¿szym czasie nie bêdziemy organizowaæ kolejnych walk."
          }
        }
      }
    ]
  },
  "NumWords": {
    "type": "dword",
    "value": 293
  },
  "PreventZoomIn": {
    "type": "byte",
    "value": 0
  },
  "ReplyList": {
    "type": "list",
    "value": [
      {
        "__struct_id": 0,
        "ActionParams": {
          "type": "list",
          "value": []
        },
        "Animation": {
          "type": "dword",
          "value": 0
        },
        "AnimLoop": {
          "type": "byte",
          "value": 1
        },
        "Comment": {
          "type": "cexostring",
          "value": ""
        },
        "Delay": {
          "type": "dword",
          "value": 4294967295
        },
        "EntriesList": {
          "type": "list",
          "value": []
        },
        "Quest": {
          "type": "cexostring",
          "value": ""
        },
        "Script": {
          "type": "resref",
          "value": ""
        },
        "Sound": {
          "type": "resref",
          "value": ""
        },
        "Text": {
          "type": "cexolocstring",
          "value": {
            "0": "Farewell.",
            "10": "Bywaj."
          }
        }
      },
      {
        "__struct_id": 1,
        "ActionParams": {
          "type": "list",
          "value": []
        },
        "Animation": {
          "type": "dword",
          "value": 0
        },
        "AnimLoop": {
          "type": "byte",
          "value": 1
        },
        "Comment": {
          "type": "cexostring",
          "value": ""
        },
        "Delay": {
          "type": "dword",
          "value": 4294967295
        },
        "EntriesList": {
          "type": "list",
          "value": [
            {
              "__struct_id": 0,
              "Active": {
                "type": "resref",
                "value": "con_setcretokens"
              },
              "ConditionParams": {
                "type": "list",
                "value": []
              },
              "Index": {
                "type": "dword",
                "value": 1
              },
              "IsChild": {
                "type": "byte",
                "value": 0
              }
            }
          ]
        },
        "Quest": {
          "type": "cexostring",
          "value": ""
        },
        "Script": {
          "type": "resref",
          "value": ""
        },
        "Sound": {
          "type": "resref",
          "value": ""
        },
        "Text": {
          "type": "cexolocstring",
          "value": {
            "0": "What do you mean?",
            "10": "Co masz na myœli?"
          }
        }
      },
      {
        "__struct_id": 2,
        "ActionParams": {
          "type": "list",
          "value": []
        },
        "Animation": {
          "type": "dword",
          "value": 0
        },
        "AnimLoop": {
          "type": "byte",
          "value": 1
        },
        "Comment": {
          "type": "cexostring",
          "value": ""
        },
        "Delay": {
          "type": "dword",
          "value": 4294967295
        },
        "EntriesList": {
          "type": "list",
          "value": [
            {
              "__struct_id": 0,
              "Active": {
                "type": "resref",
                "value": "con_setcretokens"
              },
              "ConditionParams": {
                "type": "list",
                "value": []
              },
              "Index": {
                "type": "dword",
                "value": 2
              },
              "IsChild": {
                "type": "byte",
                "value": 0
              }
            }
          ]
        },
        "Quest": {
          "type": "cexostring",
          "value": ""
        },
        "Script": {
          "type": "resref",
          "value": ""
        },
        "Sound": {
          "type": "resref",
          "value": ""
        },
        "Text": {
          "type": "cexolocstring",
          "value": {
            "0": "This sounds interesting. What are the rules?",
            "10": "Brzmi interesuj¹co. Jakie s¹ zasady?"
          }
        }
      },
      {
        "__struct_id": 3,
        "ActionParams": {
          "type": "list",
          "value": []
        },
        "Animation": {
          "type": "dword",
          "value": 0
        },
        "AnimLoop": {
          "type": "byte",
          "value": 1
        },
        "Comment": {
          "type": "cexostring",
          "value": ""
        },
        "Delay": {
          "type": "dword",
          "value": 4294967295
        },
        "EntriesList": {
          "type": "list",
          "value": [
            {
              "__struct_id": 0,
              "Active": {
                "type": "resref",
                "value": "con_setcretokens"
              },
              "ConditionParams": {
                "type": "list",
                "value": []
              },
              "Index": {
                "type": "dword",
                "value": 3
              },
              "IsChild": {
                "type": "byte",
                "value": 0
              }
            }
          ]
        },
        "Quest": {
          "type": "cexostring",
          "value": ""
        },
        "Script": {
          "type": "resref",
          "value": ""
        },
        "Sound": {
          "type": "resref",
          "value": ""
        },
        "Text": {
          "type": "cexolocstring",
          "value": {
            "0": ""
          }
        }
      },
      {
        "__struct_id": 4,
        "ActionParams": {
          "type": "list",
          "value": []
        },
        "Animation": {
          "type": "dword",
          "value": 0
        },
        "AnimLoop": {
          "type": "byte",
          "value": 1
        },
        "Comment": {
          "type": "cexostring",
          "value": ""
        },
        "Delay": {
          "type": "dword",
          "value": 4294967295
        },
        "EntriesList": {
          "type": "list",
          "value": [
            {
              "__struct_id": 0,
              "Active": {
                "type": "resref",
                "value": ""
              },
              "ConditionParams": {
                "type": "list",
                "value": []
              },
              "Index": {
                "type": "dword",
                "value": 4
              },
              "IsChild": {
                "type": "byte",
                "value": 0
              }
            }
          ]
        },
        "Quest": {
          "type": "cexostring",
          "value": ""
        },
        "Script": {
          "type": "resref",
          "value": ""
        },
        "Sound": {
          "type": "resref",
          "value": ""
        },
        "Text": {
          "type": "cexolocstring",
          "value": {
            "0": ""
          }
        }
      },
      {
        "__struct_id": 5,
        "ActionParams": {
          "type": "list",
          "value": []
        },
        "Animation": {
          "type": "dword",
          "value": 0
        },
        "AnimLoop": {
          "type": "byte",
          "value": 1
        },
        "Comment": {
          "type": "cexostring",
          "value": ""
        },
        "Delay": {
          "type": "dword",
          "value": 4294967295
        },
        "EntriesList": {
          "type": "list",
          "value": [
            {
              "__struct_id": 0,
              "Active": {
                "type": "resref",
                "value": ""
              },
              "ConditionParams": {
                "type": "list",
                "value": []
              },
              "Index": {
                "type": "dword",
                "value": 5
              },
              "IsChild": {
                "type": "byte",
                "value": 0
              }
            }
          ]
        },
        "Quest": {
          "type": "cexostring",
          "value": ""
        },
        "Script": {
          "type": "resref",
          "value": ""
        },
        "Sound": {
          "type": "resref",
          "value": ""
        },
        "Text": {
          "type": "cexolocstring",
          "value": {
            "0": "This is interesting. Make way for the new champion of the arena!",
            "10": "Brzmi ciekawie. Prostujcie œcie¿ki dla nowego czempiona areny!"
          }
        }
      },
      {
        "__struct_id": 6,
        "ActionParams": {
          "type": "list",
          "value": []
        },
        "Animation": {
          "type": "dword",
          "value": 0
        },
        "AnimLoop": {
          "type": "byte",
          "value": 1
        },
        "Comment": {
          "type": "cexostring",
          "value": ""
        },
        "Delay": {
          "type": "dword",
          "value": 4294967295
        },
        "EntriesList": {
          "type": "list",
          "value": []
        },
        "Quest": {
          "type": "cexostring",
          "value": ""
        },
        "Script": {
          "type": "resref",
          "value": ""
        },
        "Sound": {
          "type": "resref",
          "value": ""
        },
        "Text": {
          "type": "cexolocstring",
          "value": {
            "0": "I need to give it some thought.",
            "10": "Muszê siê nad tym zastanowiæ."
          }
        }
      },
      {
        "__struct_id": 7,
        "ActionParams": {
          "type": "list",
          "value": []
        },
        "Animation": {
          "type": "dword",
          "value": 0
        },
        "AnimLoop": {
          "type": "byte",
          "value": 1
        },
        "Comment": {
          "type": "cexostring",
          "value": ""
        },
        "Delay": {
          "type": "dword",
          "value": 4294967295
        },
        "EntriesList": {
          "type": "list",
          "value": []
        },
        "Quest": {
          "type": "cexostring",
          "value": ""
        },
        "Script": {
          "type": "resref",
          "value": "cnv_arn_start"
        },
        "Sound": {
          "type": "resref",
          "value": ""
        },
        "Text": {
          "type": "cexolocstring",
          "value": {
            "0": "Yes, let's begin!",
            "10": "Tak, zaczynajmy!"
          }
        }
      },
      {
        "__struct_id": 8,
        "ActionParams": {
          "type": "list",
          "value": []
        },
        "Animation": {
          "type": "dword",
          "value": 0
        },
        "AnimLoop": {
          "type": "byte",
          "value": 1
        },
        "Comment": {
          "type": "cexostring",
          "value": ""
        },
        "Delay": {
          "type": "dword",
          "value": 4294967295
        },
        "EntriesList": {
          "type": "list",
          "value": []
        },
        "Quest": {
          "type": "cexostring",
          "value": ""
        },
        "Script": {
          "type": "resref",
          "value": "cnv_arn_getrewar"
        },
        "Sound": {
          "type": "resref",
          "value": ""
        },
        "Text": {
          "type": "cexolocstring",
          "value": {
            "0": "Thank you.",
            "10": "Dziêkujê."
          }
        }
      }
    ]
  },
  "StartingList": {
    "type": "list",
    "value": [
      {
        "__struct_id": 0,
        "Active": {
          "type": "resref",
          "value": "con_arn_gotrewar"
        },
        "ConditionParams": {
          "type": "list",
          "value": []
        },
        "Index": {
          "type": "dword",
          "value": 9
        }
      },
      {
        "__struct_id": 1,
        "Active": {
          "type": "resref",
          "value": "con_arn_victory"
        },
        "ConditionParams": {
          "type": "list",
          "value": []
        },
        "Index": {
          "type": "dword",
          "value": 8
        }
      },
      {
        "__struct_id": 2,
        "Active": {
          "type": "resref",
          "value": "con_arn_loss"
        },
        "ConditionParams": {
          "type": "list",
          "value": []
        },
        "Index": {
          "type": "dword",
          "value": 7
        }
      },
      {
        "__struct_id": 3,
        "Active": {
          "type": "resref",
          "value": "con_arn_inprogre"
        },
        "ConditionParams": {
          "type": "list",
          "value": []
        },
        "Index": {
          "type": "dword",
          "value": 6
        }
      },
      {
        "__struct_id": 4,
        "Active": {
          "type": "resref",
          "value": ""
        },
        "ConditionParams": {
          "type": "list",
          "value": []
        },
        "Index": {
          "type": "dword",
          "value": 0
        }
      }
    ]
  }
}
