{
  "__data_type": "GIT ",
  "AreaProperties": {
    "__struct_id": 100,
    "type": "struct",
    "value": {
      "__struct_id": 100,
      "AmbientSndDay": {
        "type": "int",
        "value": 49
      },
      "AmbientSndDayVol": {
        "type": "int",
        "value": 32
      },
      "AmbientSndNight": {
        "type": "int",
        "value": 53
      },
      "AmbientSndNitVol": {
        "type": "int",
        "value": 33
      },
      "EnvAudio": {
        "type": "int",
        "value": 15
      },
      "MusicBattle": {
        "type": "int",
        "value": 0
      },
      "MusicDay": {
        "type": "int",
        "value": 0
      },
      "MusicDelay": {
        "type": "int",
        "value": 0
      },
      "MusicNight": {
        "type": "int",
        "value": 0
      }
    }
  },
  "Creature List": {
    "type": "list",
    "value": []
  },
  "Door List": {
    "type": "list",
    "value": []
  },
  "Encounter List": {
    "type": "list",
    "value": []
  },
  "List": {
    "type": "list",
    "value": []
  },
  "Placeable List": {
    "type": "list",
    "value": []
  },
  "SoundList": {
    "type": "list",
    "value": []
  },
  "StoreList": {
    "type": "list",
    "value": []
  },
  "TriggerList": {
    "type": "list",
    "value": [
      {
        "__struct_id": 1,
        "AutoRemoveKey": {
          "type": "byte",
          "value": 0
        },
        "Cursor": {
          "type": "byte",
          "value": 1
        },
        "DisarmDC": {
          "type": "byte",
          "value": 10
        },
        "Faction": {
          "type": "dword",
          "value": 1
        },
        "Geometry": {
          "type": "list",
          "value": [
            {
              "__struct_id": 3,
              "PointX": {
                "type": "float",
                "value": -1.868
              },
              "PointY": {
                "type": "float",
                "value": -5.0837
              },
              "PointZ": {
                "type": "float",
                "value": 5.025
              }
            },
            {
              "__struct_id": 3,
              "PointX": {
                "type": "float",
                "value": -0.0327
              },
              "PointY": {
                "type": "float",
                "value": -5.1619
              },
              "PointZ": {
                "type": "float",
                "value": 5.025
              }
            },
            {
              "__struct_id": 3,
              "PointX": {
                "type": "float",
                "value": 0.0
              },
              "PointY": {
                "type": "float",
                "value": 0.0
              },
              "PointZ": {
                "type": "float",
                "value": 5.025
              }
            },
            {
              "__struct_id": 3,
              "PointX": {
                "type": "float",
                "value": -1.7996
              },
              "PointY": {
                "type": "float",
                "value": 0.0723
              },
              "PointZ": {
                "type": "float",
                "value": 5.025
              }
            }
          ]
        },
        "HighlightHeight": {
          "type": "float",
          "value": 3.0
        },
        "KeyName": {
          "type": "cexostring",
          "value": ""
        },
        "LinkedTo": {
          "type": "cexostring",
          "value": ""
        },
        "LinkedToFlags": {
          "type": "byte",
          "value": 0
        },
        "LoadScreenID": {
          "type": "word",
          "value": 0
        },
        "LocalizedName": {
          "type": "cexolocstring",
          "value": {
            "0": "Area Transition - East"
          }
        },
        "OnClick": {
          "type": "resref",
          "value": "tri_tilechange"
        },
        "OnDisarm": {
          "type": "resref",
          "value": ""
        },
        "OnTrapTriggered": {
          "type": "resref",
          "value": ""
        },
        "PortraitId": {
          "type": "word",
          "value": 0
        },
        "ScriptHeartbeat": {
          "type": "resref",
          "value": ""
        },
        "ScriptOnEnter": {
          "type": "resref",
          "value": "tri_tilechange"
        },
        "ScriptOnExit": {
          "type": "resref",
          "value": ""
        },
        "ScriptUserDefine": {
          "type": "resref",
          "value": ""
        },
        "Tag": {
          "type": "cexostring",
          "value": "tri_go_east"
        },
        "TemplateResRef": {
          "type": "resref",
          "value": "tri_go_east"
        },
        "TrapDetectable": {
          "type": "byte",
          "value": 1
        },
        "TrapDetectDC": {
          "type": "byte",
          "value": 10
        },
        "TrapDisarmable": {
          "type": "byte",
          "value": 1
        },
        "TrapFlag": {
          "type": "byte",
          "value": 0
        },
        "TrapOneShot": {
          "type": "byte",
          "value": 1
        },
        "TrapType": {
          "type": "byte",
          "value": 0
        },
        "Type": {
          "type": "int",
          "value": 1
        },
        "VarTable": {
          "type": "list",
          "value": [
            {
              "__struct_id": 0,
              "Name": {
                "type": "cexostring",
                "value": "TRANSITION_DIRECTION"
              },
              "Type": {
                "type": "dword",
                "value": 1
              },
              "Value": {
                "type": "int",
                "value": 2
              }
            }
          ]
        },
        "XOrientation": {
          "type": "float",
          "value": 0.0
        },
        "XPosition": {
          "type": "float",
          "value": 79.90089999999999
        },
        "YOrientation": {
          "type": "float",
          "value": 0.0
        },
        "YPosition": {
          "type": "float",
          "value": 37.5333
        },
        "ZOrientation": {
          "type": "float",
          "value": 0.0
        },
        "ZPosition": {
          "type": "float",
          "value": 0.0
        }
      },
      {
        "__struct_id": 1,
        "AutoRemoveKey": {
          "type": "byte",
          "value": 0
        },
        "Cursor": {
          "type": "byte",
          "value": 1
        },
        "DisarmDC": {
          "type": "byte",
          "value": 10
        },
        "Faction": {
          "type": "dword",
          "value": 1
        },
        "Geometry": {
          "type": "list",
          "value": [
            {
              "__struct_id": 3,
              "PointX": {
                "type": "float",
                "value": 0.0
              },
              "PointY": {
                "type": "float",
                "value": 0.0
              },
              "PointZ": {
                "type": "float",
                "value": 5.025
              }
            },
            {
              "__struct_id": 3,
              "PointX": {
                "type": "float",
                "value": 1.3141
              },
              "PointY": {
                "type": "float",
                "value": -0.029
              },
              "PointZ": {
                "type": "float",
                "value": 5.025
              }
            },
            {
              "__struct_id": 3,
              "PointX": {
                "type": "float",
                "value": 1.3194
              },
              "PointY": {
                "type": "float",
                "value": 5.0134
              },
              "PointZ": {
                "type": "float",
                "value": 5.0278
              }
            },
            {
              "__struct_id": 3,
              "PointX": {
                "type": "float",
                "value": 0.08359999999999999
              },
              "PointY": {
                "type": "float",
                "value": 5.0187
              },
              "PointZ": {
                "type": "float",
                "value": 5.025
              }
            }
          ]
        },
        "HighlightHeight": {
          "type": "float",
          "value": 3.0
        },
        "KeyName": {
          "type": "cexostring",
          "value": ""
        },
        "LinkedTo": {
          "type": "cexostring",
          "value": ""
        },
        "LinkedToFlags": {
          "type": "byte",
          "value": 0
        },
        "LoadScreenID": {
          "type": "word",
          "value": 0
        },
        "LocalizedName": {
          "type": "cexolocstring",
          "value": {
            "0": "Area Transition - West"
          }
        },
        "OnClick": {
          "type": "resref",
          "value": "tri_tilechange"
        },
        "OnDisarm": {
          "type": "resref",
          "value": ""
        },
        "OnTrapTriggered": {
          "type": "resref",
          "value": ""
        },
        "PortraitId": {
          "type": "word",
          "value": 0
        },
        "ScriptHeartbeat": {
          "type": "resref",
          "value": ""
        },
        "ScriptOnEnter": {
          "type": "resref",
          "value": "tri_tilechange"
        },
        "ScriptOnExit": {
          "type": "resref",
          "value": ""
        },
        "ScriptUserDefine": {
          "type": "resref",
          "value": ""
        },
        "Tag": {
          "type": "cexostring",
          "value": "tri_go_west"
        },
        "TemplateResRef": {
          "type": "resref",
          "value": "tri_go_west"
        },
        "TrapDetectable": {
          "type": "byte",
          "value": 1
        },
        "TrapDetectDC": {
          "type": "byte",
          "value": 10
        },
        "TrapDisarmable": {
          "type": "byte",
          "value": 1
        },
        "TrapFlag": {
          "type": "byte",
          "value": 0
        },
        "TrapOneShot": {
          "type": "byte",
          "value": 1
        },
        "TrapType": {
          "type": "byte",
          "value": 0
        },
        "Type": {
          "type": "int",
          "value": 1
        },
        "VarTable": {
          "type": "list",
          "value": [
            {
              "__struct_id": 0,
              "Name": {
                "type": "cexostring",
                "value": "TRANSITION_DIRECTION"
              },
              "Type": {
                "type": "dword",
                "value": 1
              },
              "Value": {
                "type": "int",
                "value": 8
              }
            }
          ]
        },
        "XOrientation": {
          "type": "float",
          "value": 0.0
        },
        "XPosition": {
          "type": "float",
          "value": 0.0774
        },
        "YOrientation": {
          "type": "float",
          "value": 0.0
        },
        "YPosition": {
          "type": "float",
          "value": 22.685
        },
        "ZOrientation": {
          "type": "float",
          "value": 0.0
        },
        "ZPosition": {
          "type": "float",
          "value": 0.0
        }
      },
      {
        "__struct_id": 1,
        "AutoRemoveKey": {
          "type": "byte",
          "value": 0
        },
        "Cursor": {
          "type": "byte",
          "value": 1
        },
        "DisarmDC": {
          "type": "byte",
          "value": 10
        },
        "Faction": {
          "type": "dword",
          "value": 1
        },
        "Geometry": {
          "type": "list",
          "value": [
            {
              "__struct_id": 3,
              "PointX": {
                "type": "float",
                "value": 0.0
              },
              "PointY": {
                "type": "float",
                "value": 0.0
              },
              "PointZ": {
                "type": "float",
                "value": 5.015
              }
            },
            {
              "__struct_id": 3,
              "PointX": {
                "type": "float",
                "value": 0.0601
              },
              "PointY": {
                "type": "float",
                "value": -1.3095
              },
              "PointZ": {
                "type": "float",
                "value": 5.015
              }
            },
            {
              "__struct_id": 3,
              "PointX": {
                "type": "float",
                "value": 4.8955
              },
              "PointY": {
                "type": "float",
                "value": -1.4247
              },
              "PointZ": {
                "type": "float",
                "value": 5.0199
              }
            },
            {
              "__struct_id": 3,
              "PointX": {
                "type": "float",
                "value": 4.8411
              },
              "PointY": {
                "type": "float",
                "value": 0.0067
              },
              "PointZ": {
                "type": "float",
                "value": 5.0174
              }
            }
          ]
        },
        "HighlightHeight": {
          "type": "float",
          "value": 3.0
        },
        "KeyName": {
          "type": "cexostring",
          "value": ""
        },
        "LinkedTo": {
          "type": "cexostring",
          "value": ""
        },
        "LinkedToFlags": {
          "type": "byte",
          "value": 2
        },
        "LoadScreenID": {
          "type": "word",
          "value": 0
        },
        "LocalizedName": {
          "type": "cexolocstring",
          "value": {
            "0": "Area Transition - North"
          }
        },
        "OnClick": {
          "type": "resref",
          "value": "tri_tilechange"
        },
        "OnDisarm": {
          "type": "resref",
          "value": ""
        },
        "OnTrapTriggered": {
          "type": "resref",
          "value": ""
        },
        "PortraitId": {
          "type": "word",
          "value": 0
        },
        "ScriptHeartbeat": {
          "type": "resref",
          "value": ""
        },
        "ScriptOnEnter": {
          "type": "resref",
          "value": "tri_tilechange"
        },
        "ScriptOnExit": {
          "type": "resref",
          "value": ""
        },
        "ScriptUserDefine": {
          "type": "resref",
          "value": ""
        },
        "Tag": {
          "type": "cexostring",
          "value": "tri_go_north"
        },
        "TemplateResRef": {
          "type": "resref",
          "value": "tri_go_north"
        },
        "TrapDetectable": {
          "type": "byte",
          "value": 1
        },
        "TrapDetectDC": {
          "type": "byte",
          "value": 10
        },
        "TrapDisarmable": {
          "type": "byte",
          "value": 1
        },
        "TrapFlag": {
          "type": "byte",
          "value": 0
        },
        "TrapOneShot": {
          "type": "byte",
          "value": 1
        },
        "TrapType": {
          "type": "byte",
          "value": 0
        },
        "Type": {
          "type": "int",
          "value": 1
        },
        "VarTable": {
          "type": "list",
          "value": [
            {
              "__struct_id": 0,
              "Name": {
                "type": "cexostring",
                "value": "TRANSITION_DIRECTION"
              },
              "Type": {
                "type": "dword",
                "value": 1
              },
              "Value": {
                "type": "int",
                "value": 1
              }
            }
          ]
        },
        "XOrientation": {
          "type": "float",
          "value": 0.0
        },
        "XPosition": {
          "type": "float",
          "value": 42.599
        },
        "YOrientation": {
          "type": "float",
          "value": 0.0
        },
        "YPosition": {
          "type": "float",
          "value": 79.8681
        },
        "ZOrientation": {
          "type": "float",
          "value": 0.0
        },
        "ZPosition": {
          "type": "float",
          "value": 0.0
        }
      }
    ]
  },
  "WaypointList": {
    "type": "list",
    "value": [
      {
        "__struct_id": 5,
        "Appearance": {
          "type": "byte",
          "value": 2
        },
        "Description": {
          "type": "cexolocstring",
          "value": {}
        },
        "HasMapNote": {
          "type": "byte",
          "value": 0
        },
        "LinkedTo": {
          "type": "cexostring",
          "value": ""
        },
        "LocalizedName": {
          "type": "cexolocstring",
          "value": {
            "0": "Encounter - north east"
          }
        },
        "MapNote": {
          "type": "cexolocstring",
          "value": {}
        },
        "MapNoteEnabled": {
          "type": "byte",
          "value": 0
        },
        "Tag": {
          "type": "cexostring",
          "value": "wp_encounter_ne"
        },
        "TemplateResRef": {
          "type": "resref",
          "value": "wp_encounter_ne"
        },
        "XOrientation": {
          "type": "float",
          "value": 0.0
        },
        "XPosition": {
          "type": "float",
          "value": 50.0
        },
        "YOrientation": {
          "type": "float",
          "value": 1.0
        },
        "YPosition": {
          "type": "float",
          "value": 45.0
        },
        "ZPosition": {
          "type": "float",
          "value": 5.0
        }
      },
      {
        "__struct_id": 5,
        "Appearance": {
          "type": "byte",
          "value": 2
        },
        "Description": {
          "type": "cexolocstring",
          "value": {}
        },
        "HasMapNote": {
          "type": "byte",
          "value": 0
        },
        "LinkedTo": {
          "type": "cexostring",
          "value": ""
        },
        "LocalizedName": {
          "type": "cexolocstring",
          "value": {
            "0": "Encounter - south east"
          }
        },
        "MapNote": {
          "type": "cexolocstring",
          "value": {}
        },
        "MapNoteEnabled": {
          "type": "byte",
          "value": 0
        },
        "Tag": {
          "type": "cexostring",
          "value": "wp_encounter_se"
        },
        "TemplateResRef": {
          "type": "resref",
          "value": "wp_encounter_se"
        },
        "XOrientation": {
          "type": "float",
          "value": 0.0
        },
        "XPosition": {
          "type": "float",
          "value": 50.0
        },
        "YOrientation": {
          "type": "float",
          "value": 1.0
        },
        "YPosition": {
          "type": "float",
          "value": 33.0
        },
        "ZPosition": {
          "type": "float",
          "value": 5.0
        }
      },
      {
        "__struct_id": 5,
        "Appearance": {
          "type": "byte",
          "value": 2
        },
        "Description": {
          "type": "cexolocstring",
          "value": {}
        },
        "HasMapNote": {
          "type": "byte",
          "value": 0
        },
        "LinkedTo": {
          "type": "cexostring",
          "value": ""
        },
        "LocalizedName": {
          "type": "cexolocstring",
          "value": {
            "0": "Encounter - south west"
          }
        },
        "MapNote": {
          "type": "cexolocstring",
          "value": {}
        },
        "MapNoteEnabled": {
          "type": "byte",
          "value": 0
        },
        "Tag": {
          "type": "cexostring",
          "value": "wp_encounter_sw"
        },
        "TemplateResRef": {
          "type": "resref",
          "value": "wp_encounter_sw"
        },
        "XOrientation": {
          "type": "float",
          "value": 0.0
        },
        "XPosition": {
          "type": "float",
          "value": 38.0
        },
        "YOrientation": {
          "type": "float",
          "value": 1.0
        },
        "YPosition": {
          "type": "float",
          "value": 33.0
        },
        "ZPosition": {
          "type": "float",
          "value": 5.0
        }
      },
      {
        "__struct_id": 5,
        "Appearance": {
          "type": "byte",
          "value": 2
        },
        "Description": {
          "type": "cexolocstring",
          "value": {}
        },
        "HasMapNote": {
          "type": "byte",
          "value": 0
        },
        "LinkedTo": {
          "type": "cexostring",
          "value": ""
        },
        "LocalizedName": {
          "type": "cexolocstring",
          "value": {
            "0": "Encounter - north west"
          }
        },
        "MapNote": {
          "type": "cexolocstring",
          "value": {}
        },
        "MapNoteEnabled": {
          "type": "byte",
          "value": 0
        },
        "Tag": {
          "type": "cexostring",
          "value": "wp_encounter_nw"
        },
        "TemplateResRef": {
          "type": "resref",
          "value": "wp_encounter_nw"
        },
        "XOrientation": {
          "type": "float",
          "value": 0.0
        },
        "XPosition": {
          "type": "float",
          "value": 38.0
        },
        "YOrientation": {
          "type": "float",
          "value": 1.0
        },
        "YPosition": {
          "type": "float",
          "value": 45.0
        },
        "ZPosition": {
          "type": "float",
          "value": 5.29
        }
      },
      {
        "__struct_id": 5,
        "Appearance": {
          "type": "byte",
          "value": 1
        },
        "Description": {
          "type": "cexolocstring",
          "value": {}
        },
        "HasMapNote": {
          "type": "byte",
          "value": 1
        },
        "LinkedTo": {
          "type": "cexostring",
          "value": ""
        },
        "LocalizedName": {
          "type": "cexolocstring",
          "value": {
            "0": "Tile Exit - East"
          }
        },
        "MapNote": {
          "type": "cexolocstring",
          "value": {
            "0": "Exit - east",
            "10": "Wyjœcie - wschód"
          }
        },
        "MapNoteEnabled": {
          "type": "byte",
          "value": 1
        },
        "Tag": {
          "type": "cexostring",
          "value": "wp_east"
        },
        "TemplateResRef": {
          "type": "resref",
          "value": "wp_east"
        },
        "XOrientation": {
          "type": "float",
          "value": -1.0
        },
        "XPosition": {
          "type": "float",
          "value": 76.15689999999999
        },
        "YOrientation": {
          "type": "float",
          "value": 0.0
        },
        "YPosition": {
          "type": "float",
          "value": 34.8577
        },
        "ZPosition": {
          "type": "float",
          "value": 5.01
        }
      },
      {
        "__struct_id": 5,
        "Appearance": {
          "type": "byte",
          "value": 1
        },
        "Description": {
          "type": "cexolocstring",
          "value": {}
        },
        "HasMapNote": {
          "type": "byte",
          "value": 1
        },
        "LinkedTo": {
          "type": "cexostring",
          "value": ""
        },
        "LocalizedName": {
          "type": "cexolocstring",
          "value": {
            "0": "Tile Exit - North"
          }
        },
        "MapNote": {
          "type": "cexolocstring",
          "value": {
            "0": "Exit - north",
            "10": "Wyjœcie - pó³noc"
          }
        },
        "MapNoteEnabled": {
          "type": "byte",
          "value": 1
        },
        "Tag": {
          "type": "cexostring",
          "value": "wp_north"
        },
        "TemplateResRef": {
          "type": "resref",
          "value": "wp_north"
        },
        "XOrientation": {
          "type": "float",
          "value": 0.0
        },
        "XPosition": {
          "type": "float",
          "value": 45.2193
        },
        "YOrientation": {
          "type": "float",
          "value": -1.0
        },
        "YPosition": {
          "type": "float",
          "value": 76.715
        },
        "ZPosition": {
          "type": "float",
          "value": 4.8416
        }
      },
      {
        "__struct_id": 5,
        "Appearance": {
          "type": "byte",
          "value": 1
        },
        "Description": {
          "type": "cexolocstring",
          "value": {}
        },
        "HasMapNote": {
          "type": "byte",
          "value": 1
        },
        "LinkedTo": {
          "type": "cexostring",
          "value": ""
        },
        "LocalizedName": {
          "type": "cexolocstring",
          "value": {
            "0": "Tile Exit - West"
          }
        },
        "MapNote": {
          "type": "cexolocstring",
          "value": {
            "0": "Exit - west",
            "10": "Wyjœcie - zachód"
          }
        },
        "MapNoteEnabled": {
          "type": "byte",
          "value": 1
        },
        "Tag": {
          "type": "cexostring",
          "value": "wp_west"
        },
        "TemplateResRef": {
          "type": "resref",
          "value": "wp_west"
        },
        "XOrientation": {
          "type": "float",
          "value": 1.0
        },
        "XPosition": {
          "type": "float",
          "value": 3.2587
        },
        "YOrientation": {
          "type": "float",
          "value": 0.0
        },
        "YPosition": {
          "type": "float",
          "value": 25.2299
        },
        "ZPosition": {
          "type": "float",
          "value": 4.691
        }
      },
      {
        "__struct_id": 5,
        "Appearance": {
          "type": "byte",
          "value": 3
        },
        "Description": {
          "type": "cexolocstring",
          "value": {}
        },
        "HasMapNote": {
          "type": "byte",
          "value": 0
        },
        "LinkedTo": {
          "type": "cexostring",
          "value": ""
        },
        "LocalizedName": {
          "type": "cexolocstring",
          "value": {
            "0": "Overworld Resource"
          }
        },
        "MapNote": {
          "type": "cexolocstring",
          "value": {}
        },
        "MapNoteEnabled": {
          "type": "byte",
          "value": 0
        },
        "Tag": {
          "type": "cexostring",
          "value": "wp_worldres"
        },
        "TemplateResRef": {
          "type": "resref",
          "value": "wp_worldres"
        },
        "XOrientation": {
          "type": "float",
          "value": 0.0
        },
        "XPosition": {
          "type": "float",
          "value": 28.517
        },
        "YOrientation": {
          "type": "float",
          "value": 1.0
        },
        "YPosition": {
          "type": "float",
          "value": 53.6177
        },
        "ZPosition": {
          "type": "float",
          "value": 10.0
        }
      },
      {
        "__struct_id": 5,
        "Appearance": {
          "type": "byte",
          "value": 3
        },
        "Description": {
          "type": "cexolocstring",
          "value": {}
        },
        "HasMapNote": {
          "type": "byte",
          "value": 0
        },
        "LinkedTo": {
          "type": "cexostring",
          "value": ""
        },
        "LocalizedName": {
          "type": "cexolocstring",
          "value": {
            "0": "Overworld Resource"
          }
        },
        "MapNote": {
          "type": "cexolocstring",
          "value": {}
        },
        "MapNoteEnabled": {
          "type": "byte",
          "value": 0
        },
        "Tag": {
          "type": "cexostring",
          "value": "wp_worldres"
        },
        "TemplateResRef": {
          "type": "resref",
          "value": "wp_worldres"
        },
        "XOrientation": {
          "type": "float",
          "value": 0.0
        },
        "XPosition": {
          "type": "float",
          "value": 17.432
        },
        "YOrientation": {
          "type": "float",
          "value": 1.0
        },
        "YPosition": {
          "type": "float",
          "value": 9.276899999999999
        },
        "ZPosition": {
          "type": "float",
          "value": 5.01
        }
      },
      {
        "__struct_id": 5,
        "Appearance": {
          "type": "byte",
          "value": 3
        },
        "Description": {
          "type": "cexolocstring",
          "value": {}
        },
        "HasMapNote": {
          "type": "byte",
          "value": 0
        },
        "LinkedTo": {
          "type": "cexostring",
          "value": ""
        },
        "LocalizedName": {
          "type": "cexolocstring",
          "value": {
            "0": "Overworld Resource"
          }
        },
        "MapNote": {
          "type": "cexolocstring",
          "value": {}
        },
        "MapNoteEnabled": {
          "type": "byte",
          "value": 0
        },
        "Tag": {
          "type": "cexostring",
          "value": "wp_worldres"
        },
        "TemplateResRef": {
          "type": "resref",
          "value": "wp_worldres"
        },
        "XOrientation": {
          "type": "float",
          "value": 0.0
        },
        "XPosition": {
          "type": "float",
          "value": 53.0032
        },
        "YOrientation": {
          "type": "float",
          "value": 1.0
        },
        "YPosition": {
          "type": "float",
          "value": 9.545999999999999
        },
        "ZPosition": {
          "type": "float",
          "value": 5.01
        }
      },
      {
        "__struct_id": 5,
        "Appearance": {
          "type": "byte",
          "value": 3
        },
        "Description": {
          "type": "cexolocstring",
          "value": {}
        },
        "HasMapNote": {
          "type": "byte",
          "value": 0
        },
        "LinkedTo": {
          "type": "cexostring",
          "value": ""
        },
        "LocalizedName": {
          "type": "cexolocstring",
          "value": {
            "0": "Overworld Resource"
          }
        },
        "MapNote": {
          "type": "cexolocstring",
          "value": {}
        },
        "MapNoteEnabled": {
          "type": "byte",
          "value": 0
        },
        "Tag": {
          "type": "cexostring",
          "value": "wp_worldres"
        },
        "TemplateResRef": {
          "type": "resref",
          "value": "wp_worldres"
        },
        "XOrientation": {
          "type": "float",
          "value": 0.0
        },
        "XPosition": {
          "type": "float",
          "value": 19.42
        },
        "YOrientation": {
          "type": "float",
          "value": 1.0
        },
        "YPosition": {
          "type": "float",
          "value": 42.1447
        },
        "ZPosition": {
          "type": "float",
          "value": 5.01
        }
      },
      {
        "__struct_id": 5,
        "Appearance": {
          "type": "byte",
          "value": 3
        },
        "Description": {
          "type": "cexolocstring",
          "value": {}
        },
        "HasMapNote": {
          "type": "byte",
          "value": 0
        },
        "LinkedTo": {
          "type": "cexostring",
          "value": ""
        },
        "LocalizedName": {
          "type": "cexolocstring",
          "value": {
            "0": "Overworld Resource"
          }
        },
        "MapNote": {
          "type": "cexolocstring",
          "value": {}
        },
        "MapNoteEnabled": {
          "type": "byte",
          "value": 0
        },
        "Tag": {
          "type": "cexostring",
          "value": "wp_worldres"
        },
        "TemplateResRef": {
          "type": "resref",
          "value": "wp_worldres"
        },
        "XOrientation": {
          "type": "float",
          "value": 0.0
        },
        "XPosition": {
          "type": "float",
          "value": 62.1495
        },
        "YOrientation": {
          "type": "float",
          "value": 1.0
        },
        "YPosition": {
          "type": "float",
          "value": 62.7466
        },
        "ZPosition": {
          "type": "float",
          "value": 5.01
        }
      },
      {
        "__struct_id": 5,
        "Appearance": {
          "type": "byte",
          "value": 3
        },
        "Description": {
          "type": "cexolocstring",
          "value": {}
        },
        "HasMapNote": {
          "type": "byte",
          "value": 0
        },
        "LinkedTo": {
          "type": "cexostring",
          "value": ""
        },
        "LocalizedName": {
          "type": "cexolocstring",
          "value": {
            "0": "Overworld Resource"
          }
        },
        "MapNote": {
          "type": "cexolocstring",
          "value": {}
        },
        "MapNoteEnabled": {
          "type": "byte",
          "value": 0
        },
        "Tag": {
          "type": "cexostring",
          "value": "wp_worldres"
        },
        "TemplateResRef": {
          "type": "resref",
          "value": "wp_worldres"
        },
        "XOrientation": {
          "type": "float",
          "value": 0.0
        },
        "XPosition": {
          "type": "float",
          "value": 72.6932
        },
        "YOrientation": {
          "type": "float",
          "value": 1.0
        },
        "YPosition": {
          "type": "float",
          "value": 18.4168
        },
        "ZPosition": {
          "type": "float",
          "value": 5.01
        }
      },
      {
        "__struct_id": 5,
        "Appearance": {
          "type": "byte",
          "value": 3
        },
        "Description": {
          "type": "cexolocstring",
          "value": {}
        },
        "HasMapNote": {
          "type": "byte",
          "value": 0
        },
        "LinkedTo": {
          "type": "cexostring",
          "value": ""
        },
        "LocalizedName": {
          "type": "cexolocstring",
          "value": {
            "0": "Overworld Resource"
          }
        },
        "MapNote": {
          "type": "cexolocstring",
          "value": {}
        },
        "MapNoteEnabled": {
          "type": "byte",
          "value": 0
        },
        "Tag": {
          "type": "cexostring",
          "value": "wp_worldres"
        },
        "TemplateResRef": {
          "type": "resref",
          "value": "wp_worldres"
        },
        "XOrientation": {
          "type": "float",
          "value": 0.0
        },
        "XPosition": {
          "type": "float",
          "value": 73.5213
        },
        "YOrientation": {
          "type": "float",
          "value": 1.0
        },
        "YPosition": {
          "type": "float",
          "value": 49.4312
        },
        "ZPosition": {
          "type": "float",
          "value": 5.0
        }
      },
      {
        "__struct_id": 5,
        "Appearance": {
          "type": "byte",
          "value": 3
        },
        "Description": {
          "type": "cexolocstring",
          "value": {}
        },
        "HasMapNote": {
          "type": "byte",
          "value": 0
        },
        "LinkedTo": {
          "type": "cexostring",
          "value": ""
        },
        "LocalizedName": {
          "type": "cexolocstring",
          "value": {
            "0": "Overworld Resource"
          }
        },
        "MapNote": {
          "type": "cexolocstring",
          "value": {}
        },
        "MapNoteEnabled": {
          "type": "byte",
          "value": 0
        },
        "Tag": {
          "type": "cexostring",
          "value": "wp_worldres"
        },
        "TemplateResRef": {
          "type": "resref",
          "value": "wp_worldres"
        },
        "XOrientation": {
          "type": "float",
          "value": 0.0
        },
        "XPosition": {
          "type": "float",
          "value": 9.686199999999999
        },
        "YOrientation": {
          "type": "float",
          "value": 1.0
        },
        "YPosition": {
          "type": "float",
          "value": 17.2164
        },
        "ZPosition": {
          "type": "float",
          "value": 5.01
        }
      },
      {
        "__struct_id": 5,
        "Appearance": {
          "type": "byte",
          "value": 3
        },
        "Description": {
          "type": "cexolocstring",
          "value": {}
        },
        "HasMapNote": {
          "type": "byte",
          "value": 0
        },
        "LinkedTo": {
          "type": "cexostring",
          "value": ""
        },
        "LocalizedName": {
          "type": "cexolocstring",
          "value": {
            "0": "Overworld Resource"
          }
        },
        "MapNote": {
          "type": "cexolocstring",
          "value": {}
        },
        "MapNoteEnabled": {
          "type": "byte",
          "value": 0
        },
        "Tag": {
          "type": "cexostring",
          "value": "wp_worldres"
        },
        "TemplateResRef": {
          "type": "resref",
          "value": "wp_worldres"
        },
        "XOrientation": {
          "type": "float",
          "value": 0.0
        },
        "XPosition": {
          "type": "float",
          "value": 34.5522
        },
        "YOrientation": {
          "type": "float",
          "value": 1.0
        },
        "YPosition": {
          "type": "float",
          "value": 39.1009
        },
        "ZPosition": {
          "type": "float",
          "value": 5.0
        }
      },
      {
        "__struct_id": 5,
        "Appearance": {
          "type": "byte",
          "value": 3
        },
        "Description": {
          "type": "cexolocstring",
          "value": {}
        },
        "HasMapNote": {
          "type": "byte",
          "value": 0
        },
        "LinkedTo": {
          "type": "cexostring",
          "value": ""
        },
        "LocalizedName": {
          "type": "cexolocstring",
          "value": {
            "0": "Overworld Resource"
          }
        },
        "MapNote": {
          "type": "cexolocstring",
          "value": {}
        },
        "MapNoteEnabled": {
          "type": "byte",
          "value": 0
        },
        "Tag": {
          "type": "cexostring",
          "value": "wp_worldres"
        },
        "TemplateResRef": {
          "type": "resref",
          "value": "wp_worldres"
        },
        "XOrientation": {
          "type": "float",
          "value": 0.0
        },
        "XPosition": {
          "type": "float",
          "value": 58.7296
        },
        "YOrientation": {
          "type": "float",
          "value": 1.0
        },
        "YPosition": {
          "type": "float",
          "value": 26.6116
        },
        "ZPosition": {
          "type": "float",
          "value": 5.01
        }
      },
      {
        "__struct_id": 5,
        "Appearance": {
          "type": "byte",
          "value": 4
        },
        "Description": {
          "type": "cexolocstring",
          "value": {}
        },
        "HasMapNote": {
          "type": "byte",
          "value": 0
        },
        "LinkedTo": {
          "type": "cexostring",
          "value": ""
        },
        "LocalizedName": {
          "type": "cexolocstring",
          "value": {
            "0": "Treasure Spawn Point"
          }
        },
        "MapNote": {
          "type": "cexolocstring",
          "value": {}
        },
        "MapNoteEnabled": {
          "type": "byte",
          "value": 0
        },
        "Tag": {
          "type": "cexostring",
          "value": "wp_treasure"
        },
        "TemplateResRef": {
          "type": "resref",
          "value": "wp_treasure"
        },
        "XOrientation": {
          "type": "float",
          "value": 0.535
        },
        "XPosition": {
          "type": "float",
          "value": 56.5635
        },
        "YOrientation": {
          "type": "float",
          "value": -0.8449
        },
        "YPosition": {
          "type": "float",
          "value": 51.7985
        },
        "ZPosition": {
          "type": "float",
          "value": 5.01
        }
      },
      {
        "__struct_id": 5,
        "Appearance": {
          "type": "byte",
          "value": 4
        },
        "Description": {
          "type": "cexolocstring",
          "value": {}
        },
        "HasMapNote": {
          "type": "byte",
          "value": 0
        },
        "LinkedTo": {
          "type": "cexostring",
          "value": ""
        },
        "LocalizedName": {
          "type": "cexolocstring",
          "value": {
            "0": "Treasure Spawn Point"
          }
        },
        "MapNote": {
          "type": "cexolocstring",
          "value": {}
        },
        "MapNoteEnabled": {
          "type": "byte",
          "value": 0
        },
        "Tag": {
          "type": "cexostring",
          "value": "wp_treasure"
        },
        "TemplateResRef": {
          "type": "resref",
          "value": "wp_treasure"
        },
        "XOrientation": {
          "type": "float",
          "value": 0.4496
        },
        "XPosition": {
          "type": "float",
          "value": 19.6389
        },
        "YOrientation": {
          "type": "float",
          "value": -0.8932
        },
        "YPosition": {
          "type": "float",
          "value": 14.4492
        },
        "ZPosition": {
          "type": "float",
          "value": 5.01
        }
      },
      {
        "__struct_id": 5,
        "Appearance": {
          "type": "byte",
          "value": 4
        },
        "Description": {
          "type": "cexolocstring",
          "value": {}
        },
        "HasMapNote": {
          "type": "byte",
          "value": 0
        },
        "LinkedTo": {
          "type": "cexostring",
          "value": ""
        },
        "LocalizedName": {
          "type": "cexolocstring",
          "value": {
            "0": "Treasure Spawn Point"
          }
        },
        "MapNote": {
          "type": "cexolocstring",
          "value": {}
        },
        "MapNoteEnabled": {
          "type": "byte",
          "value": 0
        },
        "Tag": {
          "type": "cexostring",
          "value": "wp_treasure"
        },
        "TemplateResRef": {
          "type": "resref",
          "value": "wp_treasure"
        },
        "XOrientation": {
          "type": "float",
          "value": 0.9925
        },
        "XPosition": {
          "type": "float",
          "value": 26.5788
        },
        "YOrientation": {
          "type": "float",
          "value": -0.1224
        },
        "YPosition": {
          "type": "float",
          "value": 60.0317
        },
        "ZPosition": {
          "type": "float",
          "value": 10.0
        }
      }
    ]
  }
}
