{
  "__data_type": "UTI ",
  "AddCost": {
    "type": "dword",
    "value": 0
  },
  "BaseItem": {
    "type": "int",
    "value": 17
  },
  "Charges": {
    "type": "byte",
    "value": 0
  },
  "Cloth1Color": {
    "type": "byte",
    "value": 0
  },
  "Cloth2Color": {
    "type": "byte",
    "value": 0
  },
  "Comment": {
    "type": "cexostring",
    "value": ""
  },
  "Cost": {
    "type": "dword",
    "value": 60
  },
  "Cursed": {
    "type": "byte",
    "value": 0
  },
  "DescIdentified": {
    "type": "cexolocstring",
    "value": {
      "0": "Not all helmets offer additional protection, but some of them have other properties.",
      "10": "Nie wszystkie he³my oferuj¹ dodatkow¹ ochronê, lecz niektóre z nich posiadaj¹ inne w³aœciwoœci."
    }
  },
  "Description": {
    "type": "cexolocstring",
    "value": {
      "0": "Not all helmets offer additional protection, but some of them have other properties.",
      "10": "Nie wszystkie he³my oferuj¹ dodatkow¹ ochronê, lecz niektóre z nich posiadaj¹ inne w³aœciwoœci."
    }
  },
  "Identified": {
    "type": "byte",
    "value": 0
  },
  "Leather1Color": {
    "type": "byte",
    "value": 0
  },
  "Leather2Color": {
    "type": "byte",
    "value": 0
  },
  "LocalizedName": {
    "type": "cexolocstring",
    "value": {
      "0": "Pot Helmet",
      "10": "He³m Garnczkowy"
    }
  },
  "Metal1Color": {
    "type": "byte",
    "value": 2
  },
  "Metal2Color": {
    "type": "byte",
    "value": 1
  },
  "ModelPart1": {
    "type": "byte",
    "value": 1
  },
  "PaletteID": {
    "type": "byte",
    "value": 9
  },
  "Plot": {
    "type": "byte",
    "value": 0
  },
  "PropertiesList": {
    "type": "list",
    "value": [
      {
        "__struct_id": 0,
        "ChanceAppear": {
          "type": "byte",
          "value": 100
        },
        "CostTable": {
          "type": "byte",
          "value": 25
        },
        "CostValue": {
          "type": "word",
          "value": 1
        },
        "Param1": {
          "type": "byte",
          "value": 255
        },
        "Param1Value": {
          "type": "byte",
          "value": 0
        },
        "PropertyName": {
          "type": "word",
          "value": 52
        },
        "Subtype": {
          "type": "word",
          "value": 1
        }
      },
      {
        "__struct_id": 0,
        "ChanceAppear": {
          "type": "byte",
          "value": 100
        },
        "CostTable": {
          "type": "byte",
          "value": 25
        },
        "CostValue": {
          "type": "word",
          "value": 1
        },
        "Param1": {
          "type": "byte",
          "value": 255
        },
        "Param1Value": {
          "type": "byte",
          "value": 0
        },
        "PropertyName": {
          "type": "word",
          "value": 52
        },
        "Subtype": {
          "type": "word",
          "value": 3
        }
      }
    ]
  },
  "StackSize": {
    "type": "word",
    "value": 1
  },
  "Stolen": {
    "type": "byte",
    "value": 0
  },
  "Tag": {
    "type": "cexostring",
    "value": "it_helmet00a"
  },
  "TemplateResRef": {
    "type": "resref",
    "value": "it_helmet00a"
  }
}
