{
  "__data_type": "UTI ",
  "AddCost": {
    "type": "dword",
    "value": 600
  },
  "BaseItem": {
    "type": "int",
    "value": 26
  },
  "Charges": {
    "type": "byte",
    "value": 0
  },
  "Comment": {
    "type": "cexostring",
    "value": ""
  },
  "Cost": {
    "type": "dword",
    "value": 691
  },
  "Cursed": {
    "type": "byte",
    "value": 0
  },
  "DescIdentified": {
    "type": "cexolocstring",
    "value": {}
  },
  "Description": {
    "type": "cexolocstring",
    "value": {}
  },
  "Identified": {
    "type": "byte",
    "value": 0
  },
  "LocalizedName": {
    "type": "cexolocstring",
    "value": {
      "0": "Winter Boots",
      "10": "Zimowe Buty"
    }
  },
  "ModelPart1": {
    "type": "byte",
    "value": 21
  },
  "ModelPart2": {
    "type": "byte",
    "value": 11
  },
  "ModelPart3": {
    "type": "byte",
    "value": 21
  },
  "PaletteID": {
    "type": "byte",
    "value": 15
  },
  "Plot": {
    "type": "byte",
    "value": 0
  },
  "PropertiesList": {
    "type": "list",
    "value": [
      {
        "__struct_id": 0,
        "ChanceAppear": {
          "type": "byte",
          "value": 100
        },
        "CostTable": {
          "type": "byte",
          "value": 7
        },
        "CostValue": {
          "type": "word",
          "value": 1
        },
        "Param1": {
          "type": "byte",
          "value": 255
        },
        "Param1Value": {
          "type": "byte",
          "value": 0
        },
        "PropertyName": {
          "type": "word",
          "value": 23
        },
        "Subtype": {
          "type": "word",
          "value": 7
        }
      }
    ]
  },
  "StackSize": {
    "type": "word",
    "value": 1
  },
  "Stolen": {
    "type": "byte",
    "value": 0
  },
  "Tag": {
    "type": "cexostring",
    "value": "it_boots01b"
  },
  "TemplateResRef": {
    "type": "resref",
    "value": "it_boots01b"
  }
}
