{
  "__data_type": "UTI ",
  "AddCost": {
    "type": "dword",
    "value": 0
  },
  "BaseItem": {
    "type": "int",
    "value": 51
  },
  "Charges": {
    "type": "byte",
    "value": 0
  },
  "Comment": {
    "type": "cexostring",
    "value": "1"
  },
  "Cost": {
    "type": "dword",
    "value": 590
  },
  "Cursed": {
    "type": "byte",
    "value": 0
  },
  "DescIdentified": {
    "type": "cexolocstring",
    "value": {}
  },
  "Description": {
    "type": "cexolocstring",
    "value": {}
  },
  "Identified": {
    "type": "byte",
    "value": 0
  },
  "LocalizedName": {
    "id": 1545,
    "type": "cexolocstring",
    "value": {
      "0": "Minstrel's Friend",
      "10": "Przyjaciel Grajka"
    }
  },
  "ModelPart1": {
    "type": "byte",
    "value": 13
  },
  "ModelPart2": {
    "type": "byte",
    "value": 33
  },
  "ModelPart3": {
    "type": "byte",
    "value": 11
  },
  "PaletteID": {
    "type": "byte",
    "value": 37
  },
  "Plot": {
    "type": "byte",
    "value": 0
  },
  "PropertiesList": {
    "type": "list",
    "value": [
      {
        "__struct_id": 0,
        "ChanceAppear": {
          "type": "byte",
          "value": 100
        },
        "CostTable": {
          "type": "byte",
          "value": 4
        },
        "CostValue": {
          "type": "word",
          "value": 1
        },
        "Param1": {
          "type": "byte",
          "value": 255
        },
        "Param1Value": {
          "type": "byte",
          "value": 0
        },
        "PropertyName": {
          "type": "word",
          "value": 16
        },
        "Subtype": {
          "type": "word",
          "value": 1
        }
      }
    ]
  },
  "StackSize": {
    "type": "word",
    "value": 1
  },
  "Stolen": {
    "type": "byte",
    "value": 0
  },
  "Tag": {
    "type": "cexostring",
    "value": "it_rapier01a"
  },
  "TemplateResRef": {
    "type": "resref",
    "value": "it_rapier01a"
  }
}
