{
  "__data_type": "UTI ",
  "AddCost": {
    "type": "dword",
    "value": 680
  },
  "BaseItem": {
    "type": "int",
    "value": 5
  },
  "Charges": {
    "type": "byte",
    "value": 0
  },
  "Comment": {
    "type": "cexostring",
    "value": "1"
  },
  "Cost": {
    "type": "dword",
    "value": 680
  },
  "Cursed": {
    "type": "byte",
    "value": 0
  },
  "DescIdentified": {
    "type": "cexolocstring",
    "value": {}
  },
  "Description": {
    "type": "cexolocstring",
    "value": {}
  },
  "Identified": {
    "type": "byte",
    "value": 0
  },
  "LocalizedName": {
    "id": 178,
    "type": "cexolocstring",
    "value": {
      "0": "Anti-magic Hammer",
      "10": "M³ot Antymagii"
    }
  },
  "ModelPart1": {
    "type": "byte",
    "value": 12
  },
  "ModelPart2": {
    "type": "byte",
    "value": 12
  },
  "ModelPart3": {
    "type": "byte",
    "value": 32
  },
  "PaletteID": {
    "type": "byte",
    "value": 41
  },
  "Plot": {
    "type": "byte",
    "value": 0
  },
  "PropertiesList": {
    "type": "list",
    "value": [
      {
        "__struct_id": 0,
        "ChanceAppear": {
          "type": "byte",
          "value": 100
        },
        "CostTable": {
          "type": "byte",
          "value": 31
        },
        "CostValue": {
          "type": "word",
          "value": 20
        },
        "Param1": {
          "type": "byte",
          "value": 255
        },
        "Param1Value": {
          "type": "byte",
          "value": 0
        },
        "PropertyName": {
          "type": "word",
          "value": 88
        },
        "Subtype": {
          "type": "word",
          "value": 0
        }
      },
      {
        "__struct_id": 0,
        "ChanceAppear": {
          "type": "byte",
          "value": 100
        },
        "CostTable": {
          "type": "byte",
          "value": 11
        },
        "CostValue": {
          "type": "word",
          "value": 0
        },
        "Param1": {
          "type": "byte",
          "value": 255
        },
        "Param1Value": {
          "type": "byte",
          "value": 0
        },
        "PropertyName": {
          "type": "word",
          "value": 39
        },
        "Subtype": {
          "type": "word",
          "value": 0
        }
      }
    ]
  },
  "StackSize": {
    "type": "word",
    "value": 1
  },
  "Stolen": {
    "type": "byte",
    "value": 0
  },
  "Tag": {
    "type": "cexostring",
    "value": "it_whammer01a"
  },
  "TemplateResRef": {
    "type": "resref",
    "value": "it_whammer01a"
  }
}
