{
  "__data_type": "GIT ",
  "AreaProperties": {
    "__struct_id": 100,
    "type": "struct",
    "value": {
      "__struct_id": 100,
      "AmbientSndDay": {
        "type": "int",
        "value": 0
      },
      "AmbientSndDayVol": {
        "type": "int",
        "value": 127
      },
      "AmbientSndNight": {
        "type": "int",
        "value": 0
      },
      "AmbientSndNitVol": {
        "type": "int",
        "value": 51
      },
      "EnvAudio": {
        "type": "int",
        "value": 0
      },
      "MusicBattle": {
        "type": "int",
        "value": 35
      },
      "MusicDay": {
        "type": "int",
        "value": 85
      },
      "MusicDelay": {
        "type": "int",
        "value": 0
      },
      "MusicNight": {
        "type": "int",
        "value": 86
      }
    }
  },
  "Creature List": {
    "type": "list",
    "value": []
  },
  "Door List": {
    "type": "list",
    "value": [
      {
        "__struct_id": 8,
        "AnimationState": {
          "type": "byte",
          "value": 0
        },
        "Appearance": {
          "type": "dword",
          "value": 5025
        },
        "AutoRemoveKey": {
          "type": "byte",
          "value": 0
        },
        "Bearing": {
          "type": "float",
          "value": 1.5708
        },
        "CloseLockDC": {
          "type": "byte",
          "value": 0
        },
        "Conversation": {
          "type": "resref",
          "value": ""
        },
        "CurrentHP": {
          "type": "short",
          "value": 80
        },
        "Description": {
          "type": "cexolocstring",
          "value": {}
        },
        "DisarmDC": {
          "type": "byte",
          "value": 15
        },
        "Faction": {
          "type": "dword",
          "value": 1
        },
        "Fort": {
          "type": "byte",
          "value": 16
        },
        "GenericType_New": {
          "type": "dword",
          "value": 0
        },
        "Hardness": {
          "type": "byte",
          "value": 5
        },
        "HP": {
          "type": "short",
          "value": 80
        },
        "Interruptable": {
          "type": "byte",
          "value": 1
        },
        "KeyName": {
          "type": "cexostring",
          "value": ""
        },
        "KeyRequired": {
          "type": "byte",
          "value": 1
        },
        "LinkedTo": {
          "type": "cexostring",
          "value": ""
        },
        "LinkedToFlags": {
          "type": "byte",
          "value": 0
        },
        "LoadScreenID": {
          "type": "word",
          "value": 0
        },
        "Lockable": {
          "type": "byte",
          "value": 0
        },
        "Locked": {
          "type": "byte",
          "value": 1
        },
        "LocName": {
          "id": 5349,
          "type": "cexolocstring",
          "value": {}
        },
        "OnClick": {
          "type": "resref",
          "value": ""
        },
        "OnClosed": {
          "type": "resref",
          "value": ""
        },
        "OnDamaged": {
          "type": "resref",
          "value": ""
        },
        "OnDeath": {
          "type": "resref",
          "value": "x2_door_death"
        },
        "OnDisarm": {
          "type": "resref",
          "value": ""
        },
        "OnFailToOpen": {
          "type": "resref",
          "value": ""
        },
        "OnHeartbeat": {
          "type": "resref",
          "value": ""
        },
        "OnLock": {
          "type": "resref",
          "value": ""
        },
        "OnMeleeAttacked": {
          "type": "resref",
          "value": ""
        },
        "OnOpen": {
          "type": "resref",
          "value": ""
        },
        "OnSpellCastAt": {
          "type": "resref",
          "value": ""
        },
        "OnTrapTriggered": {
          "type": "resref",
          "value": ""
        },
        "OnUnlock": {
          "type": "resref",
          "value": ""
        },
        "OnUserDefined": {
          "type": "resref",
          "value": ""
        },
        "OpenLockDC": {
          "type": "byte",
          "value": 18
        },
        "Plot": {
          "type": "byte",
          "value": 1
        },
        "PortraitId": {
          "type": "word",
          "value": 0
        },
        "Ref": {
          "type": "byte",
          "value": 0
        },
        "Tag": {
          "type": "cexostring",
          "value": "HouseDoor"
        },
        "TemplateResRef": {
          "type": "resref",
          "value": "nw_door_ttr_19"
        },
        "TrapDetectable": {
          "type": "byte",
          "value": 1
        },
        "TrapDetectDC": {
          "type": "byte",
          "value": 0
        },
        "TrapDisarmable": {
          "type": "byte",
          "value": 1
        },
        "TrapFlag": {
          "type": "byte",
          "value": 0
        },
        "TrapOneShot": {
          "type": "byte",
          "value": 1
        },
        "TrapType": {
          "type": "byte",
          "value": 0
        },
        "Will": {
          "type": "byte",
          "value": 0
        },
        "X": {
          "type": "float",
          "value": 24.53
        },
        "Y": {
          "type": "float",
          "value": 26.5
        },
        "Z": {
          "type": "float",
          "value": 5.0
        }
      },
      {
        "__struct_id": 8,
        "AnimationState": {
          "type": "byte",
          "value": 0
        },
        "Appearance": {
          "type": "dword",
          "value": 5024
        },
        "AutoRemoveKey": {
          "type": "byte",
          "value": 0
        },
        "Bearing": {
          "type": "float",
          "value": -0.0
        },
        "CloseLockDC": {
          "type": "byte",
          "value": 0
        },
        "Conversation": {
          "type": "resref",
          "value": ""
        },
        "CurrentHP": {
          "type": "short",
          "value": 80
        },
        "Description": {
          "type": "cexolocstring",
          "value": {}
        },
        "DisarmDC": {
          "type": "byte",
          "value": 15
        },
        "Faction": {
          "type": "dword",
          "value": 1
        },
        "Fort": {
          "type": "byte",
          "value": 16
        },
        "GenericType_New": {
          "type": "dword",
          "value": 0
        },
        "Hardness": {
          "type": "byte",
          "value": 5
        },
        "HP": {
          "type": "short",
          "value": 80
        },
        "Interruptable": {
          "type": "byte",
          "value": 1
        },
        "KeyName": {
          "type": "cexostring",
          "value": ""
        },
        "KeyRequired": {
          "type": "byte",
          "value": 0
        },
        "LinkedTo": {
          "type": "cexostring",
          "value": ""
        },
        "LinkedToFlags": {
          "type": "byte",
          "value": 0
        },
        "LoadScreenID": {
          "type": "word",
          "value": 0
        },
        "Lockable": {
          "type": "byte",
          "value": 0
        },
        "Locked": {
          "type": "byte",
          "value": 0
        },
        "LocName": {
          "id": 5349,
          "type": "cexolocstring",
          "value": {}
        },
        "OnClick": {
          "type": "resref",
          "value": "obj_armoryenter"
        },
        "OnClosed": {
          "type": "resref",
          "value": ""
        },
        "OnDamaged": {
          "type": "resref",
          "value": ""
        },
        "OnDeath": {
          "type": "resref",
          "value": ""
        },
        "OnDisarm": {
          "type": "resref",
          "value": ""
        },
        "OnFailToOpen": {
          "type": "resref",
          "value": ""
        },
        "OnHeartbeat": {
          "type": "resref",
          "value": ""
        },
        "OnLock": {
          "type": "resref",
          "value": ""
        },
        "OnMeleeAttacked": {
          "type": "resref",
          "value": ""
        },
        "OnOpen": {
          "type": "resref",
          "value": "obj_armoropenfix"
        },
        "OnSpellCastAt": {
          "type": "resref",
          "value": ""
        },
        "OnTrapTriggered": {
          "type": "resref",
          "value": ""
        },
        "OnUnlock": {
          "type": "resref",
          "value": ""
        },
        "OnUserDefined": {
          "type": "resref",
          "value": ""
        },
        "OpenLockDC": {
          "type": "byte",
          "value": 18
        },
        "Plot": {
          "type": "byte",
          "value": 1
        },
        "PortraitId": {
          "type": "word",
          "value": 0
        },
        "Ref": {
          "type": "byte",
          "value": 0
        },
        "Tag": {
          "type": "cexostring",
          "value": "HouseDoor"
        },
        "TemplateResRef": {
          "type": "resref",
          "value": "nw_door_ttr_19"
        },
        "TrapDetectable": {
          "type": "byte",
          "value": 1
        },
        "TrapDetectDC": {
          "type": "byte",
          "value": 0
        },
        "TrapDisarmable": {
          "type": "byte",
          "value": 1
        },
        "TrapFlag": {
          "type": "byte",
          "value": 0
        },
        "TrapOneShot": {
          "type": "byte",
          "value": 1
        },
        "TrapType": {
          "type": "byte",
          "value": 0
        },
        "Will": {
          "type": "byte",
          "value": 0
        },
        "X": {
          "type": "float",
          "value": 19.25
        },
        "Y": {
          "type": "float",
          "value": 22.8
        },
        "Z": {
          "type": "float",
          "value": 8.220000000000001
        }
      },
      {
        "__struct_id": 8,
        "AnimationState": {
          "type": "byte",
          "value": 0
        },
        "Appearance": {
          "type": "dword",
          "value": 5024
        },
        "AutoRemoveKey": {
          "type": "byte",
          "value": 0
        },
        "Bearing": {
          "type": "float",
          "value": 1.5708
        },
        "CloseLockDC": {
          "type": "byte",
          "value": 0
        },
        "Conversation": {
          "type": "resref",
          "value": ""
        },
        "CurrentHP": {
          "type": "short",
          "value": 80
        },
        "Description": {
          "type": "cexolocstring",
          "value": {}
        },
        "DisarmDC": {
          "type": "byte",
          "value": 15
        },
        "Faction": {
          "type": "dword",
          "value": 1
        },
        "Fort": {
          "type": "byte",
          "value": 16
        },
        "GenericType_New": {
          "type": "dword",
          "value": 0
        },
        "Hardness": {
          "type": "byte",
          "value": 5
        },
        "HP": {
          "type": "short",
          "value": 80
        },
        "Interruptable": {
          "type": "byte",
          "value": 1
        },
        "KeyName": {
          "type": "cexostring",
          "value": ""
        },
        "KeyRequired": {
          "type": "byte",
          "value": 1
        },
        "LinkedTo": {
          "type": "cexostring",
          "value": ""
        },
        "LinkedToFlags": {
          "type": "byte",
          "value": 0
        },
        "LoadScreenID": {
          "type": "word",
          "value": 0
        },
        "Lockable": {
          "type": "byte",
          "value": 0
        },
        "Locked": {
          "type": "byte",
          "value": 1
        },
        "LocName": {
          "id": 5349,
          "type": "cexolocstring",
          "value": {}
        },
        "OnClick": {
          "type": "resref",
          "value": ""
        },
        "OnClosed": {
          "type": "resref",
          "value": ""
        },
        "OnDamaged": {
          "type": "resref",
          "value": ""
        },
        "OnDeath": {
          "type": "resref",
          "value": "x2_door_death"
        },
        "OnDisarm": {
          "type": "resref",
          "value": ""
        },
        "OnFailToOpen": {
          "type": "resref",
          "value": ""
        },
        "OnHeartbeat": {
          "type": "resref",
          "value": ""
        },
        "OnLock": {
          "type": "resref",
          "value": ""
        },
        "OnMeleeAttacked": {
          "type": "resref",
          "value": ""
        },
        "OnOpen": {
          "type": "resref",
          "value": ""
        },
        "OnSpellCastAt": {
          "type": "resref",
          "value": ""
        },
        "OnTrapTriggered": {
          "type": "resref",
          "value": ""
        },
        "OnUnlock": {
          "type": "resref",
          "value": ""
        },
        "OnUserDefined": {
          "type": "resref",
          "value": ""
        },
        "OpenLockDC": {
          "type": "byte",
          "value": 18
        },
        "Plot": {
          "type": "byte",
          "value": 1
        },
        "PortraitId": {
          "type": "word",
          "value": 0
        },
        "Ref": {
          "type": "byte",
          "value": 0
        },
        "Tag": {
          "type": "cexostring",
          "value": "HouseDoor"
        },
        "TemplateResRef": {
          "type": "resref",
          "value": "nw_door_ttr_19"
        },
        "TrapDetectable": {
          "type": "byte",
          "value": 1
        },
        "TrapDetectDC": {
          "type": "byte",
          "value": 0
        },
        "TrapDisarmable": {
          "type": "byte",
          "value": 1
        },
        "TrapFlag": {
          "type": "byte",
          "value": 0
        },
        "TrapOneShot": {
          "type": "byte",
          "value": 1
        },
        "TrapType": {
          "type": "byte",
          "value": 0
        },
        "Will": {
          "type": "byte",
          "value": 0
        },
        "X": {
          "type": "float",
          "value": 24.9
        },
        "Y": {
          "type": "float",
          "value": 20.5
        },
        "Z": {
          "type": "float",
          "value": 5.01
        }
      }
    ]
  },
  "Encounter List": {
    "type": "list",
    "value": []
  },
  "List": {
    "type": "list",
    "value": []
  },
  "Placeable List": {
    "type": "list",
    "value": [
      {
        "__struct_id": 9,
        "AnimationState": {
          "type": "byte",
          "value": 0
        },
        "Appearance": {
          "type": "dword",
          "value": 15395
        },
        "AutoRemoveKey": {
          "type": "byte",
          "value": 0
        },
        "Bearing": {
          "type": "float",
          "value": -0.859
        },
        "BodyBag": {
          "type": "byte",
          "value": 0
        },
        "CloseLockDC": {
          "type": "byte",
          "value": 0
        },
        "Conversation": {
          "type": "resref",
          "value": ""
        },
        "CurrentHP": {
          "type": "short",
          "value": 10
        },
        "Description": {
          "type": "cexolocstring",
          "value": {
            "0": ""
          }
        },
        "DisarmDC": {
          "type": "byte",
          "value": 0
        },
        "Faction": {
          "type": "dword",
          "value": 1
        },
        "Fort": {
          "type": "byte",
          "value": 5
        },
        "Hardness": {
          "type": "byte",
          "value": 5
        },
        "HasInventory": {
          "type": "byte",
          "value": 0
        },
        "HP": {
          "type": "short",
          "value": 10
        },
        "Interruptable": {
          "type": "byte",
          "value": 1
        },
        "KeyName": {
          "type": "cexostring",
          "value": ""
        },
        "KeyRequired": {
          "type": "byte",
          "value": 0
        },
        "Lockable": {
          "type": "byte",
          "value": 1
        },
        "Locked": {
          "type": "byte",
          "value": 0
        },
        "LocName": {
          "type": "cexolocstring",
          "value": {
            "0": "Wagon - Caravan, Dark"
          }
        },
        "OnClick": {
          "type": "resref",
          "value": ""
        },
        "OnClosed": {
          "type": "resref",
          "value": ""
        },
        "OnDamaged": {
          "type": "resref",
          "value": ""
        },
        "OnDeath": {
          "type": "resref",
          "value": ""
        },
        "OnDisarm": {
          "type": "resref",
          "value": ""
        },
        "OnHeartbeat": {
          "type": "resref",
          "value": ""
        },
        "OnInvDisturbed": {
          "type": "resref",
          "value": ""
        },
        "OnLock": {
          "type": "resref",
          "value": ""
        },
        "OnMeleeAttacked": {
          "type": "resref",
          "value": ""
        },
        "OnOpen": {
          "type": "resref",
          "value": ""
        },
        "OnSpellCastAt": {
          "type": "resref",
          "value": ""
        },
        "OnTrapTriggered": {
          "type": "resref",
          "value": ""
        },
        "OnUnlock": {
          "type": "resref",
          "value": ""
        },
        "OnUsed": {
          "type": "resref",
          "value": ""
        },
        "OnUserDefined": {
          "type": "resref",
          "value": ""
        },
        "OpenLockDC": {
          "type": "byte",
          "value": 0
        },
        "Plot": {
          "type": "byte",
          "value": 0
        },
        "PortraitId": {
          "type": "word",
          "value": 15215
        },
        "Ref": {
          "type": "byte",
          "value": 0
        },
        "Static": {
          "type": "byte",
          "value": 1
        },
        "Tag": {
          "type": "cexostring",
          "value": "tm_pl_caravan2"
        },
        "TemplateResRef": {
          "type": "resref",
          "value": "tm_pl_caravan2"
        },
        "TrapDetectable": {
          "type": "byte",
          "value": 1
        },
        "TrapDetectDC": {
          "type": "byte",
          "value": 0
        },
        "TrapDisarmable": {
          "type": "byte",
          "value": 1
        },
        "TrapFlag": {
          "type": "byte",
          "value": 0
        },
        "TrapOneShot": {
          "type": "byte",
          "value": 1
        },
        "TrapType": {
          "type": "byte",
          "value": 0
        },
        "Type": {
          "type": "byte",
          "value": 0
        },
        "Useable": {
          "type": "byte",
          "value": 0
        },
        "Will": {
          "type": "byte",
          "value": 0
        },
        "X": {
          "type": "float",
          "value": 27.0956
        },
        "Y": {
          "type": "float",
          "value": 12.2139
        },
        "Z": {
          "type": "float",
          "value": 5.0
        }
      },
      {
        "__struct_id": 9,
        "AnimationState": {
          "type": "byte",
          "value": 0
        },
        "Appearance": {
          "type": "dword",
          "value": 15395
        },
        "AutoRemoveKey": {
          "type": "byte",
          "value": 0
        },
        "Bearing": {
          "type": "float",
          "value": -0.859
        },
        "BodyBag": {
          "type": "byte",
          "value": 0
        },
        "CloseLockDC": {
          "type": "byte",
          "value": 0
        },
        "Conversation": {
          "type": "resref",
          "value": ""
        },
        "CurrentHP": {
          "type": "short",
          "value": 10
        },
        "Description": {
          "type": "cexolocstring",
          "value": {
            "0": ""
          }
        },
        "DisarmDC": {
          "type": "byte",
          "value": 0
        },
        "Faction": {
          "type": "dword",
          "value": 1
        },
        "Fort": {
          "type": "byte",
          "value": 5
        },
        "Hardness": {
          "type": "byte",
          "value": 5
        },
        "HasInventory": {
          "type": "byte",
          "value": 0
        },
        "HP": {
          "type": "short",
          "value": 10
        },
        "Interruptable": {
          "type": "byte",
          "value": 1
        },
        "KeyName": {
          "type": "cexostring",
          "value": ""
        },
        "KeyRequired": {
          "type": "byte",
          "value": 0
        },
        "Lockable": {
          "type": "byte",
          "value": 1
        },
        "Locked": {
          "type": "byte",
          "value": 0
        },
        "LocName": {
          "type": "cexolocstring",
          "value": {
            "0": "Wagon - Caravan, Dark"
          }
        },
        "OnClick": {
          "type": "resref",
          "value": ""
        },
        "OnClosed": {
          "type": "resref",
          "value": ""
        },
        "OnDamaged": {
          "type": "resref",
          "value": ""
        },
        "OnDeath": {
          "type": "resref",
          "value": ""
        },
        "OnDisarm": {
          "type": "resref",
          "value": ""
        },
        "OnHeartbeat": {
          "type": "resref",
          "value": ""
        },
        "OnInvDisturbed": {
          "type": "resref",
          "value": ""
        },
        "OnLock": {
          "type": "resref",
          "value": ""
        },
        "OnMeleeAttacked": {
          "type": "resref",
          "value": ""
        },
        "OnOpen": {
          "type": "resref",
          "value": ""
        },
        "OnSpellCastAt": {
          "type": "resref",
          "value": ""
        },
        "OnTrapTriggered": {
          "type": "resref",
          "value": ""
        },
        "OnUnlock": {
          "type": "resref",
          "value": ""
        },
        "OnUsed": {
          "type": "resref",
          "value": ""
        },
        "OnUserDefined": {
          "type": "resref",
          "value": ""
        },
        "OpenLockDC": {
          "type": "byte",
          "value": 0
        },
        "Plot": {
          "type": "byte",
          "value": 0
        },
        "PortraitId": {
          "type": "word",
          "value": 15215
        },
        "Ref": {
          "type": "byte",
          "value": 0
        },
        "Static": {
          "type": "byte",
          "value": 1
        },
        "Tag": {
          "type": "cexostring",
          "value": "tm_pl_caravan2"
        },
        "TemplateResRef": {
          "type": "resref",
          "value": "tm_pl_caravan2"
        },
        "TrapDetectable": {
          "type": "byte",
          "value": 1
        },
        "TrapDetectDC": {
          "type": "byte",
          "value": 0
        },
        "TrapDisarmable": {
          "type": "byte",
          "value": 1
        },
        "TrapFlag": {
          "type": "byte",
          "value": 0
        },
        "TrapOneShot": {
          "type": "byte",
          "value": 1
        },
        "TrapType": {
          "type": "byte",
          "value": 0
        },
        "Type": {
          "type": "byte",
          "value": 0
        },
        "Useable": {
          "type": "byte",
          "value": 0
        },
        "Will": {
          "type": "byte",
          "value": 0
        },
        "X": {
          "type": "float",
          "value": 21.8641
        },
        "Y": {
          "type": "float",
          "value": 12.1529
        },
        "Z": {
          "type": "float",
          "value": 5.0
        }
      },
      {
        "__struct_id": 9,
        "AnimationState": {
          "type": "byte",
          "value": 0
        },
        "Appearance": {
          "type": "dword",
          "value": 636
        },
        "AutoRemoveKey": {
          "type": "byte",
          "value": 0
        },
        "Bearing": {
          "type": "float",
          "value": -1.1045
        },
        "BodyBag": {
          "type": "byte",
          "value": 0
        },
        "CloseLockDC": {
          "type": "byte",
          "value": 0
        },
        "Conversation": {
          "type": "resref",
          "value": ""
        },
        "CurrentHP": {
          "type": "short",
          "value": 15
        },
        "Description": {
          "id": 14610,
          "type": "cexolocstring",
          "value": {}
        },
        "DisarmDC": {
          "type": "byte",
          "value": 15
        },
        "Faction": {
          "type": "dword",
          "value": 1
        },
        "Fort": {
          "type": "byte",
          "value": 16
        },
        "Hardness": {
          "type": "byte",
          "value": 5
        },
        "HasInventory": {
          "type": "byte",
          "value": 0
        },
        "HP": {
          "type": "short",
          "value": 15
        },
        "Interruptable": {
          "type": "byte",
          "value": 1
        },
        "KeyName": {
          "type": "cexostring",
          "value": ""
        },
        "KeyRequired": {
          "type": "byte",
          "value": 0
        },
        "Lockable": {
          "type": "byte",
          "value": 0
        },
        "Locked": {
          "type": "byte",
          "value": 0
        },
        "LocName": {
          "id": 14611,
          "type": "cexolocstring",
          "value": {
            "0": "Wagon - Open, Empty"
          }
        },
        "OnClick": {
          "type": "resref",
          "value": ""
        },
        "OnClosed": {
          "type": "resref",
          "value": ""
        },
        "OnDamaged": {
          "type": "resref",
          "value": ""
        },
        "OnDeath": {
          "type": "resref",
          "value": ""
        },
        "OnDisarm": {
          "type": "resref",
          "value": ""
        },
        "OnHeartbeat": {
          "type": "resref",
          "value": ""
        },
        "OnInvDisturbed": {
          "type": "resref",
          "value": ""
        },
        "OnLock": {
          "type": "resref",
          "value": ""
        },
        "OnMeleeAttacked": {
          "type": "resref",
          "value": ""
        },
        "OnOpen": {
          "type": "resref",
          "value": ""
        },
        "OnSpellCastAt": {
          "type": "resref",
          "value": ""
        },
        "OnTrapTriggered": {
          "type": "resref",
          "value": ""
        },
        "OnUnlock": {
          "type": "resref",
          "value": ""
        },
        "OnUsed": {
          "type": "resref",
          "value": ""
        },
        "OnUserDefined": {
          "type": "resref",
          "value": ""
        },
        "OpenLockDC": {
          "type": "byte",
          "value": 18
        },
        "Plot": {
          "type": "byte",
          "value": 0
        },
        "PortraitId": {
          "type": "word",
          "value": 1258
        },
        "Ref": {
          "type": "byte",
          "value": 0
        },
        "Static": {
          "type": "byte",
          "value": 1
        },
        "Tag": {
          "type": "cexostring",
          "value": "tm_pl_wagon_mt01"
        },
        "TemplateResRef": {
          "type": "resref",
          "value": "tm_pl_wagon_mt01"
        },
        "TrapDetectable": {
          "type": "byte",
          "value": 1
        },
        "TrapDetectDC": {
          "type": "byte",
          "value": 0
        },
        "TrapDisarmable": {
          "type": "byte",
          "value": 1
        },
        "TrapFlag": {
          "type": "byte",
          "value": 0
        },
        "TrapOneShot": {
          "type": "byte",
          "value": 1
        },
        "TrapType": {
          "type": "byte",
          "value": 0
        },
        "Type": {
          "type": "byte",
          "value": 0
        },
        "Useable": {
          "type": "byte",
          "value": 0
        },
        "Will": {
          "type": "byte",
          "value": 0
        },
        "X": {
          "type": "float",
          "value": 16.2014
        },
        "Y": {
          "type": "float",
          "value": 12.1463
        },
        "Z": {
          "type": "float",
          "value": 5.0
        }
      },
      {
        "__struct_id": 9,
        "AnimationState": {
          "type": "byte",
          "value": 0
        },
        "Appearance": {
          "type": "dword",
          "value": 636
        },
        "AutoRemoveKey": {
          "type": "byte",
          "value": 0
        },
        "Bearing": {
          "type": "float",
          "value": -1.5708
        },
        "BodyBag": {
          "type": "byte",
          "value": 0
        },
        "CloseLockDC": {
          "type": "byte",
          "value": 0
        },
        "Conversation": {
          "type": "resref",
          "value": ""
        },
        "CurrentHP": {
          "type": "short",
          "value": 15
        },
        "Description": {
          "id": 14610,
          "type": "cexolocstring",
          "value": {}
        },
        "DisarmDC": {
          "type": "byte",
          "value": 15
        },
        "Faction": {
          "type": "dword",
          "value": 1
        },
        "Fort": {
          "type": "byte",
          "value": 16
        },
        "Hardness": {
          "type": "byte",
          "value": 5
        },
        "HasInventory": {
          "type": "byte",
          "value": 0
        },
        "HP": {
          "type": "short",
          "value": 15
        },
        "Interruptable": {
          "type": "byte",
          "value": 1
        },
        "KeyName": {
          "type": "cexostring",
          "value": ""
        },
        "KeyRequired": {
          "type": "byte",
          "value": 0
        },
        "Lockable": {
          "type": "byte",
          "value": 0
        },
        "Locked": {
          "type": "byte",
          "value": 0
        },
        "LocName": {
          "id": 14611,
          "type": "cexolocstring",
          "value": {
            "0": "Wagon - Open, Empty"
          }
        },
        "OnClick": {
          "type": "resref",
          "value": ""
        },
        "OnClosed": {
          "type": "resref",
          "value": ""
        },
        "OnDamaged": {
          "type": "resref",
          "value": ""
        },
        "OnDeath": {
          "type": "resref",
          "value": ""
        },
        "OnDisarm": {
          "type": "resref",
          "value": ""
        },
        "OnHeartbeat": {
          "type": "resref",
          "value": ""
        },
        "OnInvDisturbed": {
          "type": "resref",
          "value": ""
        },
        "OnLock": {
          "type": "resref",
          "value": ""
        },
        "OnMeleeAttacked": {
          "type": "resref",
          "value": ""
        },
        "OnOpen": {
          "type": "resref",
          "value": ""
        },
        "OnSpellCastAt": {
          "type": "resref",
          "value": ""
        },
        "OnTrapTriggered": {
          "type": "resref",
          "value": ""
        },
        "OnUnlock": {
          "type": "resref",
          "value": ""
        },
        "OnUsed": {
          "type": "resref",
          "value": ""
        },
        "OnUserDefined": {
          "type": "resref",
          "value": ""
        },
        "OpenLockDC": {
          "type": "byte",
          "value": 18
        },
        "Plot": {
          "type": "byte",
          "value": 0
        },
        "PortraitId": {
          "type": "word",
          "value": 1258
        },
        "Ref": {
          "type": "byte",
          "value": 0
        },
        "Static": {
          "type": "byte",
          "value": 1
        },
        "Tag": {
          "type": "cexostring",
          "value": "tm_pl_wagon_mt01"
        },
        "TemplateResRef": {
          "type": "resref",
          "value": "tm_pl_wagon_mt01"
        },
        "TrapDetectable": {
          "type": "byte",
          "value": 1
        },
        "TrapDetectDC": {
          "type": "byte",
          "value": 0
        },
        "TrapDisarmable": {
          "type": "byte",
          "value": 1
        },
        "TrapFlag": {
          "type": "byte",
          "value": 0
        },
        "TrapOneShot": {
          "type": "byte",
          "value": 1
        },
        "TrapType": {
          "type": "byte",
          "value": 0
        },
        "Type": {
          "type": "byte",
          "value": 0
        },
        "Useable": {
          "type": "byte",
          "value": 0
        },
        "Will": {
          "type": "byte",
          "value": 0
        },
        "X": {
          "type": "float",
          "value": 16.4964
        },
        "Y": {
          "type": "float",
          "value": 8.5243
        },
        "Z": {
          "type": "float",
          "value": 5.0
        }
      },
      {
        "__struct_id": 9,
        "AnimationState": {
          "type": "byte",
          "value": 0
        },
        "Appearance": {
          "type": "dword",
          "value": 700
        },
        "AutoRemoveKey": {
          "type": "byte",
          "value": 0
        },
        "Bearing": {
          "type": "float",
          "value": -1.5708
        },
        "BodyBag": {
          "type": "byte",
          "value": 0
        },
        "CloseLockDC": {
          "type": "byte",
          "value": 0
        },
        "Conversation": {
          "type": "resref",
          "value": ""
        },
        "CurrentHP": {
          "type": "short",
          "value": 10
        },
        "Description": {
          "id": 6792,
          "type": "cexolocstring",
          "value": {}
        },
        "DisarmDC": {
          "type": "byte",
          "value": 0
        },
        "Faction": {
          "type": "dword",
          "value": 1
        },
        "Fort": {
          "type": "byte",
          "value": 5
        },
        "Hardness": {
          "type": "byte",
          "value": 5
        },
        "HasInventory": {
          "type": "byte",
          "value": 0
        },
        "HP": {
          "type": "short",
          "value": 10
        },
        "Interruptable": {
          "type": "byte",
          "value": 1
        },
        "KeyName": {
          "type": "cexostring",
          "value": ""
        },
        "KeyRequired": {
          "type": "byte",
          "value": 0
        },
        "Lockable": {
          "type": "byte",
          "value": 1
        },
        "Locked": {
          "type": "byte",
          "value": 0
        },
        "LocName": {
          "id": 111223,
          "type": "cexolocstring",
          "value": {}
        },
        "OnClick": {
          "type": "resref",
          "value": ""
        },
        "OnClosed": {
          "type": "resref",
          "value": ""
        },
        "OnDamaged": {
          "type": "resref",
          "value": ""
        },
        "OnDeath": {
          "type": "resref",
          "value": ""
        },
        "OnDisarm": {
          "type": "resref",
          "value": ""
        },
        "OnHeartbeat": {
          "type": "resref",
          "value": ""
        },
        "OnInvDisturbed": {
          "type": "resref",
          "value": ""
        },
        "OnLock": {
          "type": "resref",
          "value": ""
        },
        "OnMeleeAttacked": {
          "type": "resref",
          "value": ""
        },
        "OnOpen": {
          "type": "resref",
          "value": ""
        },
        "OnSpellCastAt": {
          "type": "resref",
          "value": ""
        },
        "OnTrapTriggered": {
          "type": "resref",
          "value": ""
        },
        "OnUnlock": {
          "type": "resref",
          "value": ""
        },
        "OnUsed": {
          "type": "resref",
          "value": ""
        },
        "OnUserDefined": {
          "type": "resref",
          "value": ""
        },
        "OpenLockDC": {
          "type": "byte",
          "value": 0
        },
        "Plot": {
          "type": "byte",
          "value": 0
        },
        "PortraitId": {
          "type": "word",
          "value": 1199
        },
        "Ref": {
          "type": "byte",
          "value": 0
        },
        "Static": {
          "type": "byte",
          "value": 1
        },
        "Tag": {
          "type": "cexostring",
          "value": "x3_plc_flgstag4"
        },
        "TemplateResRef": {
          "type": "resref",
          "value": "x3_plc_flgstag4"
        },
        "TrapDetectable": {
          "type": "byte",
          "value": 1
        },
        "TrapDetectDC": {
          "type": "byte",
          "value": 0
        },
        "TrapDisarmable": {
          "type": "byte",
          "value": 1
        },
        "TrapFlag": {
          "type": "byte",
          "value": 0
        },
        "TrapOneShot": {
          "type": "byte",
          "value": 1
        },
        "TrapType": {
          "type": "byte",
          "value": 0
        },
        "Type": {
          "type": "byte",
          "value": 0
        },
        "Useable": {
          "type": "byte",
          "value": 0
        },
        "Will": {
          "type": "byte",
          "value": 0
        },
        "X": {
          "type": "float",
          "value": 14.5002
        },
        "Y": {
          "type": "float",
          "value": 21.2407
        },
        "Z": {
          "type": "float",
          "value": 5.0
        }
      },
      {
        "__struct_id": 9,
        "AnimationState": {
          "type": "byte",
          "value": 0
        },
        "Appearance": {
          "type": "dword",
          "value": 700
        },
        "AutoRemoveKey": {
          "type": "byte",
          "value": 0
        },
        "Bearing": {
          "type": "float",
          "value": -1.5708
        },
        "BodyBag": {
          "type": "byte",
          "value": 0
        },
        "CloseLockDC": {
          "type": "byte",
          "value": 0
        },
        "Conversation": {
          "type": "resref",
          "value": ""
        },
        "CurrentHP": {
          "type": "short",
          "value": 10
        },
        "Description": {
          "id": 6792,
          "type": "cexolocstring",
          "value": {}
        },
        "DisarmDC": {
          "type": "byte",
          "value": 0
        },
        "Faction": {
          "type": "dword",
          "value": 1
        },
        "Fort": {
          "type": "byte",
          "value": 5
        },
        "Hardness": {
          "type": "byte",
          "value": 5
        },
        "HasInventory": {
          "type": "byte",
          "value": 0
        },
        "HP": {
          "type": "short",
          "value": 10
        },
        "Interruptable": {
          "type": "byte",
          "value": 1
        },
        "KeyName": {
          "type": "cexostring",
          "value": ""
        },
        "KeyRequired": {
          "type": "byte",
          "value": 0
        },
        "Lockable": {
          "type": "byte",
          "value": 1
        },
        "Locked": {
          "type": "byte",
          "value": 0
        },
        "LocName": {
          "id": 111223,
          "type": "cexolocstring",
          "value": {}
        },
        "OnClick": {
          "type": "resref",
          "value": ""
        },
        "OnClosed": {
          "type": "resref",
          "value": ""
        },
        "OnDamaged": {
          "type": "resref",
          "value": ""
        },
        "OnDeath": {
          "type": "resref",
          "value": ""
        },
        "OnDisarm": {
          "type": "resref",
          "value": ""
        },
        "OnHeartbeat": {
          "type": "resref",
          "value": ""
        },
        "OnInvDisturbed": {
          "type": "resref",
          "value": ""
        },
        "OnLock": {
          "type": "resref",
          "value": ""
        },
        "OnMeleeAttacked": {
          "type": "resref",
          "value": ""
        },
        "OnOpen": {
          "type": "resref",
          "value": ""
        },
        "OnSpellCastAt": {
          "type": "resref",
          "value": ""
        },
        "OnTrapTriggered": {
          "type": "resref",
          "value": ""
        },
        "OnUnlock": {
          "type": "resref",
          "value": ""
        },
        "OnUsed": {
          "type": "resref",
          "value": ""
        },
        "OnUserDefined": {
          "type": "resref",
          "value": ""
        },
        "OpenLockDC": {
          "type": "byte",
          "value": 0
        },
        "Plot": {
          "type": "byte",
          "value": 0
        },
        "PortraitId": {
          "type": "word",
          "value": 1199
        },
        "Ref": {
          "type": "byte",
          "value": 0
        },
        "Static": {
          "type": "byte",
          "value": 1
        },
        "Tag": {
          "type": "cexostring",
          "value": "x3_plc_flgstag4"
        },
        "TemplateResRef": {
          "type": "resref",
          "value": "x3_plc_flgstag4"
        },
        "TrapDetectable": {
          "type": "byte",
          "value": 1
        },
        "TrapDetectDC": {
          "type": "byte",
          "value": 0
        },
        "TrapDisarmable": {
          "type": "byte",
          "value": 1
        },
        "TrapFlag": {
          "type": "byte",
          "value": 0
        },
        "TrapOneShot": {
          "type": "byte",
          "value": 1
        },
        "TrapType": {
          "type": "byte",
          "value": 0
        },
        "Type": {
          "type": "byte",
          "value": 0
        },
        "Useable": {
          "type": "byte",
          "value": 0
        },
        "Will": {
          "type": "byte",
          "value": 0
        },
        "X": {
          "type": "float",
          "value": 16.3371
        },
        "Y": {
          "type": "float",
          "value": 27.5298
        },
        "Z": {
          "type": "float",
          "value": 5.0
        }
      },
      {
        "__struct_id": 9,
        "AnimationState": {
          "type": "byte",
          "value": 0
        },
        "Appearance": {
          "type": "dword",
          "value": 700
        },
        "AutoRemoveKey": {
          "type": "byte",
          "value": 0
        },
        "Bearing": {
          "type": "float",
          "value": 0.0245
        },
        "BodyBag": {
          "type": "byte",
          "value": 0
        },
        "CloseLockDC": {
          "type": "byte",
          "value": 0
        },
        "Conversation": {
          "type": "resref",
          "value": ""
        },
        "CurrentHP": {
          "type": "short",
          "value": 10
        },
        "Description": {
          "id": 6792,
          "type": "cexolocstring",
          "value": {}
        },
        "DisarmDC": {
          "type": "byte",
          "value": 0
        },
        "Faction": {
          "type": "dword",
          "value": 1
        },
        "Fort": {
          "type": "byte",
          "value": 5
        },
        "Hardness": {
          "type": "byte",
          "value": 5
        },
        "HasInventory": {
          "type": "byte",
          "value": 0
        },
        "HP": {
          "type": "short",
          "value": 10
        },
        "Interruptable": {
          "type": "byte",
          "value": 1
        },
        "KeyName": {
          "type": "cexostring",
          "value": ""
        },
        "KeyRequired": {
          "type": "byte",
          "value": 0
        },
        "Lockable": {
          "type": "byte",
          "value": 1
        },
        "Locked": {
          "type": "byte",
          "value": 0
        },
        "LocName": {
          "id": 111223,
          "type": "cexolocstring",
          "value": {}
        },
        "OnClick": {
          "type": "resref",
          "value": ""
        },
        "OnClosed": {
          "type": "resref",
          "value": ""
        },
        "OnDamaged": {
          "type": "resref",
          "value": ""
        },
        "OnDeath": {
          "type": "resref",
          "value": ""
        },
        "OnDisarm": {
          "type": "resref",
          "value": ""
        },
        "OnHeartbeat": {
          "type": "resref",
          "value": ""
        },
        "OnInvDisturbed": {
          "type": "resref",
          "value": ""
        },
        "OnLock": {
          "type": "resref",
          "value": ""
        },
        "OnMeleeAttacked": {
          "type": "resref",
          "value": ""
        },
        "OnOpen": {
          "type": "resref",
          "value": ""
        },
        "OnSpellCastAt": {
          "type": "resref",
          "value": ""
        },
        "OnTrapTriggered": {
          "type": "resref",
          "value": ""
        },
        "OnUnlock": {
          "type": "resref",
          "value": ""
        },
        "OnUsed": {
          "type": "resref",
          "value": ""
        },
        "OnUserDefined": {
          "type": "resref",
          "value": ""
        },
        "OpenLockDC": {
          "type": "byte",
          "value": 0
        },
        "Plot": {
          "type": "byte",
          "value": 0
        },
        "PortraitId": {
          "type": "word",
          "value": 1199
        },
        "Ref": {
          "type": "byte",
          "value": 0
        },
        "Static": {
          "type": "byte",
          "value": 1
        },
        "Tag": {
          "type": "cexostring",
          "value": "x3_plc_flgstag4"
        },
        "TemplateResRef": {
          "type": "resref",
          "value": "x3_plc_flgstag4"
        },
        "TrapDetectable": {
          "type": "byte",
          "value": 1
        },
        "TrapDetectDC": {
          "type": "byte",
          "value": 0
        },
        "TrapDisarmable": {
          "type": "byte",
          "value": 1
        },
        "TrapFlag": {
          "type": "byte",
          "value": 0
        },
        "TrapOneShot": {
          "type": "byte",
          "value": 1
        },
        "TrapType": {
          "type": "byte",
          "value": 0
        },
        "Type": {
          "type": "byte",
          "value": 0
        },
        "Useable": {
          "type": "byte",
          "value": 0
        },
        "Will": {
          "type": "byte",
          "value": 0
        },
        "X": {
          "type": "float",
          "value": 17.8487
        },
        "Y": {
          "type": "float",
          "value": 22.0231
        },
        "Z": {
          "type": "float",
          "value": 8.199999999999999
        }
      },
      {
        "__struct_id": 9,
        "AnimationState": {
          "type": "byte",
          "value": 0
        },
        "Appearance": {
          "type": "dword",
          "value": 700
        },
        "AutoRemoveKey": {
          "type": "byte",
          "value": 0
        },
        "Bearing": {
          "type": "float",
          "value": 0.0245
        },
        "BodyBag": {
          "type": "byte",
          "value": 0
        },
        "CloseLockDC": {
          "type": "byte",
          "value": 0
        },
        "Conversation": {
          "type": "resref",
          "value": ""
        },
        "CurrentHP": {
          "type": "short",
          "value": 10
        },
        "Description": {
          "id": 6792,
          "type": "cexolocstring",
          "value": {}
        },
        "DisarmDC": {
          "type": "byte",
          "value": 0
        },
        "Faction": {
          "type": "dword",
          "value": 1
        },
        "Fort": {
          "type": "byte",
          "value": 5
        },
        "Hardness": {
          "type": "byte",
          "value": 5
        },
        "HasInventory": {
          "type": "byte",
          "value": 0
        },
        "HP": {
          "type": "short",
          "value": 10
        },
        "Interruptable": {
          "type": "byte",
          "value": 1
        },
        "KeyName": {
          "type": "cexostring",
          "value": ""
        },
        "KeyRequired": {
          "type": "byte",
          "value": 0
        },
        "Lockable": {
          "type": "byte",
          "value": 1
        },
        "Locked": {
          "type": "byte",
          "value": 0
        },
        "LocName": {
          "id": 111223,
          "type": "cexolocstring",
          "value": {}
        },
        "OnClick": {
          "type": "resref",
          "value": ""
        },
        "OnClosed": {
          "type": "resref",
          "value": ""
        },
        "OnDamaged": {
          "type": "resref",
          "value": ""
        },
        "OnDeath": {
          "type": "resref",
          "value": ""
        },
        "OnDisarm": {
          "type": "resref",
          "value": ""
        },
        "OnHeartbeat": {
          "type": "resref",
          "value": ""
        },
        "OnInvDisturbed": {
          "type": "resref",
          "value": ""
        },
        "OnLock": {
          "type": "resref",
          "value": ""
        },
        "OnMeleeAttacked": {
          "type": "resref",
          "value": ""
        },
        "OnOpen": {
          "type": "resref",
          "value": ""
        },
        "OnSpellCastAt": {
          "type": "resref",
          "value": ""
        },
        "OnTrapTriggered": {
          "type": "resref",
          "value": ""
        },
        "OnUnlock": {
          "type": "resref",
          "value": ""
        },
        "OnUsed": {
          "type": "resref",
          "value": ""
        },
        "OnUserDefined": {
          "type": "resref",
          "value": ""
        },
        "OpenLockDC": {
          "type": "byte",
          "value": 0
        },
        "Plot": {
          "type": "byte",
          "value": 0
        },
        "PortraitId": {
          "type": "word",
          "value": 1199
        },
        "Ref": {
          "type": "byte",
          "value": 0
        },
        "Static": {
          "type": "byte",
          "value": 1
        },
        "Tag": {
          "type": "cexostring",
          "value": "x3_plc_flgstag4"
        },
        "TemplateResRef": {
          "type": "resref",
          "value": "x3_plc_flgstag4"
        },
        "TrapDetectable": {
          "type": "byte",
          "value": 1
        },
        "TrapDetectDC": {
          "type": "byte",
          "value": 0
        },
        "TrapDisarmable": {
          "type": "byte",
          "value": 1
        },
        "TrapFlag": {
          "type": "byte",
          "value": 0
        },
        "TrapOneShot": {
          "type": "byte",
          "value": 1
        },
        "TrapType": {
          "type": "byte",
          "value": 0
        },
        "Type": {
          "type": "byte",
          "value": 0
        },
        "Useable": {
          "type": "byte",
          "value": 0
        },
        "Will": {
          "type": "byte",
          "value": 0
        },
        "X": {
          "type": "float",
          "value": 20.7034
        },
        "Y": {
          "type": "float",
          "value": 21.9581
        },
        "Z": {
          "type": "float",
          "value": 8.199999999999999
        }
      },
      {
        "__struct_id": 9,
        "AnimationState": {
          "type": "byte",
          "value": 0
        },
        "Appearance": {
          "type": "dword",
          "value": 15377
        },
        "AutoRemoveKey": {
          "type": "byte",
          "value": 0
        },
        "Bearing": {
          "type": "float",
          "value": -1.5708
        },
        "BodyBag": {
          "type": "byte",
          "value": 0
        },
        "CloseLockDC": {
          "type": "byte",
          "value": 0
        },
        "Conversation": {
          "type": "resref",
          "value": ""
        },
        "CurrentHP": {
          "type": "short",
          "value": 10
        },
        "Description": {
          "type": "cexolocstring",
          "value": {}
        },
        "DisarmDC": {
          "type": "byte",
          "value": 0
        },
        "Faction": {
          "type": "dword",
          "value": 1
        },
        "Fort": {
          "type": "byte",
          "value": 5
        },
        "Hardness": {
          "type": "byte",
          "value": 5
        },
        "HasInventory": {
          "type": "byte",
          "value": 0
        },
        "HP": {
          "type": "short",
          "value": 10
        },
        "Interruptable": {
          "type": "byte",
          "value": 1
        },
        "KeyName": {
          "type": "cexostring",
          "value": ""
        },
        "KeyRequired": {
          "type": "byte",
          "value": 0
        },
        "Lockable": {
          "type": "byte",
          "value": 1
        },
        "Locked": {
          "type": "byte",
          "value": 0
        },
        "LocName": {
          "type": "cexolocstring",
          "value": {
            "0": "Awning - Rough 1"
          }
        },
        "OnClick": {
          "type": "resref",
          "value": ""
        },
        "OnClosed": {
          "type": "resref",
          "value": ""
        },
        "OnDamaged": {
          "type": "resref",
          "value": ""
        },
        "OnDeath": {
          "type": "resref",
          "value": ""
        },
        "OnDisarm": {
          "type": "resref",
          "value": ""
        },
        "OnHeartbeat": {
          "type": "resref",
          "value": ""
        },
        "OnInvDisturbed": {
          "type": "resref",
          "value": ""
        },
        "OnLock": {
          "type": "resref",
          "value": ""
        },
        "OnMeleeAttacked": {
          "type": "resref",
          "value": ""
        },
        "OnOpen": {
          "type": "resref",
          "value": ""
        },
        "OnSpellCastAt": {
          "type": "resref",
          "value": ""
        },
        "OnTrapTriggered": {
          "type": "resref",
          "value": ""
        },
        "OnUnlock": {
          "type": "resref",
          "value": ""
        },
        "OnUsed": {
          "type": "resref",
          "value": ""
        },
        "OnUserDefined": {
          "type": "resref",
          "value": ""
        },
        "OpenLockDC": {
          "type": "byte",
          "value": 0
        },
        "Plot": {
          "type": "byte",
          "value": 0
        },
        "PortraitId": {
          "type": "word",
          "value": 15324
        },
        "Ref": {
          "type": "byte",
          "value": 0
        },
        "Static": {
          "type": "byte",
          "value": 1
        },
        "Tag": {
          "type": "cexostring",
          "value": "tm_pl_awningr1"
        },
        "TemplateResRef": {
          "type": "resref",
          "value": "tm_pl_awningr002"
        },
        "TrapDetectable": {
          "type": "byte",
          "value": 1
        },
        "TrapDetectDC": {
          "type": "byte",
          "value": 0
        },
        "TrapDisarmable": {
          "type": "byte",
          "value": 1
        },
        "TrapFlag": {
          "type": "byte",
          "value": 0
        },
        "TrapOneShot": {
          "type": "byte",
          "value": 1
        },
        "TrapType": {
          "type": "byte",
          "value": 0
        },
        "Type": {
          "type": "byte",
          "value": 0
        },
        "Useable": {
          "type": "byte",
          "value": 0
        },
        "Will": {
          "type": "byte",
          "value": 0
        },
        "X": {
          "type": "float",
          "value": 20.2283
        },
        "Y": {
          "type": "float",
          "value": 17.7085
        },
        "Z": {
          "type": "float",
          "value": 5.0
        }
      },
      {
        "__struct_id": 9,
        "AnimationState": {
          "type": "byte",
          "value": 0
        },
        "Appearance": {
          "type": "dword",
          "value": 48
        },
        "AutoRemoveKey": {
          "type": "byte",
          "value": 0
        },
        "Bearing": {
          "type": "float",
          "value": -1.5708
        },
        "BodyBag": {
          "type": "byte",
          "value": 0
        },
        "CloseLockDC": {
          "type": "byte",
          "value": 0
        },
        "Conversation": {
          "type": "resref",
          "value": ""
        },
        "CurrentHP": {
          "type": "short",
          "value": 15
        },
        "Description": {
          "id": 14546,
          "type": "cexolocstring",
          "value": {}
        },
        "DisarmDC": {
          "type": "byte",
          "value": 15
        },
        "Faction": {
          "type": "dword",
          "value": 1
        },
        "Fort": {
          "type": "byte",
          "value": 16
        },
        "Hardness": {
          "type": "byte",
          "value": 5
        },
        "HasInventory": {
          "type": "byte",
          "value": 0
        },
        "HP": {
          "type": "short",
          "value": 15
        },
        "Interruptable": {
          "type": "byte",
          "value": 1
        },
        "KeyName": {
          "type": "cexostring",
          "value": ""
        },
        "KeyRequired": {
          "type": "byte",
          "value": 0
        },
        "Lockable": {
          "type": "byte",
          "value": 0
        },
        "Locked": {
          "type": "byte",
          "value": 0
        },
        "LocName": {
          "id": 5690,
          "type": "cexolocstring",
          "value": {}
        },
        "OnClick": {
          "type": "resref",
          "value": ""
        },
        "OnClosed": {
          "type": "resref",
          "value": ""
        },
        "OnDamaged": {
          "type": "resref",
          "value": ""
        },
        "OnDeath": {
          "type": "resref",
          "value": ""
        },
        "OnDisarm": {
          "type": "resref",
          "value": ""
        },
        "OnHeartbeat": {
          "type": "resref",
          "value": ""
        },
        "OnInvDisturbed": {
          "type": "resref",
          "value": ""
        },
        "OnLock": {
          "type": "resref",
          "value": ""
        },
        "OnMeleeAttacked": {
          "type": "resref",
          "value": ""
        },
        "OnOpen": {
          "type": "resref",
          "value": ""
        },
        "OnSpellCastAt": {
          "type": "resref",
          "value": ""
        },
        "OnTrapTriggered": {
          "type": "resref",
          "value": ""
        },
        "OnUnlock": {
          "type": "resref",
          "value": ""
        },
        "OnUsed": {
          "type": "resref",
          "value": ""
        },
        "OnUserDefined": {
          "type": "resref",
          "value": ""
        },
        "OpenLockDC": {
          "type": "byte",
          "value": 18
        },
        "Plot": {
          "type": "byte",
          "value": 0
        },
        "PortraitId": {
          "type": "word",
          "value": 406
        },
        "Ref": {
          "type": "byte",
          "value": 0
        },
        "Static": {
          "type": "byte",
          "value": 1
        },
        "Tag": {
          "type": "cexostring",
          "value": "Anvil"
        },
        "TemplateResRef": {
          "type": "resref",
          "value": "plc_anvil"
        },
        "TrapDetectable": {
          "type": "byte",
          "value": 1
        },
        "TrapDetectDC": {
          "type": "byte",
          "value": 0
        },
        "TrapDisarmable": {
          "type": "byte",
          "value": 1
        },
        "TrapFlag": {
          "type": "byte",
          "value": 0
        },
        "TrapOneShot": {
          "type": "byte",
          "value": 1
        },
        "TrapType": {
          "type": "byte",
          "value": 0
        },
        "Type": {
          "type": "byte",
          "value": 0
        },
        "Useable": {
          "type": "byte",
          "value": 0
        },
        "Will": {
          "type": "byte",
          "value": 0
        },
        "X": {
          "type": "float",
          "value": 19.3741
        },
        "Y": {
          "type": "float",
          "value": 18.9861
        },
        "Z": {
          "type": "float",
          "value": 5.933
        }
      },
      {
        "__struct_id": 9,
        "AnimationState": {
          "type": "byte",
          "value": 0
        },
        "Appearance": {
          "type": "dword",
          "value": 48
        },
        "AutoRemoveKey": {
          "type": "byte",
          "value": 0
        },
        "Bearing": {
          "type": "float",
          "value": -1.5708
        },
        "BodyBag": {
          "type": "byte",
          "value": 0
        },
        "CloseLockDC": {
          "type": "byte",
          "value": 0
        },
        "Conversation": {
          "type": "resref",
          "value": ""
        },
        "CurrentHP": {
          "type": "short",
          "value": 15
        },
        "Description": {
          "id": 14546,
          "type": "cexolocstring",
          "value": {}
        },
        "DisarmDC": {
          "type": "byte",
          "value": 15
        },
        "Faction": {
          "type": "dword",
          "value": 1
        },
        "Fort": {
          "type": "byte",
          "value": 16
        },
        "Hardness": {
          "type": "byte",
          "value": 5
        },
        "HasInventory": {
          "type": "byte",
          "value": 0
        },
        "HP": {
          "type": "short",
          "value": 15
        },
        "Interruptable": {
          "type": "byte",
          "value": 1
        },
        "KeyName": {
          "type": "cexostring",
          "value": ""
        },
        "KeyRequired": {
          "type": "byte",
          "value": 0
        },
        "Lockable": {
          "type": "byte",
          "value": 0
        },
        "Locked": {
          "type": "byte",
          "value": 0
        },
        "LocName": {
          "id": 5690,
          "type": "cexolocstring",
          "value": {}
        },
        "OnClick": {
          "type": "resref",
          "value": ""
        },
        "OnClosed": {
          "type": "resref",
          "value": ""
        },
        "OnDamaged": {
          "type": "resref",
          "value": ""
        },
        "OnDeath": {
          "type": "resref",
          "value": ""
        },
        "OnDisarm": {
          "type": "resref",
          "value": ""
        },
        "OnHeartbeat": {
          "type": "resref",
          "value": ""
        },
        "OnInvDisturbed": {
          "type": "resref",
          "value": ""
        },
        "OnLock": {
          "type": "resref",
          "value": ""
        },
        "OnMeleeAttacked": {
          "type": "resref",
          "value": ""
        },
        "OnOpen": {
          "type": "resref",
          "value": ""
        },
        "OnSpellCastAt": {
          "type": "resref",
          "value": ""
        },
        "OnTrapTriggered": {
          "type": "resref",
          "value": ""
        },
        "OnUnlock": {
          "type": "resref",
          "value": ""
        },
        "OnUsed": {
          "type": "resref",
          "value": ""
        },
        "OnUserDefined": {
          "type": "resref",
          "value": ""
        },
        "OpenLockDC": {
          "type": "byte",
          "value": 18
        },
        "Plot": {
          "type": "byte",
          "value": 0
        },
        "PortraitId": {
          "type": "word",
          "value": 406
        },
        "Ref": {
          "type": "byte",
          "value": 0
        },
        "Static": {
          "type": "byte",
          "value": 1
        },
        "Tag": {
          "type": "cexostring",
          "value": "Anvil"
        },
        "TemplateResRef": {
          "type": "resref",
          "value": "plc_anvil"
        },
        "TrapDetectable": {
          "type": "byte",
          "value": 1
        },
        "TrapDetectDC": {
          "type": "byte",
          "value": 0
        },
        "TrapDisarmable": {
          "type": "byte",
          "value": 1
        },
        "TrapFlag": {
          "type": "byte",
          "value": 0
        },
        "TrapOneShot": {
          "type": "byte",
          "value": 1
        },
        "TrapType": {
          "type": "byte",
          "value": 0
        },
        "Type": {
          "type": "byte",
          "value": 0
        },
        "Useable": {
          "type": "byte",
          "value": 0
        },
        "Will": {
          "type": "byte",
          "value": 0
        },
        "X": {
          "type": "float",
          "value": 19.419
        },
        "Y": {
          "type": "float",
          "value": 16.8684
        },
        "Z": {
          "type": "float",
          "value": 5.9251
        }
      },
      {
        "__struct_id": 9,
        "AnimationState": {
          "type": "byte",
          "value": 0
        },
        "Appearance": {
          "type": "dword",
          "value": 135
        },
        "AutoRemoveKey": {
          "type": "byte",
          "value": 0
        },
        "Bearing": {
          "type": "float",
          "value": -1.5708
        },
        "BodyBag": {
          "type": "byte",
          "value": 0
        },
        "CloseLockDC": {
          "type": "byte",
          "value": 0
        },
        "Conversation": {
          "type": "resref",
          "value": ""
        },
        "CurrentHP": {
          "type": "short",
          "value": 15
        },
        "Description": {
          "id": 14693,
          "type": "cexolocstring",
          "value": {}
        },
        "DisarmDC": {
          "type": "byte",
          "value": 15
        },
        "Faction": {
          "type": "dword",
          "value": 1
        },
        "Fort": {
          "type": "byte",
          "value": 16
        },
        "Hardness": {
          "type": "byte",
          "value": 5
        },
        "HasInventory": {
          "type": "byte",
          "value": 0
        },
        "HP": {
          "type": "short",
          "value": 15
        },
        "Interruptable": {
          "type": "byte",
          "value": 1
        },
        "KeyName": {
          "type": "cexostring",
          "value": ""
        },
        "KeyRequired": {
          "type": "byte",
          "value": 0
        },
        "Lockable": {
          "type": "byte",
          "value": 0
        },
        "Locked": {
          "type": "byte",
          "value": 0
        },
        "LocName": {
          "id": 14688,
          "type": "cexolocstring",
          "value": {}
        },
        "OnClick": {
          "type": "resref",
          "value": ""
        },
        "OnClosed": {
          "type": "resref",
          "value": ""
        },
        "OnDamaged": {
          "type": "resref",
          "value": ""
        },
        "OnDeath": {
          "type": "resref",
          "value": ""
        },
        "OnDisarm": {
          "type": "resref",
          "value": ""
        },
        "OnHeartbeat": {
          "type": "resref",
          "value": ""
        },
        "OnInvDisturbed": {
          "type": "resref",
          "value": ""
        },
        "OnLock": {
          "type": "resref",
          "value": ""
        },
        "OnMeleeAttacked": {
          "type": "resref",
          "value": ""
        },
        "OnOpen": {
          "type": "resref",
          "value": ""
        },
        "OnSpellCastAt": {
          "type": "resref",
          "value": ""
        },
        "OnTrapTriggered": {
          "type": "resref",
          "value": ""
        },
        "OnUnlock": {
          "type": "resref",
          "value": ""
        },
        "OnUsed": {
          "type": "resref",
          "value": ""
        },
        "OnUserDefined": {
          "type": "resref",
          "value": ""
        },
        "OpenLockDC": {
          "type": "byte",
          "value": 18
        },
        "Plot": {
          "type": "byte",
          "value": 0
        },
        "PortraitId": {
          "type": "word",
          "value": 493
        },
        "Ref": {
          "type": "byte",
          "value": 0
        },
        "Static": {
          "type": "byte",
          "value": 1
        },
        "Tag": {
          "type": "cexostring",
          "value": "Freestanding Merchant's Placard - 6"
        },
        "TemplateResRef": {
          "type": "resref",
          "value": "plc_placard6"
        },
        "TrapDetectable": {
          "type": "byte",
          "value": 1
        },
        "TrapDetectDC": {
          "type": "byte",
          "value": 0
        },
        "TrapDisarmable": {
          "type": "byte",
          "value": 1
        },
        "TrapFlag": {
          "type": "byte",
          "value": 0
        },
        "TrapOneShot": {
          "type": "byte",
          "value": 1
        },
        "TrapType": {
          "type": "byte",
          "value": 0
        },
        "Type": {
          "type": "byte",
          "value": 0
        },
        "Useable": {
          "type": "byte",
          "value": 0
        },
        "Will": {
          "type": "byte",
          "value": 0
        },
        "X": {
          "type": "float",
          "value": 18.2339
        },
        "Y": {
          "type": "float",
          "value": 17.1747
        },
        "Z": {
          "type": "float",
          "value": 5.01
        }
      },
      {
        "__struct_id": 9,
        "AnimationState": {
          "type": "byte",
          "value": 0
        },
        "Appearance": {
          "type": "dword",
          "value": 131
        },
        "AutoRemoveKey": {
          "type": "byte",
          "value": 0
        },
        "Bearing": {
          "type": "float",
          "value": -1.5708
        },
        "BodyBag": {
          "type": "byte",
          "value": 0
        },
        "CloseLockDC": {
          "type": "byte",
          "value": 0
        },
        "Conversation": {
          "type": "resref",
          "value": ""
        },
        "CurrentHP": {
          "type": "short",
          "value": 15
        },
        "Description": {
          "id": 14689,
          "type": "cexolocstring",
          "value": {}
        },
        "DisarmDC": {
          "type": "byte",
          "value": 15
        },
        "Faction": {
          "type": "dword",
          "value": 1
        },
        "Fort": {
          "type": "byte",
          "value": 16
        },
        "Hardness": {
          "type": "byte",
          "value": 5
        },
        "HasInventory": {
          "type": "byte",
          "value": 0
        },
        "HP": {
          "type": "short",
          "value": 15
        },
        "Interruptable": {
          "type": "byte",
          "value": 1
        },
        "KeyName": {
          "type": "cexostring",
          "value": ""
        },
        "KeyRequired": {
          "type": "byte",
          "value": 0
        },
        "Lockable": {
          "type": "byte",
          "value": 0
        },
        "Locked": {
          "type": "byte",
          "value": 0
        },
        "LocName": {
          "id": 14688,
          "type": "cexolocstring",
          "value": {}
        },
        "OnClick": {
          "type": "resref",
          "value": ""
        },
        "OnClosed": {
          "type": "resref",
          "value": ""
        },
        "OnDamaged": {
          "type": "resref",
          "value": ""
        },
        "OnDeath": {
          "type": "resref",
          "value": ""
        },
        "OnDisarm": {
          "type": "resref",
          "value": ""
        },
        "OnHeartbeat": {
          "type": "resref",
          "value": ""
        },
        "OnInvDisturbed": {
          "type": "resref",
          "value": ""
        },
        "OnLock": {
          "type": "resref",
          "value": ""
        },
        "OnMeleeAttacked": {
          "type": "resref",
          "value": ""
        },
        "OnOpen": {
          "type": "resref",
          "value": ""
        },
        "OnSpellCastAt": {
          "type": "resref",
          "value": ""
        },
        "OnTrapTriggered": {
          "type": "resref",
          "value": ""
        },
        "OnUnlock": {
          "type": "resref",
          "value": ""
        },
        "OnUsed": {
          "type": "resref",
          "value": ""
        },
        "OnUserDefined": {
          "type": "resref",
          "value": ""
        },
        "OpenLockDC": {
          "type": "byte",
          "value": 18
        },
        "Plot": {
          "type": "byte",
          "value": 0
        },
        "PortraitId": {
          "type": "word",
          "value": 489
        },
        "Ref": {
          "type": "byte",
          "value": 0
        },
        "Static": {
          "type": "byte",
          "value": 1
        },
        "Tag": {
          "type": "cexostring",
          "value": "Freestanding Merchant's Placard - 2"
        },
        "TemplateResRef": {
          "type": "resref",
          "value": "plc_placard2"
        },
        "TrapDetectable": {
          "type": "byte",
          "value": 1
        },
        "TrapDetectDC": {
          "type": "byte",
          "value": 0
        },
        "TrapDisarmable": {
          "type": "byte",
          "value": 1
        },
        "TrapFlag": {
          "type": "byte",
          "value": 0
        },
        "TrapOneShot": {
          "type": "byte",
          "value": 1
        },
        "TrapType": {
          "type": "byte",
          "value": 0
        },
        "Type": {
          "type": "byte",
          "value": 0
        },
        "Useable": {
          "type": "byte",
          "value": 0
        },
        "Will": {
          "type": "byte",
          "value": 0
        },
        "X": {
          "type": "float",
          "value": 18.1499
        },
        "Y": {
          "type": "float",
          "value": 19.4181
        },
        "Z": {
          "type": "float",
          "value": 5.0
        }
      }
    ]
  },
  "SoundList": {
    "type": "list",
    "value": []
  },
  "StoreList": {
    "type": "list",
    "value": []
  },
  "TriggerList": {
    "type": "list",
    "value": [
      {
        "__struct_id": 1,
        "AutoRemoveKey": {
          "type": "byte",
          "value": 0
        },
        "Cursor": {
          "type": "byte",
          "value": 1
        },
        "DisarmDC": {
          "type": "byte",
          "value": 10
        },
        "Faction": {
          "type": "dword",
          "value": 1
        },
        "Geometry": {
          "type": "list",
          "value": [
            {
              "__struct_id": 3,
              "PointX": {
                "type": "float",
                "value": -0.0111
              },
              "PointY": {
                "type": "float",
                "value": -0.9666
              },
              "PointZ": {
                "type": "float",
                "value": 5.0259
              }
            },
            {
              "__struct_id": 3,
              "PointX": {
                "type": "float",
                "value": 4.2122
              },
              "PointY": {
                "type": "float",
                "value": -0.9552
              },
              "PointZ": {
                "type": "float",
                "value": 5.025
              }
            },
            {
              "__struct_id": 3,
              "PointX": {
                "type": "float",
                "value": 4.2122
              },
              "PointY": {
                "type": "float",
                "value": -0.0115
              },
              "PointZ": {
                "type": "float",
                "value": 5.025
              }
            },
            {
              "__struct_id": 3,
              "PointX": {
                "type": "float",
                "value": 0.0
              },
              "PointY": {
                "type": "float",
                "value": 0.0
              },
              "PointZ": {
                "type": "float",
                "value": 5.0243
              }
            }
          ]
        },
        "HighlightHeight": {
          "type": "float",
          "value": 3.0
        },
        "KeyName": {
          "type": "cexostring",
          "value": ""
        },
        "LinkedTo": {
          "type": "cexostring",
          "value": ""
        },
        "LinkedToFlags": {
          "type": "byte",
          "value": 0
        },
        "LoadScreenID": {
          "type": "word",
          "value": 0
        },
        "LocalizedName": {
          "type": "cexolocstring",
          "value": {
            "0": "Area Transition - Facility exit"
          }
        },
        "OnClick": {
          "type": "resref",
          "value": "tri_facexit"
        },
        "OnDisarm": {
          "type": "resref",
          "value": ""
        },
        "OnTrapTriggered": {
          "type": "resref",
          "value": ""
        },
        "PortraitId": {
          "type": "word",
          "value": 0
        },
        "ScriptHeartbeat": {
          "type": "resref",
          "value": ""
        },
        "ScriptOnEnter": {
          "type": "resref",
          "value": "tri_facexit"
        },
        "ScriptOnExit": {
          "type": "resref",
          "value": ""
        },
        "ScriptUserDefine": {
          "type": "resref",
          "value": ""
        },
        "Tag": {
          "type": "cexostring",
          "value": "tri_go_facexit"
        },
        "TemplateResRef": {
          "type": "resref",
          "value": "tri_go_facexit"
        },
        "TrapDetectable": {
          "type": "byte",
          "value": 1
        },
        "TrapDetectDC": {
          "type": "byte",
          "value": 10
        },
        "TrapDisarmable": {
          "type": "byte",
          "value": 1
        },
        "TrapFlag": {
          "type": "byte",
          "value": 0
        },
        "TrapOneShot": {
          "type": "byte",
          "value": 1
        },
        "TrapType": {
          "type": "byte",
          "value": 0
        },
        "Type": {
          "type": "int",
          "value": 1
        },
        "XOrientation": {
          "type": "float",
          "value": 0.0
        },
        "XPosition": {
          "type": "float",
          "value": 2.921
        },
        "YOrientation": {
          "type": "float",
          "value": 0.0
        },
        "YPosition": {
          "type": "float",
          "value": 1.0171
        },
        "ZOrientation": {
          "type": "float",
          "value": 0.0
        },
        "ZPosition": {
          "type": "float",
          "value": 0.0
        }
      }
    ]
  },
  "WaypointList": {
    "type": "list",
    "value": [
      {
        "__struct_id": 5,
        "Appearance": {
          "type": "byte",
          "value": 1
        },
        "Description": {
          "type": "cexolocstring",
          "value": {}
        },
        "HasMapNote": {
          "type": "byte",
          "value": 1
        },
        "LinkedTo": {
          "type": "cexostring",
          "value": ""
        },
        "LocalizedName": {
          "type": "cexolocstring",
          "value": {
            "0": "Facility Exit"
          }
        },
        "MapNote": {
          "type": "cexolocstring",
          "value": {
            "0": "Town",
            "10": "Miasto"
          }
        },
        "MapNoteEnabled": {
          "type": "byte",
          "value": 1
        },
        "Tag": {
          "type": "cexostring",
          "value": "wp_facexit"
        },
        "TemplateResRef": {
          "type": "resref",
          "value": "wp_facexit"
        },
        "XOrientation": {
          "type": "float",
          "value": 0.0245
        },
        "XPosition": {
          "type": "float",
          "value": 4.9419
        },
        "YOrientation": {
          "type": "float",
          "value": 0.9997
        },
        "YPosition": {
          "type": "float",
          "value": 2.1421
        },
        "ZPosition": {
          "type": "float",
          "value": 4.8968
        }
      },
      {
        "__struct_id": 5,
        "Appearance": {
          "type": "byte",
          "value": 1
        },
        "Description": {
          "type": "cexolocstring",
          "value": {}
        },
        "HasMapNote": {
          "type": "byte",
          "value": 1
        },
        "LinkedTo": {
          "type": "cexostring",
          "value": ""
        },
        "LocalizedName": {
          "id": 14814,
          "type": "cexolocstring",
          "value": {}
        },
        "MapNote": {
          "id": 14815,
          "type": "cexolocstring",
          "value": {
            "0": "Armory",
            "10": "Zbrojownia"
          }
        },
        "MapNoteEnabled": {
          "type": "byte",
          "value": 1
        },
        "Tag": {
          "type": "cexostring",
          "value": "wp_armoryentrance"
        },
        "TemplateResRef": {
          "type": "resref",
          "value": "nw_mapnote001"
        },
        "XOrientation": {
          "type": "float",
          "value": -0.0736
        },
        "XPosition": {
          "type": "float",
          "value": 19.2195
        },
        "YOrientation": {
          "type": "float",
          "value": -0.9973
        },
        "YPosition": {
          "type": "float",
          "value": 21.8581
        },
        "ZPosition": {
          "type": "float",
          "value": 8.199999999999999
        }
      }
    ]
  }
}
