{
  "__data_type": "ARE ",
  "ChanceLightning": {
    "type": "int",
    "value": 0
  },
  "ChanceRain": {
    "type": "int",
    "value": 0
  },
  "ChanceSnow": {
    "type": "int",
    "value": 0
  },
  "Comments": {
    "type": "cexostring",
    "value": ""
  },
  "Creator_ID": {
    "type": "int",
    "value": -1
  },
  "DayNightCycle": {
    "type": "byte",
    "value": 1
  },
  "Expansion_List": {
    "type": "list",
    "value": []
  },
  "Flags": {
    "type": "dword",
    "value": 4
  },
  "FogClipDist": {
    "type": "float",
    "value": 45.0
  },
  "Height": {
    "type": "int",
    "value": 8
  },
  "ID": {
    "type": "int",
    "value": -1
  },
  "IsNight": {
    "type": "byte",
    "value": 0
  },
  "LightingScheme": {
    "type": "byte",
    "value": 0
  },
  "LoadScreenID": {
    "type": "word",
    "value": 64
  },
  "ModListenCheck": {
    "type": "int",
    "value": 0
  },
  "ModSpotCheck": {
    "type": "int",
    "value": 0
  },
  "MoonAmbientColor": {
    "type": "dword",
    "value": 0
  },
  "MoonDiffuseColor": {
    "type": "dword",
    "value": 13132900
  },
  "MoonFogAmount": {
    "type": "byte",
    "value": 0
  },
  "MoonFogColor": {
    "type": "dword",
    "value": 6566450
  },
  "MoonShadows": {
    "type": "byte",
    "value": 1
  },
  "Name": {
    "type": "cexolocstring",
    "value": {
      "0": "halvil_02_02"
    }
  },
  "NoRest": {
    "type": "byte",
    "value": 1
  },
  "OnEnter": {
    "type": "resref",
    "value": ""
  },
  "OnExit": {
    "type": "resref",
    "value": ""
  },
  "OnHeartbeat": {
    "type": "resref",
    "value": ""
  },
  "OnUserDefined": {
    "type": "resref",
    "value": ""
  },
  "PlayerVsPlayer": {
    "type": "byte",
    "value": 3
  },
  "ResRef": {
    "type": "resref",
    "value": "halvil_02_02"
  },
  "ShadowOpacity": {
    "type": "byte",
    "value": 50
  },
  "SkyBox": {
    "type": "byte",
    "value": 0
  },
  "SunAmbientColor": {
    "type": "dword",
    "value": 6566450
  },
  "SunDiffuseColor": {
    "type": "dword",
    "value": 16777215
  },
  "SunFogAmount": {
    "type": "byte",
    "value": 0
  },
  "SunFogColor": {
    "type": "dword",
    "value": 9535080
  },
  "SunShadows": {
    "type": "byte",
    "value": 1
  },
  "Tag": {
    "type": "cexostring",
    "value": "halvil_02_02"
  },
  "Tile_List": {
    "type": "list",
    "value": [
      {
        "__struct_id": 1,
        "Tile_AnimLoop1": {
          "type": "byte",
          "value": 1
        },
        "Tile_AnimLoop2": {
          "type": "byte",
          "value": 1
        },
        "Tile_AnimLoop3": {
          "type": "byte",
          "value": 1
        },
        "Tile_Height": {
          "type": "int",
          "value": 1
        },
        "Tile_ID": {
          "type": "int",
          "value": 249
        },
        "Tile_MainLight1": {
          "type": "byte",
          "value": 0
        },
        "Tile_MainLight2": {
          "type": "byte",
          "value": 0
        },
        "Tile_Orientation": {
          "type": "int",
          "value": 3
        },
        "Tile_SrcLight1": {
          "type": "byte",
          "value": 0
        },
        "Tile_SrcLight2": {
          "type": "byte",
          "value": 0
        }
      },
      {
        "__struct_id": 1,
        "Tile_AnimLoop1": {
          "type": "byte",
          "value": 1
        },
        "Tile_AnimLoop2": {
          "type": "byte",
          "value": 1
        },
        "Tile_AnimLoop3": {
          "type": "byte",
          "value": 1
        },
        "Tile_Height": {
          "type": "int",
          "value": 1
        },
        "Tile_ID": {
          "type": "int",
          "value": 115
        },
        "Tile_MainLight1": {
          "type": "byte",
          "value": 0
        },
        "Tile_MainLight2": {
          "type": "byte",
          "value": 0
        },
        "Tile_Orientation": {
          "type": "int",
          "value": 1
        },
        "Tile_SrcLight1": {
          "type": "byte",
          "value": 0
        },
        "Tile_SrcLight2": {
          "type": "byte",
          "value": 0
        }
      },
      {
        "__struct_id": 1,
        "Tile_AnimLoop1": {
          "type": "byte",
          "value": 1
        },
        "Tile_AnimLoop2": {
          "type": "byte",
          "value": 1
        },
        "Tile_AnimLoop3": {
          "type": "byte",
          "value": 1
        },
        "Tile_Height": {
          "type": "int",
          "value": 0
        },
        "Tile_ID": {
          "type": "int",
          "value": 110
        },
        "Tile_MainLight1": {
          "type": "byte",
          "value": 0
        },
        "Tile_MainLight2": {
          "type": "byte",
          "value": 0
        },
        "Tile_Orientation": {
          "type": "int",
          "value": 2
        },
        "Tile_SrcLight1": {
          "type": "byte",
          "value": 0
        },
        "Tile_SrcLight2": {
          "type": "byte",
          "value": 0
        }
      },
      {
        "__struct_id": 1,
        "Tile_AnimLoop1": {
          "type": "byte",
          "value": 1
        },
        "Tile_AnimLoop2": {
          "type": "byte",
          "value": 1
        },
        "Tile_AnimLoop3": {
          "type": "byte",
          "value": 1
        },
        "Tile_Height": {
          "type": "int",
          "value": 0
        },
        "Tile_ID": {
          "type": "int",
          "value": 252
        },
        "Tile_MainLight1": {
          "type": "byte",
          "value": 0
        },
        "Tile_MainLight2": {
          "type": "byte",
          "value": 0
        },
        "Tile_Orientation": {
          "type": "int",
          "value": 1
        },
        "Tile_SrcLight1": {
          "type": "byte",
          "value": 0
        },
        "Tile_SrcLight2": {
          "type": "byte",
          "value": 0
        }
      },
      {
        "__struct_id": 1,
        "Tile_AnimLoop1": {
          "type": "byte",
          "value": 1
        },
        "Tile_AnimLoop2": {
          "type": "byte",
          "value": 1
        },
        "Tile_AnimLoop3": {
          "type": "byte",
          "value": 1
        },
        "Tile_Height": {
          "type": "int",
          "value": 0
        },
        "Tile_ID": {
          "type": "int",
          "value": 16
        },
        "Tile_MainLight1": {
          "type": "byte",
          "value": 0
        },
        "Tile_MainLight2": {
          "type": "byte",
          "value": 0
        },
        "Tile_Orientation": {
          "type": "int",
          "value": 3
        },
        "Tile_SrcLight1": {
          "type": "byte",
          "value": 0
        },
        "Tile_SrcLight2": {
          "type": "byte",
          "value": 0
        }
      },
      {
        "__struct_id": 1,
        "Tile_AnimLoop1": {
          "type": "byte",
          "value": 1
        },
        "Tile_AnimLoop2": {
          "type": "byte",
          "value": 1
        },
        "Tile_AnimLoop3": {
          "type": "byte",
          "value": 1
        },
        "Tile_Height": {
          "type": "int",
          "value": 0
        },
        "Tile_ID": {
          "type": "int",
          "value": 911
        },
        "Tile_MainLight1": {
          "type": "byte",
          "value": 0
        },
        "Tile_MainLight2": {
          "type": "byte",
          "value": 0
        },
        "Tile_Orientation": {
          "type": "int",
          "value": 3
        },
        "Tile_SrcLight1": {
          "type": "byte",
          "value": 0
        },
        "Tile_SrcLight2": {
          "type": "byte",
          "value": 0
        }
      },
      {
        "__struct_id": 1,
        "Tile_AnimLoop1": {
          "type": "byte",
          "value": 1
        },
        "Tile_AnimLoop2": {
          "type": "byte",
          "value": 1
        },
        "Tile_AnimLoop3": {
          "type": "byte",
          "value": 1
        },
        "Tile_Height": {
          "type": "int",
          "value": 0
        },
        "Tile_ID": {
          "type": "int",
          "value": 591
        },
        "Tile_MainLight1": {
          "type": "byte",
          "value": 0
        },
        "Tile_MainLight2": {
          "type": "byte",
          "value": 0
        },
        "Tile_Orientation": {
          "type": "int",
          "value": 3
        },
        "Tile_SrcLight1": {
          "type": "byte",
          "value": 0
        },
        "Tile_SrcLight2": {
          "type": "byte",
          "value": 0
        }
      },
      {
        "__struct_id": 1,
        "Tile_AnimLoop1": {
          "type": "byte",
          "value": 1
        },
        "Tile_AnimLoop2": {
          "type": "byte",
          "value": 1
        },
        "Tile_AnimLoop3": {
          "type": "byte",
          "value": 1
        },
        "Tile_Height": {
          "type": "int",
          "value": 0
        },
        "Tile_ID": {
          "type": "int",
          "value": 596
        },
        "Tile_MainLight1": {
          "type": "byte",
          "value": 0
        },
        "Tile_MainLight2": {
          "type": "byte",
          "value": 0
        },
        "Tile_Orientation": {
          "type": "int",
          "value": 2
        },
        "Tile_SrcLight1": {
          "type": "byte",
          "value": 0
        },
        "Tile_SrcLight2": {
          "type": "byte",
          "value": 0
        }
      },
      {
        "__struct_id": 1,
        "Tile_AnimLoop1": {
          "type": "byte",
          "value": 1
        },
        "Tile_AnimLoop2": {
          "type": "byte",
          "value": 1
        },
        "Tile_AnimLoop3": {
          "type": "byte",
          "value": 1
        },
        "Tile_Height": {
          "type": "int",
          "value": 0
        },
        "Tile_ID": {
          "type": "int",
          "value": 247
        },
        "Tile_MainLight1": {
          "type": "byte",
          "value": 0
        },
        "Tile_MainLight2": {
          "type": "byte",
          "value": 0
        },
        "Tile_Orientation": {
          "type": "int",
          "value": 2
        },
        "Tile_SrcLight1": {
          "type": "byte",
          "value": 0
        },
        "Tile_SrcLight2": {
          "type": "byte",
          "value": 0
        }
      },
      {
        "__struct_id": 1,
        "Tile_AnimLoop1": {
          "type": "byte",
          "value": 1
        },
        "Tile_AnimLoop2": {
          "type": "byte",
          "value": 1
        },
        "Tile_AnimLoop3": {
          "type": "byte",
          "value": 1
        },
        "Tile_Height": {
          "type": "int",
          "value": 0
        },
        "Tile_ID": {
          "type": "int",
          "value": 108
        },
        "Tile_MainLight1": {
          "type": "byte",
          "value": 0
        },
        "Tile_MainLight2": {
          "type": "byte",
          "value": 0
        },
        "Tile_Orientation": {
          "type": "int",
          "value": 3
        },
        "Tile_SrcLight1": {
          "type": "byte",
          "value": 0
        },
        "Tile_SrcLight2": {
          "type": "byte",
          "value": 0
        }
      },
      {
        "__struct_id": 1,
        "Tile_AnimLoop1": {
          "type": "byte",
          "value": 1
        },
        "Tile_AnimLoop2": {
          "type": "byte",
          "value": 1
        },
        "Tile_AnimLoop3": {
          "type": "byte",
          "value": 1
        },
        "Tile_Height": {
          "type": "int",
          "value": 0
        },
        "Tile_ID": {
          "type": "int",
          "value": 111
        },
        "Tile_MainLight1": {
          "type": "byte",
          "value": 0
        },
        "Tile_MainLight2": {
          "type": "byte",
          "value": 0
        },
        "Tile_Orientation": {
          "type": "int",
          "value": 2
        },
        "Tile_SrcLight1": {
          "type": "byte",
          "value": 0
        },
        "Tile_SrcLight2": {
          "type": "byte",
          "value": 0
        }
      },
      {
        "__struct_id": 1,
        "Tile_AnimLoop1": {
          "type": "byte",
          "value": 1
        },
        "Tile_AnimLoop2": {
          "type": "byte",
          "value": 1
        },
        "Tile_AnimLoop3": {
          "type": "byte",
          "value": 1
        },
        "Tile_Height": {
          "type": "int",
          "value": 0
        },
        "Tile_ID": {
          "type": "int",
          "value": 12
        },
        "Tile_MainLight1": {
          "type": "byte",
          "value": 0
        },
        "Tile_MainLight2": {
          "type": "byte",
          "value": 0
        },
        "Tile_Orientation": {
          "type": "int",
          "value": 3
        },
        "Tile_SrcLight1": {
          "type": "byte",
          "value": 0
        },
        "Tile_SrcLight2": {
          "type": "byte",
          "value": 0
        }
      },
      {
        "__struct_id": 1,
        "Tile_AnimLoop1": {
          "type": "byte",
          "value": 1
        },
        "Tile_AnimLoop2": {
          "type": "byte",
          "value": 1
        },
        "Tile_AnimLoop3": {
          "type": "byte",
          "value": 1
        },
        "Tile_Height": {
          "type": "int",
          "value": 0
        },
        "Tile_ID": {
          "type": "int",
          "value": 76
        },
        "Tile_MainLight1": {
          "type": "byte",
          "value": 0
        },
        "Tile_MainLight2": {
          "type": "byte",
          "value": 0
        },
        "Tile_Orientation": {
          "type": "int",
          "value": 0
        },
        "Tile_SrcLight1": {
          "type": "byte",
          "value": 0
        },
        "Tile_SrcLight2": {
          "type": "byte",
          "value": 0
        }
      },
      {
        "__struct_id": 1,
        "Tile_AnimLoop1": {
          "type": "byte",
          "value": 1
        },
        "Tile_AnimLoop2": {
          "type": "byte",
          "value": 1
        },
        "Tile_AnimLoop3": {
          "type": "byte",
          "value": 1
        },
        "Tile_Height": {
          "type": "int",
          "value": 0
        },
        "Tile_ID": {
          "type": "int",
          "value": 910
        },
        "Tile_MainLight1": {
          "type": "byte",
          "value": 0
        },
        "Tile_MainLight2": {
          "type": "byte",
          "value": 0
        },
        "Tile_Orientation": {
          "type": "int",
          "value": 3
        },
        "Tile_SrcLight1": {
          "type": "byte",
          "value": 0
        },
        "Tile_SrcLight2": {
          "type": "byte",
          "value": 0
        }
      },
      {
        "__struct_id": 1,
        "Tile_AnimLoop1": {
          "type": "byte",
          "value": 1
        },
        "Tile_AnimLoop2": {
          "type": "byte",
          "value": 1
        },
        "Tile_AnimLoop3": {
          "type": "byte",
          "value": 1
        },
        "Tile_Height": {
          "type": "int",
          "value": 0
        },
        "Tile_ID": {
          "type": "int",
          "value": 606
        },
        "Tile_MainLight1": {
          "type": "byte",
          "value": 0
        },
        "Tile_MainLight2": {
          "type": "byte",
          "value": 0
        },
        "Tile_Orientation": {
          "type": "int",
          "value": 3
        },
        "Tile_SrcLight1": {
          "type": "byte",
          "value": 0
        },
        "Tile_SrcLight2": {
          "type": "byte",
          "value": 0
        }
      },
      {
        "__struct_id": 1,
        "Tile_AnimLoop1": {
          "type": "byte",
          "value": 1
        },
        "Tile_AnimLoop2": {
          "type": "byte",
          "value": 1
        },
        "Tile_AnimLoop3": {
          "type": "byte",
          "value": 1
        },
        "Tile_Height": {
          "type": "int",
          "value": 0
        },
        "Tile_ID": {
          "type": "int",
          "value": 595
        },
        "Tile_MainLight1": {
          "type": "byte",
          "value": 0
        },
        "Tile_MainLight2": {
          "type": "byte",
          "value": 0
        },
        "Tile_Orientation": {
          "type": "int",
          "value": 1
        },
        "Tile_SrcLight1": {
          "type": "byte",
          "value": 0
        },
        "Tile_SrcLight2": {
          "type": "byte",
          "value": 0
        }
      },
      {
        "__struct_id": 1,
        "Tile_AnimLoop1": {
          "type": "byte",
          "value": 1
        },
        "Tile_AnimLoop2": {
          "type": "byte",
          "value": 1
        },
        "Tile_AnimLoop3": {
          "type": "byte",
          "value": 1
        },
        "Tile_Height": {
          "type": "int",
          "value": 0
        },
        "Tile_ID": {
          "type": "int",
          "value": 251
        },
        "Tile_MainLight1": {
          "type": "byte",
          "value": 0
        },
        "Tile_MainLight2": {
          "type": "byte",
          "value": 0
        },
        "Tile_Orientation": {
          "type": "int",
          "value": 1
        },
        "Tile_SrcLight1": {
          "type": "byte",
          "value": 0
        },
        "Tile_SrcLight2": {
          "type": "byte",
          "value": 0
        }
      },
      {
        "__struct_id": 1,
        "Tile_AnimLoop1": {
          "type": "byte",
          "value": 1
        },
        "Tile_AnimLoop2": {
          "type": "byte",
          "value": 1
        },
        "Tile_AnimLoop3": {
          "type": "byte",
          "value": 1
        },
        "Tile_Height": {
          "type": "int",
          "value": 0
        },
        "Tile_ID": {
          "type": "int",
          "value": 117
        },
        "Tile_MainLight1": {
          "type": "byte",
          "value": 0
        },
        "Tile_MainLight2": {
          "type": "byte",
          "value": 0
        },
        "Tile_Orientation": {
          "type": "int",
          "value": 2
        },
        "Tile_SrcLight1": {
          "type": "byte",
          "value": 0
        },
        "Tile_SrcLight2": {
          "type": "byte",
          "value": 0
        }
      },
      {
        "__struct_id": 1,
        "Tile_AnimLoop1": {
          "type": "byte",
          "value": 1
        },
        "Tile_AnimLoop2": {
          "type": "byte",
          "value": 1
        },
        "Tile_AnimLoop3": {
          "type": "byte",
          "value": 1
        },
        "Tile_Height": {
          "type": "int",
          "value": 0
        },
        "Tile_ID": {
          "type": "int",
          "value": 117
        },
        "Tile_MainLight1": {
          "type": "byte",
          "value": 0
        },
        "Tile_MainLight2": {
          "type": "byte",
          "value": 0
        },
        "Tile_Orientation": {
          "type": "int",
          "value": 1
        },
        "Tile_SrcLight1": {
          "type": "byte",
          "value": 0
        },
        "Tile_SrcLight2": {
          "type": "byte",
          "value": 0
        }
      },
      {
        "__struct_id": 1,
        "Tile_AnimLoop1": {
          "type": "byte",
          "value": 1
        },
        "Tile_AnimLoop2": {
          "type": "byte",
          "value": 1
        },
        "Tile_AnimLoop3": {
          "type": "byte",
          "value": 1
        },
        "Tile_Height": {
          "type": "int",
          "value": 0
        },
        "Tile_ID": {
          "type": "int",
          "value": 18
        },
        "Tile_MainLight1": {
          "type": "byte",
          "value": 0
        },
        "Tile_MainLight2": {
          "type": "byte",
          "value": 0
        },
        "Tile_Orientation": {
          "type": "int",
          "value": 3
        },
        "Tile_SrcLight1": {
          "type": "byte",
          "value": 0
        },
        "Tile_SrcLight2": {
          "type": "byte",
          "value": 0
        }
      },
      {
        "__struct_id": 1,
        "Tile_AnimLoop1": {
          "type": "byte",
          "value": 1
        },
        "Tile_AnimLoop2": {
          "type": "byte",
          "value": 1
        },
        "Tile_AnimLoop3": {
          "type": "byte",
          "value": 1
        },
        "Tile_Height": {
          "type": "int",
          "value": 0
        },
        "Tile_ID": {
          "type": "int",
          "value": 67
        },
        "Tile_MainLight1": {
          "type": "byte",
          "value": 0
        },
        "Tile_MainLight2": {
          "type": "byte",
          "value": 0
        },
        "Tile_Orientation": {
          "type": "int",
          "value": 1
        },
        "Tile_SrcLight1": {
          "type": "byte",
          "value": 0
        },
        "Tile_SrcLight2": {
          "type": "byte",
          "value": 0
        }
      },
      {
        "__struct_id": 1,
        "Tile_AnimLoop1": {
          "type": "byte",
          "value": 1
        },
        "Tile_AnimLoop2": {
          "type": "byte",
          "value": 1
        },
        "Tile_AnimLoop3": {
          "type": "byte",
          "value": 1
        },
        "Tile_Height": {
          "type": "int",
          "value": 0
        },
        "Tile_ID": {
          "type": "int",
          "value": 67
        },
        "Tile_MainLight1": {
          "type": "byte",
          "value": 0
        },
        "Tile_MainLight2": {
          "type": "byte",
          "value": 0
        },
        "Tile_Orientation": {
          "type": "int",
          "value": 3
        },
        "Tile_SrcLight1": {
          "type": "byte",
          "value": 0
        },
        "Tile_SrcLight2": {
          "type": "byte",
          "value": 0
        }
      },
      {
        "__struct_id": 1,
        "Tile_AnimLoop1": {
          "type": "byte",
          "value": 1
        },
        "Tile_AnimLoop2": {
          "type": "byte",
          "value": 1
        },
        "Tile_AnimLoop3": {
          "type": "byte",
          "value": 1
        },
        "Tile_Height": {
          "type": "int",
          "value": 0
        },
        "Tile_ID": {
          "type": "int",
          "value": 612
        },
        "Tile_MainLight1": {
          "type": "byte",
          "value": 0
        },
        "Tile_MainLight2": {
          "type": "byte",
          "value": 0
        },
        "Tile_Orientation": {
          "type": "int",
          "value": 3
        },
        "Tile_SrcLight1": {
          "type": "byte",
          "value": 0
        },
        "Tile_SrcLight2": {
          "type": "byte",
          "value": 0
        }
      },
      {
        "__struct_id": 1,
        "Tile_AnimLoop1": {
          "type": "byte",
          "value": 1
        },
        "Tile_AnimLoop2": {
          "type": "byte",
          "value": 1
        },
        "Tile_AnimLoop3": {
          "type": "byte",
          "value": 1
        },
        "Tile_Height": {
          "type": "int",
          "value": 0
        },
        "Tile_ID": {
          "type": "int",
          "value": 586
        },
        "Tile_MainLight1": {
          "type": "byte",
          "value": 0
        },
        "Tile_MainLight2": {
          "type": "byte",
          "value": 0
        },
        "Tile_Orientation": {
          "type": "int",
          "value": 3
        },
        "Tile_SrcLight1": {
          "type": "byte",
          "value": 0
        },
        "Tile_SrcLight2": {
          "type": "byte",
          "value": 0
        }
      },
      {
        "__struct_id": 1,
        "Tile_AnimLoop1": {
          "type": "byte",
          "value": 1
        },
        "Tile_AnimLoop2": {
          "type": "byte",
          "value": 1
        },
        "Tile_AnimLoop3": {
          "type": "byte",
          "value": 1
        },
        "Tile_Height": {
          "type": "int",
          "value": 0
        },
        "Tile_ID": {
          "type": "int",
          "value": 15
        },
        "Tile_MainLight1": {
          "type": "byte",
          "value": 0
        },
        "Tile_MainLight2": {
          "type": "byte",
          "value": 0
        },
        "Tile_Orientation": {
          "type": "int",
          "value": 0
        },
        "Tile_SrcLight1": {
          "type": "byte",
          "value": 0
        },
        "Tile_SrcLight2": {
          "type": "byte",
          "value": 0
        }
      },
      {
        "__struct_id": 1,
        "Tile_AnimLoop1": {
          "type": "byte",
          "value": 1
        },
        "Tile_AnimLoop2": {
          "type": "byte",
          "value": 1
        },
        "Tile_AnimLoop3": {
          "type": "byte",
          "value": 1
        },
        "Tile_Height": {
          "type": "int",
          "value": 0
        },
        "Tile_ID": {
          "type": "int",
          "value": 878
        },
        "Tile_MainLight1": {
          "type": "byte",
          "value": 0
        },
        "Tile_MainLight2": {
          "type": "byte",
          "value": 0
        },
        "Tile_Orientation": {
          "type": "int",
          "value": 3
        },
        "Tile_SrcLight1": {
          "type": "byte",
          "value": 0
        },
        "Tile_SrcLight2": {
          "type": "byte",
          "value": 0
        }
      },
      {
        "__struct_id": 1,
        "Tile_AnimLoop1": {
          "type": "byte",
          "value": 1
        },
        "Tile_AnimLoop2": {
          "type": "byte",
          "value": 1
        },
        "Tile_AnimLoop3": {
          "type": "byte",
          "value": 1
        },
        "Tile_Height": {
          "type": "int",
          "value": 0
        },
        "Tile_ID": {
          "type": "int",
          "value": 328
        },
        "Tile_MainLight1": {
          "type": "byte",
          "value": 0
        },
        "Tile_MainLight2": {
          "type": "byte",
          "value": 0
        },
        "Tile_Orientation": {
          "type": "int",
          "value": 2
        },
        "Tile_SrcLight1": {
          "type": "byte",
          "value": 0
        },
        "Tile_SrcLight2": {
          "type": "byte",
          "value": 0
        }
      },
      {
        "__struct_id": 1,
        "Tile_AnimLoop1": {
          "type": "byte",
          "value": 1
        },
        "Tile_AnimLoop2": {
          "type": "byte",
          "value": 1
        },
        "Tile_AnimLoop3": {
          "type": "byte",
          "value": 1
        },
        "Tile_Height": {
          "type": "int",
          "value": 0
        },
        "Tile_ID": {
          "type": "int",
          "value": 327
        },
        "Tile_MainLight1": {
          "type": "byte",
          "value": 0
        },
        "Tile_MainLight2": {
          "type": "byte",
          "value": 0
        },
        "Tile_Orientation": {
          "type": "int",
          "value": 2
        },
        "Tile_SrcLight1": {
          "type": "byte",
          "value": 0
        },
        "Tile_SrcLight2": {
          "type": "byte",
          "value": 0
        }
      },
      {
        "__struct_id": 1,
        "Tile_AnimLoop1": {
          "type": "byte",
          "value": 1
        },
        "Tile_AnimLoop2": {
          "type": "byte",
          "value": 1
        },
        "Tile_AnimLoop3": {
          "type": "byte",
          "value": 1
        },
        "Tile_Height": {
          "type": "int",
          "value": 0
        },
        "Tile_ID": {
          "type": "int",
          "value": 116
        },
        "Tile_MainLight1": {
          "type": "byte",
          "value": 0
        },
        "Tile_MainLight2": {
          "type": "byte",
          "value": 0
        },
        "Tile_Orientation": {
          "type": "int",
          "value": 3
        },
        "Tile_SrcLight1": {
          "type": "byte",
          "value": 0
        },
        "Tile_SrcLight2": {
          "type": "byte",
          "value": 0
        }
      },
      {
        "__struct_id": 1,
        "Tile_AnimLoop1": {
          "type": "byte",
          "value": 1
        },
        "Tile_AnimLoop2": {
          "type": "byte",
          "value": 1
        },
        "Tile_AnimLoop3": {
          "type": "byte",
          "value": 1
        },
        "Tile_Height": {
          "type": "int",
          "value": 0
        },
        "Tile_ID": {
          "type": "int",
          "value": 103
        },
        "Tile_MainLight1": {
          "type": "byte",
          "value": 0
        },
        "Tile_MainLight2": {
          "type": "byte",
          "value": 0
        },
        "Tile_Orientation": {
          "type": "int",
          "value": 1
        },
        "Tile_SrcLight1": {
          "type": "byte",
          "value": 0
        },
        "Tile_SrcLight2": {
          "type": "byte",
          "value": 0
        }
      },
      {
        "__struct_id": 1,
        "Tile_AnimLoop1": {
          "type": "byte",
          "value": 1
        },
        "Tile_AnimLoop2": {
          "type": "byte",
          "value": 1
        },
        "Tile_AnimLoop3": {
          "type": "byte",
          "value": 1
        },
        "Tile_Height": {
          "type": "int",
          "value": 0
        },
        "Tile_ID": {
          "type": "int",
          "value": 115
        },
        "Tile_MainLight1": {
          "type": "byte",
          "value": 0
        },
        "Tile_MainLight2": {
          "type": "byte",
          "value": 0
        },
        "Tile_Orientation": {
          "type": "int",
          "value": 0
        },
        "Tile_SrcLight1": {
          "type": "byte",
          "value": 0
        },
        "Tile_SrcLight2": {
          "type": "byte",
          "value": 0
        }
      },
      {
        "__struct_id": 1,
        "Tile_AnimLoop1": {
          "type": "byte",
          "value": 1
        },
        "Tile_AnimLoop2": {
          "type": "byte",
          "value": 1
        },
        "Tile_AnimLoop3": {
          "type": "byte",
          "value": 1
        },
        "Tile_Height": {
          "type": "int",
          "value": 0
        },
        "Tile_ID": {
          "type": "int",
          "value": 594
        },
        "Tile_MainLight1": {
          "type": "byte",
          "value": 0
        },
        "Tile_MainLight2": {
          "type": "byte",
          "value": 0
        },
        "Tile_Orientation": {
          "type": "int",
          "value": 2
        },
        "Tile_SrcLight1": {
          "type": "byte",
          "value": 0
        },
        "Tile_SrcLight2": {
          "type": "byte",
          "value": 0
        }
      },
      {
        "__struct_id": 1,
        "Tile_AnimLoop1": {
          "type": "byte",
          "value": 1
        },
        "Tile_AnimLoop2": {
          "type": "byte",
          "value": 1
        },
        "Tile_AnimLoop3": {
          "type": "byte",
          "value": 1
        },
        "Tile_Height": {
          "type": "int",
          "value": 0
        },
        "Tile_ID": {
          "type": "int",
          "value": 611
        },
        "Tile_MainLight1": {
          "type": "byte",
          "value": 0
        },
        "Tile_MainLight2": {
          "type": "byte",
          "value": 0
        },
        "Tile_Orientation": {
          "type": "int",
          "value": 1
        },
        "Tile_SrcLight1": {
          "type": "byte",
          "value": 0
        },
        "Tile_SrcLight2": {
          "type": "byte",
          "value": 0
        }
      },
      {
        "__struct_id": 1,
        "Tile_AnimLoop1": {
          "type": "byte",
          "value": 1
        },
        "Tile_AnimLoop2": {
          "type": "byte",
          "value": 1
        },
        "Tile_AnimLoop3": {
          "type": "byte",
          "value": 1
        },
        "Tile_Height": {
          "type": "int",
          "value": 0
        },
        "Tile_ID": {
          "type": "int",
          "value": 17
        },
        "Tile_MainLight1": {
          "type": "byte",
          "value": 0
        },
        "Tile_MainLight2": {
          "type": "byte",
          "value": 0
        },
        "Tile_Orientation": {
          "type": "int",
          "value": 2
        },
        "Tile_SrcLight1": {
          "type": "byte",
          "value": 0
        },
        "Tile_SrcLight2": {
          "type": "byte",
          "value": 0
        }
      },
      {
        "__struct_id": 1,
        "Tile_AnimLoop1": {
          "type": "byte",
          "value": 1
        },
        "Tile_AnimLoop2": {
          "type": "byte",
          "value": 1
        },
        "Tile_AnimLoop3": {
          "type": "byte",
          "value": 1
        },
        "Tile_Height": {
          "type": "int",
          "value": 0
        },
        "Tile_ID": {
          "type": "int",
          "value": 75
        },
        "Tile_MainLight1": {
          "type": "byte",
          "value": 0
        },
        "Tile_MainLight2": {
          "type": "byte",
          "value": 0
        },
        "Tile_Orientation": {
          "type": "int",
          "value": 3
        },
        "Tile_SrcLight1": {
          "type": "byte",
          "value": 0
        },
        "Tile_SrcLight2": {
          "type": "byte",
          "value": 0
        }
      },
      {
        "__struct_id": 1,
        "Tile_AnimLoop1": {
          "type": "byte",
          "value": 1
        },
        "Tile_AnimLoop2": {
          "type": "byte",
          "value": 1
        },
        "Tile_AnimLoop3": {
          "type": "byte",
          "value": 1
        },
        "Tile_Height": {
          "type": "int",
          "value": 0
        },
        "Tile_ID": {
          "type": "int",
          "value": 72
        },
        "Tile_MainLight1": {
          "type": "byte",
          "value": 0
        },
        "Tile_MainLight2": {
          "type": "byte",
          "value": 0
        },
        "Tile_Orientation": {
          "type": "int",
          "value": 3
        },
        "Tile_SrcLight1": {
          "type": "byte",
          "value": 0
        },
        "Tile_SrcLight2": {
          "type": "byte",
          "value": 0
        }
      },
      {
        "__struct_id": 1,
        "Tile_AnimLoop1": {
          "type": "byte",
          "value": 1
        },
        "Tile_AnimLoop2": {
          "type": "byte",
          "value": 1
        },
        "Tile_AnimLoop3": {
          "type": "byte",
          "value": 1
        },
        "Tile_Height": {
          "type": "int",
          "value": 0
        },
        "Tile_ID": {
          "type": "int",
          "value": 103
        },
        "Tile_MainLight1": {
          "type": "byte",
          "value": 0
        },
        "Tile_MainLight2": {
          "type": "byte",
          "value": 0
        },
        "Tile_Orientation": {
          "type": "int",
          "value": 0
        },
        "Tile_SrcLight1": {
          "type": "byte",
          "value": 0
        },
        "Tile_SrcLight2": {
          "type": "byte",
          "value": 0
        }
      },
      {
        "__struct_id": 1,
        "Tile_AnimLoop1": {
          "type": "byte",
          "value": 1
        },
        "Tile_AnimLoop2": {
          "type": "byte",
          "value": 1
        },
        "Tile_AnimLoop3": {
          "type": "byte",
          "value": 1
        },
        "Tile_Height": {
          "type": "int",
          "value": 1
        },
        "Tile_ID": {
          "type": "int",
          "value": 329
        },
        "Tile_MainLight1": {
          "type": "byte",
          "value": 0
        },
        "Tile_MainLight2": {
          "type": "byte",
          "value": 0
        },
        "Tile_Orientation": {
          "type": "int",
          "value": 3
        },
        "Tile_SrcLight1": {
          "type": "byte",
          "value": 0
        },
        "Tile_SrcLight2": {
          "type": "byte",
          "value": 0
        }
      },
      {
        "__struct_id": 1,
        "Tile_AnimLoop1": {
          "type": "byte",
          "value": 1
        },
        "Tile_AnimLoop2": {
          "type": "byte",
          "value": 1
        },
        "Tile_AnimLoop3": {
          "type": "byte",
          "value": 1
        },
        "Tile_Height": {
          "type": "int",
          "value": 0
        },
        "Tile_ID": {
          "type": "int",
          "value": 103
        },
        "Tile_MainLight1": {
          "type": "byte",
          "value": 0
        },
        "Tile_MainLight2": {
          "type": "byte",
          "value": 0
        },
        "Tile_Orientation": {
          "type": "int",
          "value": 2
        },
        "Tile_SrcLight1": {
          "type": "byte",
          "value": 0
        },
        "Tile_SrcLight2": {
          "type": "byte",
          "value": 0
        }
      },
      {
        "__struct_id": 1,
        "Tile_AnimLoop1": {
          "type": "byte",
          "value": 1
        },
        "Tile_AnimLoop2": {
          "type": "byte",
          "value": 1
        },
        "Tile_AnimLoop3": {
          "type": "byte",
          "value": 1
        },
        "Tile_Height": {
          "type": "int",
          "value": 0
        },
        "Tile_ID": {
          "type": "int",
          "value": 69
        },
        "Tile_MainLight1": {
          "type": "byte",
          "value": 0
        },
        "Tile_MainLight2": {
          "type": "byte",
          "value": 0
        },
        "Tile_Orientation": {
          "type": "int",
          "value": 3
        },
        "Tile_SrcLight1": {
          "type": "byte",
          "value": 0
        },
        "Tile_SrcLight2": {
          "type": "byte",
          "value": 0
        }
      },
      {
        "__struct_id": 1,
        "Tile_AnimLoop1": {
          "type": "byte",
          "value": 1
        },
        "Tile_AnimLoop2": {
          "type": "byte",
          "value": 1
        },
        "Tile_AnimLoop3": {
          "type": "byte",
          "value": 1
        },
        "Tile_Height": {
          "type": "int",
          "value": 0
        },
        "Tile_ID": {
          "type": "int",
          "value": 586
        },
        "Tile_MainLight1": {
          "type": "byte",
          "value": 0
        },
        "Tile_MainLight2": {
          "type": "byte",
          "value": 0
        },
        "Tile_Orientation": {
          "type": "int",
          "value": 1
        },
        "Tile_SrcLight1": {
          "type": "byte",
          "value": 0
        },
        "Tile_SrcLight2": {
          "type": "byte",
          "value": 0
        }
      },
      {
        "__struct_id": 1,
        "Tile_AnimLoop1": {
          "type": "byte",
          "value": 1
        },
        "Tile_AnimLoop2": {
          "type": "byte",
          "value": 1
        },
        "Tile_AnimLoop3": {
          "type": "byte",
          "value": 1
        },
        "Tile_Height": {
          "type": "int",
          "value": 0
        },
        "Tile_ID": {
          "type": "int",
          "value": 594
        },
        "Tile_MainLight1": {
          "type": "byte",
          "value": 0
        },
        "Tile_MainLight2": {
          "type": "byte",
          "value": 0
        },
        "Tile_Orientation": {
          "type": "int",
          "value": 0
        },
        "Tile_SrcLight1": {
          "type": "byte",
          "value": 0
        },
        "Tile_SrcLight2": {
          "type": "byte",
          "value": 0
        }
      },
      {
        "__struct_id": 1,
        "Tile_AnimLoop1": {
          "type": "byte",
          "value": 1
        },
        "Tile_AnimLoop2": {
          "type": "byte",
          "value": 1
        },
        "Tile_AnimLoop3": {
          "type": "byte",
          "value": 1
        },
        "Tile_Height": {
          "type": "int",
          "value": 0
        },
        "Tile_ID": {
          "type": "int",
          "value": 1215
        },
        "Tile_MainLight1": {
          "type": "byte",
          "value": 0
        },
        "Tile_MainLight2": {
          "type": "byte",
          "value": 0
        },
        "Tile_Orientation": {
          "type": "int",
          "value": 1
        },
        "Tile_SrcLight1": {
          "type": "byte",
          "value": 0
        },
        "Tile_SrcLight2": {
          "type": "byte",
          "value": 0
        }
      },
      {
        "__struct_id": 1,
        "Tile_AnimLoop1": {
          "type": "byte",
          "value": 1
        },
        "Tile_AnimLoop2": {
          "type": "byte",
          "value": 1
        },
        "Tile_AnimLoop3": {
          "type": "byte",
          "value": 1
        },
        "Tile_Height": {
          "type": "int",
          "value": 0
        },
        "Tile_ID": {
          "type": "int",
          "value": 74
        },
        "Tile_MainLight1": {
          "type": "byte",
          "value": 0
        },
        "Tile_MainLight2": {
          "type": "byte",
          "value": 0
        },
        "Tile_Orientation": {
          "type": "int",
          "value": 2
        },
        "Tile_SrcLight1": {
          "type": "byte",
          "value": 0
        },
        "Tile_SrcLight2": {
          "type": "byte",
          "value": 0
        }
      },
      {
        "__struct_id": 1,
        "Tile_AnimLoop1": {
          "type": "byte",
          "value": 1
        },
        "Tile_AnimLoop2": {
          "type": "byte",
          "value": 1
        },
        "Tile_AnimLoop3": {
          "type": "byte",
          "value": 1
        },
        "Tile_Height": {
          "type": "int",
          "value": 0
        },
        "Tile_ID": {
          "type": "int",
          "value": 115
        },
        "Tile_MainLight1": {
          "type": "byte",
          "value": 0
        },
        "Tile_MainLight2": {
          "type": "byte",
          "value": 0
        },
        "Tile_Orientation": {
          "type": "int",
          "value": 2
        },
        "Tile_SrcLight1": {
          "type": "byte",
          "value": 0
        },
        "Tile_SrcLight2": {
          "type": "byte",
          "value": 0
        }
      },
      {
        "__struct_id": 1,
        "Tile_AnimLoop1": {
          "type": "byte",
          "value": 1
        },
        "Tile_AnimLoop2": {
          "type": "byte",
          "value": 1
        },
        "Tile_AnimLoop3": {
          "type": "byte",
          "value": 1
        },
        "Tile_Height": {
          "type": "int",
          "value": 0
        },
        "Tile_ID": {
          "type": "int",
          "value": 119
        },
        "Tile_MainLight1": {
          "type": "byte",
          "value": 0
        },
        "Tile_MainLight2": {
          "type": "byte",
          "value": 0
        },
        "Tile_Orientation": {
          "type": "int",
          "value": 3
        },
        "Tile_SrcLight1": {
          "type": "byte",
          "value": 0
        },
        "Tile_SrcLight2": {
          "type": "byte",
          "value": 0
        }
      },
      {
        "__struct_id": 1,
        "Tile_AnimLoop1": {
          "type": "byte",
          "value": 1
        },
        "Tile_AnimLoop2": {
          "type": "byte",
          "value": 1
        },
        "Tile_AnimLoop3": {
          "type": "byte",
          "value": 1
        },
        "Tile_Height": {
          "type": "int",
          "value": 0
        },
        "Tile_ID": {
          "type": "int",
          "value": 116
        },
        "Tile_MainLight1": {
          "type": "byte",
          "value": 0
        },
        "Tile_MainLight2": {
          "type": "byte",
          "value": 0
        },
        "Tile_Orientation": {
          "type": "int",
          "value": 1
        },
        "Tile_SrcLight1": {
          "type": "byte",
          "value": 0
        },
        "Tile_SrcLight2": {
          "type": "byte",
          "value": 0
        }
      },
      {
        "__struct_id": 1,
        "Tile_AnimLoop1": {
          "type": "byte",
          "value": 1
        },
        "Tile_AnimLoop2": {
          "type": "byte",
          "value": 1
        },
        "Tile_AnimLoop3": {
          "type": "byte",
          "value": 1
        },
        "Tile_Height": {
          "type": "int",
          "value": 0
        },
        "Tile_ID": {
          "type": "int",
          "value": 612
        },
        "Tile_MainLight1": {
          "type": "byte",
          "value": 0
        },
        "Tile_MainLight2": {
          "type": "byte",
          "value": 0
        },
        "Tile_Orientation": {
          "type": "int",
          "value": 0
        },
        "Tile_SrcLight1": {
          "type": "byte",
          "value": 0
        },
        "Tile_SrcLight2": {
          "type": "byte",
          "value": 0
        }
      },
      {
        "__struct_id": 1,
        "Tile_AnimLoop1": {
          "type": "byte",
          "value": 1
        },
        "Tile_AnimLoop2": {
          "type": "byte",
          "value": 1
        },
        "Tile_AnimLoop3": {
          "type": "byte",
          "value": 1
        },
        "Tile_Height": {
          "type": "int",
          "value": 0
        },
        "Tile_ID": {
          "type": "int",
          "value": 1246
        },
        "Tile_MainLight1": {
          "type": "byte",
          "value": 0
        },
        "Tile_MainLight2": {
          "type": "byte",
          "value": 0
        },
        "Tile_Orientation": {
          "type": "int",
          "value": 0
        },
        "Tile_SrcLight1": {
          "type": "byte",
          "value": 0
        },
        "Tile_SrcLight2": {
          "type": "byte",
          "value": 0
        }
      },
      {
        "__struct_id": 1,
        "Tile_AnimLoop1": {
          "type": "byte",
          "value": 1
        },
        "Tile_AnimLoop2": {
          "type": "byte",
          "value": 1
        },
        "Tile_AnimLoop3": {
          "type": "byte",
          "value": 1
        },
        "Tile_Height": {
          "type": "int",
          "value": 0
        },
        "Tile_ID": {
          "type": "int",
          "value": 1233
        },
        "Tile_MainLight1": {
          "type": "byte",
          "value": 0
        },
        "Tile_MainLight2": {
          "type": "byte",
          "value": 0
        },
        "Tile_Orientation": {
          "type": "int",
          "value": 2
        },
        "Tile_SrcLight1": {
          "type": "byte",
          "value": 0
        },
        "Tile_SrcLight2": {
          "type": "byte",
          "value": 0
        }
      },
      {
        "__struct_id": 1,
        "Tile_AnimLoop1": {
          "type": "byte",
          "value": 1
        },
        "Tile_AnimLoop2": {
          "type": "byte",
          "value": 1
        },
        "Tile_AnimLoop3": {
          "type": "byte",
          "value": 1
        },
        "Tile_Height": {
          "type": "int",
          "value": 0
        },
        "Tile_ID": {
          "type": "int",
          "value": 56
        },
        "Tile_MainLight1": {
          "type": "byte",
          "value": 0
        },
        "Tile_MainLight2": {
          "type": "byte",
          "value": 0
        },
        "Tile_Orientation": {
          "type": "int",
          "value": 1
        },
        "Tile_SrcLight1": {
          "type": "byte",
          "value": 0
        },
        "Tile_SrcLight2": {
          "type": "byte",
          "value": 0
        }
      },
      {
        "__struct_id": 1,
        "Tile_AnimLoop1": {
          "type": "byte",
          "value": 1
        },
        "Tile_AnimLoop2": {
          "type": "byte",
          "value": 1
        },
        "Tile_AnimLoop3": {
          "type": "byte",
          "value": 1
        },
        "Tile_Height": {
          "type": "int",
          "value": 0
        },
        "Tile_ID": {
          "type": "int",
          "value": 55
        },
        "Tile_MainLight1": {
          "type": "byte",
          "value": 0
        },
        "Tile_MainLight2": {
          "type": "byte",
          "value": 0
        },
        "Tile_Orientation": {
          "type": "int",
          "value": 3
        },
        "Tile_SrcLight1": {
          "type": "byte",
          "value": 0
        },
        "Tile_SrcLight2": {
          "type": "byte",
          "value": 0
        }
      },
      {
        "__struct_id": 1,
        "Tile_AnimLoop1": {
          "type": "byte",
          "value": 1
        },
        "Tile_AnimLoop2": {
          "type": "byte",
          "value": 1
        },
        "Tile_AnimLoop3": {
          "type": "byte",
          "value": 1
        },
        "Tile_Height": {
          "type": "int",
          "value": 0
        },
        "Tile_ID": {
          "type": "int",
          "value": 52
        },
        "Tile_MainLight1": {
          "type": "byte",
          "value": 0
        },
        "Tile_MainLight2": {
          "type": "byte",
          "value": 0
        },
        "Tile_Orientation": {
          "type": "int",
          "value": 3
        },
        "Tile_SrcLight1": {
          "type": "byte",
          "value": 0
        },
        "Tile_SrcLight2": {
          "type": "byte",
          "value": 0
        }
      },
      {
        "__struct_id": 1,
        "Tile_AnimLoop1": {
          "type": "byte",
          "value": 1
        },
        "Tile_AnimLoop2": {
          "type": "byte",
          "value": 1
        },
        "Tile_AnimLoop3": {
          "type": "byte",
          "value": 1
        },
        "Tile_Height": {
          "type": "int",
          "value": 0
        },
        "Tile_ID": {
          "type": "int",
          "value": 253
        },
        "Tile_MainLight1": {
          "type": "byte",
          "value": 0
        },
        "Tile_MainLight2": {
          "type": "byte",
          "value": 0
        },
        "Tile_Orientation": {
          "type": "int",
          "value": 3
        },
        "Tile_SrcLight1": {
          "type": "byte",
          "value": 0
        },
        "Tile_SrcLight2": {
          "type": "byte",
          "value": 0
        }
      },
      {
        "__struct_id": 1,
        "Tile_AnimLoop1": {
          "type": "byte",
          "value": 1
        },
        "Tile_AnimLoop2": {
          "type": "byte",
          "value": 1
        },
        "Tile_AnimLoop3": {
          "type": "byte",
          "value": 1
        },
        "Tile_Height": {
          "type": "int",
          "value": 0
        },
        "Tile_ID": {
          "type": "int",
          "value": 249
        },
        "Tile_MainLight1": {
          "type": "byte",
          "value": 0
        },
        "Tile_MainLight2": {
          "type": "byte",
          "value": 0
        },
        "Tile_Orientation": {
          "type": "int",
          "value": 1
        },
        "Tile_SrcLight1": {
          "type": "byte",
          "value": 0
        },
        "Tile_SrcLight2": {
          "type": "byte",
          "value": 0
        }
      },
      {
        "__struct_id": 1,
        "Tile_AnimLoop1": {
          "type": "byte",
          "value": 1
        },
        "Tile_AnimLoop2": {
          "type": "byte",
          "value": 1
        },
        "Tile_AnimLoop3": {
          "type": "byte",
          "value": 1
        },
        "Tile_Height": {
          "type": "int",
          "value": 0
        },
        "Tile_ID": {
          "type": "int",
          "value": 622
        },
        "Tile_MainLight1": {
          "type": "byte",
          "value": 0
        },
        "Tile_MainLight2": {
          "type": "byte",
          "value": 0
        },
        "Tile_Orientation": {
          "type": "int",
          "value": 3
        },
        "Tile_SrcLight1": {
          "type": "byte",
          "value": 0
        },
        "Tile_SrcLight2": {
          "type": "byte",
          "value": 0
        }
      },
      {
        "__struct_id": 1,
        "Tile_AnimLoop1": {
          "type": "byte",
          "value": 1
        },
        "Tile_AnimLoop2": {
          "type": "byte",
          "value": 1
        },
        "Tile_AnimLoop3": {
          "type": "byte",
          "value": 1
        },
        "Tile_Height": {
          "type": "int",
          "value": 0
        },
        "Tile_ID": {
          "type": "int",
          "value": 1568
        },
        "Tile_MainLight1": {
          "type": "byte",
          "value": 0
        },
        "Tile_MainLight2": {
          "type": "byte",
          "value": 0
        },
        "Tile_Orientation": {
          "type": "int",
          "value": 1
        },
        "Tile_SrcLight1": {
          "type": "byte",
          "value": 0
        },
        "Tile_SrcLight2": {
          "type": "byte",
          "value": 0
        }
      },
      {
        "__struct_id": 1,
        "Tile_AnimLoop1": {
          "type": "byte",
          "value": 1
        },
        "Tile_AnimLoop2": {
          "type": "byte",
          "value": 1
        },
        "Tile_AnimLoop3": {
          "type": "byte",
          "value": 1
        },
        "Tile_Height": {
          "type": "int",
          "value": 0
        },
        "Tile_ID": {
          "type": "int",
          "value": 586
        },
        "Tile_MainLight1": {
          "type": "byte",
          "value": 0
        },
        "Tile_MainLight2": {
          "type": "byte",
          "value": 0
        },
        "Tile_Orientation": {
          "type": "int",
          "value": 1
        },
        "Tile_SrcLight1": {
          "type": "byte",
          "value": 0
        },
        "Tile_SrcLight2": {
          "type": "byte",
          "value": 0
        }
      },
      {
        "__struct_id": 1,
        "Tile_AnimLoop1": {
          "type": "byte",
          "value": 1
        },
        "Tile_AnimLoop2": {
          "type": "byte",
          "value": 1
        },
        "Tile_AnimLoop3": {
          "type": "byte",
          "value": 1
        },
        "Tile_Height": {
          "type": "int",
          "value": 0
        },
        "Tile_ID": {
          "type": "int",
          "value": 593
        },
        "Tile_MainLight1": {
          "type": "byte",
          "value": 0
        },
        "Tile_MainLight2": {
          "type": "byte",
          "value": 0
        },
        "Tile_Orientation": {
          "type": "int",
          "value": 1
        },
        "Tile_SrcLight1": {
          "type": "byte",
          "value": 0
        },
        "Tile_SrcLight2": {
          "type": "byte",
          "value": 0
        }
      },
      {
        "__struct_id": 1,
        "Tile_AnimLoop1": {
          "type": "byte",
          "value": 1
        },
        "Tile_AnimLoop2": {
          "type": "byte",
          "value": 1
        },
        "Tile_AnimLoop3": {
          "type": "byte",
          "value": 1
        },
        "Tile_Height": {
          "type": "int",
          "value": 0
        },
        "Tile_ID": {
          "type": "int",
          "value": 12
        },
        "Tile_MainLight1": {
          "type": "byte",
          "value": 0
        },
        "Tile_MainLight2": {
          "type": "byte",
          "value": 0
        },
        "Tile_Orientation": {
          "type": "int",
          "value": 0
        },
        "Tile_SrcLight1": {
          "type": "byte",
          "value": 0
        },
        "Tile_SrcLight2": {
          "type": "byte",
          "value": 0
        }
      },
      {
        "__struct_id": 1,
        "Tile_AnimLoop1": {
          "type": "byte",
          "value": 1
        },
        "Tile_AnimLoop2": {
          "type": "byte",
          "value": 1
        },
        "Tile_AnimLoop3": {
          "type": "byte",
          "value": 1
        },
        "Tile_Height": {
          "type": "int",
          "value": 0
        },
        "Tile_ID": {
          "type": "int",
          "value": 55
        },
        "Tile_MainLight1": {
          "type": "byte",
          "value": 0
        },
        "Tile_MainLight2": {
          "type": "byte",
          "value": 0
        },
        "Tile_Orientation": {
          "type": "int",
          "value": 2
        },
        "Tile_SrcLight1": {
          "type": "byte",
          "value": 0
        },
        "Tile_SrcLight2": {
          "type": "byte",
          "value": 0
        }
      },
      {
        "__struct_id": 1,
        "Tile_AnimLoop1": {
          "type": "byte",
          "value": 1
        },
        "Tile_AnimLoop2": {
          "type": "byte",
          "value": 1
        },
        "Tile_AnimLoop3": {
          "type": "byte",
          "value": 1
        },
        "Tile_Height": {
          "type": "int",
          "value": 0
        },
        "Tile_ID": {
          "type": "int",
          "value": 633
        },
        "Tile_MainLight1": {
          "type": "byte",
          "value": 0
        },
        "Tile_MainLight2": {
          "type": "byte",
          "value": 0
        },
        "Tile_Orientation": {
          "type": "int",
          "value": 0
        },
        "Tile_SrcLight1": {
          "type": "byte",
          "value": 0
        },
        "Tile_SrcLight2": {
          "type": "byte",
          "value": 0
        }
      },
      {
        "__struct_id": 1,
        "Tile_AnimLoop1": {
          "type": "byte",
          "value": 1
        },
        "Tile_AnimLoop2": {
          "type": "byte",
          "value": 1
        },
        "Tile_AnimLoop3": {
          "type": "byte",
          "value": 1
        },
        "Tile_Height": {
          "type": "int",
          "value": 0
        },
        "Tile_ID": {
          "type": "int",
          "value": 617
        },
        "Tile_MainLight1": {
          "type": "byte",
          "value": 0
        },
        "Tile_MainLight2": {
          "type": "byte",
          "value": 0
        },
        "Tile_Orientation": {
          "type": "int",
          "value": 0
        },
        "Tile_SrcLight1": {
          "type": "byte",
          "value": 0
        },
        "Tile_SrcLight2": {
          "type": "byte",
          "value": 0
        }
      },
      {
        "__struct_id": 1,
        "Tile_AnimLoop1": {
          "type": "byte",
          "value": 1
        },
        "Tile_AnimLoop2": {
          "type": "byte",
          "value": 1
        },
        "Tile_AnimLoop3": {
          "type": "byte",
          "value": 1
        },
        "Tile_Height": {
          "type": "int",
          "value": 0
        },
        "Tile_ID": {
          "type": "int",
          "value": 614
        },
        "Tile_MainLight1": {
          "type": "byte",
          "value": 0
        },
        "Tile_MainLight2": {
          "type": "byte",
          "value": 0
        },
        "Tile_Orientation": {
          "type": "int",
          "value": 0
        },
        "Tile_SrcLight1": {
          "type": "byte",
          "value": 0
        },
        "Tile_SrcLight2": {
          "type": "byte",
          "value": 0
        }
      }
    ]
  },
  "Tileset": {
    "type": "resref",
    "value": "trm02"
  },
  "Width": {
    "type": "int",
    "value": 8
  },
  "WindPower": {
    "type": "int",
    "value": 0
  }
}
