{
  "__data_type": "UTI ",
  "AddCost": {
    "type": "dword",
    "value": 497
  },
  "BaseItem": {
    "type": "int",
    "value": 29
  },
  "Charges": {
    "type": "byte",
    "value": 0
  },
  "Comment": {
    "type": "cexostring",
    "value": ""
  },
  "Cost": {
    "type": "dword",
    "value": 500
  },
  "Cursed": {
    "type": "byte",
    "value": 0
  },
  "DescIdentified": {
    "type": "cexolocstring",
    "value": {
      "0": "Recipe for a minor acid splash trap.\n\nSkill: Craft Trap\nDifficulty Class: 8\nMaterials required:\n-Energy crystal x1\n-Alchemical herb x1\n\nIf you have the required components and you or one of your companions have the necessary skill sufficiently trained, you can use this recipe to create this item.",
      "10": "Schemat pomniejszej pu³apki rozpryskowej.\n\nUmiejêtnoœæ: Tworzenie pu³apek\nStopieñ Trudnoœci: 8\nWymagane materia³y:\n-Kryszta³ energii x1\n-Zio³o alchemiczne x1\n\nJeœli posiadasz wymagane materia³y i ty lub któryœ z twoich towarzyszy posiadacie wymagan¹ umiejêtnoœæ na wystarczaj¹cym poziomie, mo¿esz u¿yæ tego schematu, by wytworzyæ przedmiot."
    }
  },
  "Description": {
    "type": "cexolocstring",
    "value": {}
  },
  "Identified": {
    "type": "byte",
    "value": 1
  },
  "LocalizedName": {
    "type": "cexolocstring",
    "value": {
      "0": "Recipe: Minor Acid Splash Trap",
      "10": "Schemat: Mniejsza Pu³apka Rozpryskowa"
    }
  },
  "ModelPart1": {
    "type": "byte",
    "value": 52
  },
  "PaletteID": {
    "type": "byte",
    "value": 64
  },
  "Plot": {
    "type": "byte",
    "value": 0
  },
  "PropertiesList": {
    "type": "list",
    "value": [
      {
        "__struct_id": 0,
        "ChanceAppear": {
          "type": "byte",
          "value": 100
        },
        "CostTable": {
          "type": "byte",
          "value": 3
        },
        "CostValue": {
          "type": "word",
          "value": 13
        },
        "Param1": {
          "type": "byte",
          "value": 255
        },
        "Param1Value": {
          "type": "byte",
          "value": 0
        },
        "PropertyName": {
          "type": "word",
          "value": 15
        },
        "Subtype": {
          "type": "word",
          "value": 335
        }
      }
    ]
  },
  "StackSize": {
    "type": "word",
    "value": 1
  },
  "Stolen": {
    "type": "byte",
    "value": 0
  },
  "Tag": {
    "type": "cexostring",
    "value": "it_rectrap01a"
  },
  "TemplateResRef": {
    "type": "resref",
    "value": "it_rectrap01a"
  },
  "VarTable": {
    "type": "list",
    "value": [
      {
        "__struct_id": 0,
        "Name": {
          "type": "cexostring",
          "value": "COMPONENT_1"
        },
        "Type": {
          "type": "dword",
          "value": 3
        },
        "Value": {
          "type": "cexostring",
          "value": "it_herb1"
        }
      },
      {
        "__struct_id": 0,
        "Name": {
          "type": "cexostring",
          "value": "COMPONENT_1_NUM"
        },
        "Type": {
          "type": "dword",
          "value": 1
        },
        "Value": {
          "type": "int",
          "value": 1
        }
      },
      {
        "__struct_id": 0,
        "Name": {
          "type": "cexostring",
          "value": "CRAFT_DC"
        },
        "Type": {
          "type": "dword",
          "value": 1
        },
        "Value": {
          "type": "int",
          "value": 8
        }
      },
      {
        "__struct_id": 0,
        "Name": {
          "type": "cexostring",
          "value": "CRAFT_SKILL"
        },
        "Type": {
          "type": "dword",
          "value": 1
        },
        "Value": {
          "type": "int",
          "value": 22
        }
      },
      {
        "__struct_id": 0,
        "Name": {
          "type": "cexostring",
          "value": "CRAFT_RESREF"
        },
        "Type": {
          "type": "dword",
          "value": 3
        },
        "Value": {
          "type": "cexostring",
          "value": "nw_it_trap033"
        }
      },
      {
        "__struct_id": 0,
        "Name": {
          "type": "cexostring",
          "value": "COMPONENT_2"
        },
        "Type": {
          "type": "dword",
          "value": 3
        },
        "Value": {
          "type": "cexostring",
          "value": "it_crystal1"
        }
      },
      {
        "__struct_id": 0,
        "Name": {
          "type": "cexostring",
          "value": "COMPONENT_2_NUM"
        },
        "Type": {
          "type": "dword",
          "value": 1
        },
        "Value": {
          "type": "int",
          "value": 1
        }
      }
    ]
  }
}
